ALU_DECODER/simulation/qsim/ALU_DECODER.msim.vcd
$comment
	File created using the following command:
		vcd file ALU_DECODER.msim.vcd -direction
$end
$date
	Wed Nov 15 16:31:34 2023
$end
$version
	ModelSim Version 2020.1
$end
$timescale
	1ps
$end

$scope module alu_decoder_vhd_vec_tst $end
$var wire 1 ! ALUOP [1] $end
$var wire 1 " ALUOP [0] $end
$var wire 1 # F [2] $end
$var wire 1 $ F [1] $end
$var wire 1 % F [0] $end
$var wire 1 & FUNCT [5] $end
$var wire 1 ' FUNCT [4] $end
$var wire 1 ( FUNCT [3] $end
$var wire 1 ) FUNCT [2] $end
$var wire 1 * FUNCT [1] $end
$var wire 1 + FUNCT [0] $end

$scope module i1 $end
$var wire 1 , gnd $end
$var wire 1 - vcc $end
$var wire 1 . unknown $end
$var wire 1 / devoe $end
$var wire 1 0 devclrn $end
$var wire 1 1 devpor $end
$var wire 1 2 ww_devoe $end
$var wire 1 3 ww_devclrn $end
$var wire 1 4 ww_devpor $end
$var wire 1 5 ww_ALUOP [1] $end
$var wire 1 6 ww_ALUOP [0] $end
$var wire 1 7 ww_FUNCT [5] $end
$var wire 1 8 ww_FUNCT [4] $end
$var wire 1 9 ww_FUNCT [3] $end
$var wire 1 : ww_FUNCT [2] $end
$var wire 1 ; ww_FUNCT [1] $end
$var wire 1 < ww_FUNCT [0] $end
$var wire 1 = ww_F [2] $end
$var wire 1 > ww_F [1] $end
$var wire 1 ? ww_F [0] $end
$var wire 1 @ \FUNCT[3]~input_o\ $end
$var wire 1 A \FUNCT[4]~input_o\ $end
$var wire 1 B \FUNCT[5]~input_o\ $end
$var wire 1 C \~QUARTUS_CREATED_GND~I_combout\ $end
$var wire 1 D \FUNCT[0]~input_o\ $end
$var wire 1 E \ALUOP[1]~input_o\ $end
$var wire 1 F \ALUOP[0]~input_o\ $end
$var wire 1 G \F[0]$latch~combout\ $end
$var wire 1 H \FUNCT[1]~input_o\ $end
$var wire 1 I \F[1]$latch~combout\ $end
$var wire 1 J \Equal0~1_combout\ $end
$var wire 1 K \Equal0~2_combout\ $end
$var wire 1 L \FUNCT[2]~input_o\ $end
$var wire 1 M \Equal0~0_combout\ $end
$var wire 1 N \F[2]$latch~combout\ $end
$var wire 1 O \ALT_INV_Equal0~1_combout\ $end
$var wire 1 P \ALT_INV_Equal0~0_combout\ $end
$var wire 1 Q \ALT_INV_Equal0~2_combout\ $end
$var wire 1 R \ALT_INV_F[0]$latch~combout\ $end
$var wire 1 S \ALT_INV_F[2]$latch~combout\ $end
$var wire 1 T \ALT_INV_F[1]$latch~combout\ $end
$var wire 1 U \ALT_INV_FUNCT[0]~input_o\ $end
$var wire 1 V \ALT_INV_ALUOP[0]~input_o\ $end
$var wire 1 W \ALT_INV_ALUOP[1]~input_o\ $end
$var wire 1 X \ALT_INV_FUNCT[1]~input_o\ $end
$var wire 1 Y \ALT_INV_FUNCT[2]~input_o\ $end
$upscope $end
$upscope $end
$enddefinitions $end
#0
$dumpvars
0,
1-
x.
1/
10
11
12
13
14
0@
0A
0B
xC
1D
0E
0F
0G
1H
1I
0J
0K
0L
0M
0N
1O
1P
1Q
1R
1S
0T
0U
1V
1W
0X
1Y
0!
0"
0&
0'
0(
0)
1*
1+
05
06
07
08
09
0:
1;
1<
0=
1>
0?
0#
1$
0%
$end
#10000
1"
16
1F
0V
1J
1K
0Q
0O
1N
0S
1=
1#
#20000
0"
1!
06
15
1E
0F
1V
0W
1G
0K
1M
0P
1Q
0R
0N
1S
1?
1%
0=
0#
#30000
1"
16
1F
0V
0M
1P
#40000
0"
0!
06
05
0E
0F
1V
1W
0G
0J
1O
1R
0?
0%
#50000
1"
16
1F
0V
1J
1K
0Q
0O
1N
0S
1=
1#
#60000
0"
1!
06
15
1E
0F
1V
0W
1G
0K
1M
0P
1Q
0R
0N
1S
1?
1%
0=
0#
#70000
1"
16
1F
0V
0M
1P
#80000
0"
0!
06
05
0E
0F
1V
1W
0G
0J
1O
1R
0?
0%
#90000
1"
16
1F
0V
1J
1K
0Q
0O
1N
0S
1=
1#
#100000
0"
1!
06
15
1E
0F
1V
0W
1G
0K
1M
0P
1Q
0R
0N
1S
1?
1%
0=
0#
#110000
1"
16
1F
0V
0M
1P
#120000
0"
0!
06
05
0E
0F
1V
1W
0G
0J
1O
1R
0?
0%
#130000
1"
16
1F
0V
1J
1K
0Q
0O
1N
0S
1=
1#
#140000
0"
1!
06
15
1E
0F
1V
0W
1G
0K
1M
0P
1Q
0R
0N
1S
1?
1%
0=
0#
#150000
1"
16
1F
0V
0M
1P
#160000
0"
0!
06
05
0E
0F
1V
1W
0G
0J
1O
1R
0?
0%
#170000
1"
16
1F
0V
1J
1K
0Q
0O
1N
0S
1=
1#
#180000
0"
1!
06
15
1E
0F
1V
0W
1G
0K
1M
0P
1Q
0R
0N
1S
1?
1%
0=
0#
#190000
1"
16
1F
0V
0M
1P
#200000
0"
0!
06
05
0E
0F
1V
1W
0G
0J
1O
1R
0?
0%
#210000
1"
16
1F
0V
1J
1K
0Q
0O
1N
0S
1=
1#
#220000
0"
1!
06
15
1E
0F
1V
0W
1G
0K
1M
0P
1Q
0R
0N
1S
1?
1%
0=
0#
#230000
1"
16
1F
0V
0M
1P
#240000
0"
0!
06
05
0E
0F
1V
1W
0G
0J
1O
1R
0?
0%
#250000
1"
16
1F
0V
1J
1K
0Q
0O
1N
0S
1=
1#
#260000
0"
1!
06
15
1E
0F
1V
0W
1G
0K
1M
0P
1Q
0R
0N
1S
1?
1%
0=
0#
#270000
1"
16
1F
0V
0M
1P
#280000
0"
0!
06
05
0E
0F
1V
1W
0G
0J
1O
1R
0?
0%
#290000
1"
16
1F
0V
1J
1K
0Q
0O
1N
0S
1=
1#
#300000
0"
1!
06
15
1E
0F
1V
0W
1G
0K
1M
0P
1Q
0R
0N
1S
1?
1%
0=
0#
#310000
1"
16
1F
0V
0M
1P
#320000
0"
0!
06
05
0E
0F
1V
1W
0G
0J
1O
1R
0?
0%
#330000
1"
16
1F
0V
1J
1K
0Q
0O
1N
0S
1=
1#
#340000
0"
1!
06
15
1E
0F
1V
0W
1G
0K
1M
0P
1Q
0R
0N
1S
1?
1%
0=
0#
#350000
1"
16
1F
0V
0M
1P
#360000
0"
0!
06
05
0E
0F
1V
1W
0G
0J
1O
1R
0?
0%
#370000
1"
16
1F
0V
1J
1K
0Q
0O
1N
0S
1=
1#
#380000
0"
1!
06
15
1E
0F
1V
0W
1G
0K
1M
0P
1Q
0R
0N
1S
1?
1%
0=
0#
#390000
1"
16
1F
0V
0M
1P
#400000
0"
0!
06
05
0E
0F
1V
1W
0G
0J
1O
1R
0?
0%
#410000
1"
16
1F
0V
1J
1K
0Q
0O
1N
0S
1=
1#
#420000
0"
1!
06
15
1E
0F
1V
0W
1G
0K
1M
0P
1Q
0R
0N
1S
1?
1%
0=
0#
#430000
1"
16
1F
0V
0M
1P
#440000
0"
0!
06
05
0E
0F
1V
1W
0G
0J
1O
1R
0?
0%
#450000
1"
16
1F
0V
1J
1K
0Q
0O
1N
0S
1=
1#
#460000
0"
1!
06
15
1E
0F
1V
0W
1G
0K
1M
0P
1Q
0R
0N
1S
1?
1%
0=
0#
#470000
1"
16
1F
0V
0M
1P
#480000
0"
0!
06
05
0E
0F
1V
1W
0G
0J
1O
1R
0?
0%
#490000
1"
16
1F
0V
1J
1K
0Q
0O
1N
0S
1=
1#
#500000
0"
1!
06
15
1E
0F
1V
0W
1G
0K
1M
0P
1Q
0R
0N
1S
1?
1%
0=
0#
#510000
1"
16
1F
0V
0M
1P
#520000
0"
0!
06
05
0E
0F
1V
1W
0G
0J
1O
1R
0?
0%
#530000
1"
16
1F
0V
1J
1K
0Q
0O
1N
0S
1=
1#
#540000
0"
1!
06
15
1E
0F
1V
0W
1G
0K
1M
0P
1Q
0R
0N
1S
1?
1%
0=
0#
#550000
1"
16
1F
0V
0M
1P
#560000
0"
0!
06
05
0E
0F
1V
1W
0G
0J
1O
1R
0?
0%
#570000
1"
16
1F
0V
1J
1K
0Q
0O
1N
0S
1=
1#
#580000
0"
1!
06
15
1E
0F
1V
0W
1G
0K
1M
0P
1Q
0R
0N
1S
1?
1%
0=
0#
#590000
1"
16
1F
0V
0M
1P
#600000
0"
0!
06
05
0E
0F
1V
1W
0G
0J
1O
1R
0?
0%
#610000
1"
16
1F
0V
1J
1K
0Q
0O
1N
0S
1=
1#
#620000
0"
1!
06
15
1E
0F
1V
0W
1G
0K
1M
0P
1Q
0R
0N
1S
1?
1%
0=
0#
#630000
1"
16
1F
0V
0M
1P
#640000
0"
0!
06
05
0E
0F
1V
1W
0G
0J
1O
1R
0?
0%
#650000
1"
16
1F
0V
1J
1K
0Q
0O
1N
0S
1=
1#
#660000
0"
1!
06
15
1E
0F
1V
0W
1G
0K
1M
0P
1Q
0R
0N
1S
1?
1%
0=
0#
#670000
1"
16
1F
0V
0M
1P
#680000
0"
0!
06
05
0E
0F
1V
1W
0G
0J
1O
1R
0?
0%
#690000
1"
16
1F
0V
1J
1K
0Q
0O
1N
0S
1=
1#
#700000
0"
1!
06
15
1E
0F
1V
0W
1G
0K
1M
0P
1Q
0R
0N
1S
1?
1%
0=
0#
#710000
1"
16
1F
0V
0M
1P
#720000
0"
0!
06
05
0E
0F
1V
1W
0G
0J
1O
1R
0?
0%
#730000
1"
16
1F
0V
1J
1K
0Q
0O
1N
0S
1=
1#
#740000
0"
1!
06
15
1E
0F
1V
0W
1G
0K
1M
0P
1Q
0R
0N
1S
1?
1%
0=
0#
#750000
1"
16
1F
0V
0M
1P
#760000
0"
0!
06
05
0E
0F
1V
1W
0G
0J
1O
1R
0?
0%
#770000
1"
16
1F
0V
1J
1K
0Q
0O
1N
0S
1=
1#
#780000
0"
1!
06
15
1E
0F
1V
0W
1G
0K
1M
0P
1Q
0R
0N
1S
1?
1%
0=
0#
#790000
1"
16
1F
0V
0M
1P
#800000
0"
0!
06
05
0E
0F
1V
1W
0G
0J
1O
1R
0?
0%
#810000
1"
16
1F
0V
1J
1K
0Q
0O
1N
0S
1=
1#
#820000
0"
1!
06
15
1E
0F
1V
0W
1G
0K
1M
0P
1Q
0R
0N
1S
1?
1%
0=
0#
#830000
1"
16
1F
0V
0M
1P
#840000
0"
0!
06
05
0E
0F
1V
1W
0G
0J
1O
1R
0?
0%
#850000
1"
16
1F
0V
1J
1K
0Q
0O
1N
0S
1=
1#
#860000
0"
1!
06
15
1E
0F
1V
0W
1G
0K
1M
0P
1Q
0R
0N
1S
1?
1%
0=
0#
#870000
1"
16
1F
0V
0M
1P
#880000
0"
0!
06
05
0E
0F
1V
1W
0G
0J
1O
1R
0?
0%
#890000
1"
16
1F
0V
1J
1K
0Q
0O
1N
0S
1=
1#
#900000
0"
1!
06
15
1E
0F
1V
0W
1G
0K
1M
0P
1Q
0R
0N
1S
1?
1%
0=
0#
#910000
1"
16
1F
0V
0M
1P
#920000
0"
0!
06
05
0E
0F
1V
1W
0G
0J
1O
1R
0?
0%
#930000
1"
16
1F
0V
1J
1K
0Q
0O
1N
0S
1=
1#
#940000
0"
1!
06
15
1E
0F
1V
0W
1G
0K
1M
0P
1Q
0R
0N
1S
1?
1%
0=
0#
#950000
1"
16
1F
0V
0M
1P
#960000
0"
0!
06
05
0E
0F
1V
1W
0G
0J
1O
1R
0?
0%
#970000
1"
16
1F
0V
1J
1K
0Q
0O
1N
0S
1=
1#
#980000
0"
1!
06
15
1E
0F
1V
0W
1G
0K
1M
0P
1Q
0R
0N
1S
1?
1%
0=
0#
#990000
1"
16
1F
0V
0M
1P
