EX_FORWORDING/simulation/qsim/EX_FORWORDING.msim.vcd
$comment
	File created using the following command:
		vcd file EX_FORWORDING.msim.vcd -direction
$end
$date
	Wed Nov 22 22:34:05 2023
$end
$version
	ModelSim Version 2020.1
$end
$timescale
	1ps
$end

$scope module ex_forwarding1_vhd_vec_tst $end
$var wire 1 ! EX_MEM_RegisterRd [4] $end
$var wire 1 " EX_MEM_RegisterRd [3] $end
$var wire 1 # EX_MEM_RegisterRd [2] $end
$var wire 1 $ EX_MEM_RegisterRd [1] $end
$var wire 1 % EX_MEM_RegisterRd [0] $end
$var wire 1 & EX_MEM_RegWrite $end
$var wire 1 ' ForwardA [1] $end
$var wire 1 ( ForwardA [0] $end
$var wire 1 ) ForwardB [1] $end
$var wire 1 * ForwardB [0] $end
$var wire 1 + ID_EX_RegisterRs [4] $end
$var wire 1 , ID_EX_RegisterRs [3] $end
$var wire 1 - ID_EX_RegisterRs [2] $end
$var wire 1 . ID_EX_RegisterRs [1] $end
$var wire 1 / ID_EX_RegisterRs [0] $end
$var wire 1 0 ID_EX_RegisterRt [4] $end
$var wire 1 1 ID_EX_RegisterRt [3] $end
$var wire 1 2 ID_EX_RegisterRt [2] $end
$var wire 1 3 ID_EX_RegisterRt [1] $end
$var wire 1 4 ID_EX_RegisterRt [0] $end
$var wire 1 5 MEM_WB_RegisterRd [4] $end
$var wire 1 6 MEM_WB_RegisterRd [3] $end
$var wire 1 7 MEM_WB_RegisterRd [2] $end
$var wire 1 8 MEM_WB_RegisterRd [1] $end
$var wire 1 9 MEM_WB_RegisterRd [0] $end
$var wire 1 : MEM_WB_RegWrite $end

$scope module i1 $end
$var wire 1 ; gnd $end
$var wire 1 < vcc $end
$var wire 1 = unknown $end
$var wire 1 > devoe $end
$var wire 1 ? devclrn $end
$var wire 1 @ devpor $end
$var wire 1 A ww_devoe $end
$var wire 1 B ww_devclrn $end
$var wire 1 C ww_devpor $end
$var wire 1 D ww_EX_MEM_RegisterRd [4] $end
$var wire 1 E ww_EX_MEM_RegisterRd [3] $end
$var wire 1 F ww_EX_MEM_RegisterRd [2] $end
$var wire 1 G ww_EX_MEM_RegisterRd [1] $end
$var wire 1 H ww_EX_MEM_RegisterRd [0] $end
$var wire 1 I ww_MEM_WB_RegisterRd [4] $end
$var wire 1 J ww_MEM_WB_RegisterRd [3] $end
$var wire 1 K ww_MEM_WB_RegisterRd [2] $end
$var wire 1 L ww_MEM_WB_RegisterRd [1] $end
$var wire 1 M ww_MEM_WB_RegisterRd [0] $end
$var wire 1 N ww_ID_EX_RegisterRs [4] $end
$var wire 1 O ww_ID_EX_RegisterRs [3] $end
$var wire 1 P ww_ID_EX_RegisterRs [2] $end
$var wire 1 Q ww_ID_EX_RegisterRs [1] $end
$var wire 1 R ww_ID_EX_RegisterRs [0] $end
$var wire 1 S ww_ID_EX_RegisterRt [4] $end
$var wire 1 T ww_ID_EX_RegisterRt [3] $end
$var wire 1 U ww_ID_EX_RegisterRt [2] $end
$var wire 1 V ww_ID_EX_RegisterRt [1] $end
$var wire 1 W ww_ID_EX_RegisterRt [0] $end
$var wire 1 X ww_EX_MEM_RegWrite $end
$var wire 1 Y ww_MEM_WB_RegWrite $end
$var wire 1 Z ww_ForwardA [1] $end
$var wire 1 [ ww_ForwardA [0] $end
$var wire 1 \ ww_ForwardB [1] $end
$var wire 1 ] ww_ForwardB [0] $end
$var wire 1 ^ \~QUARTUS_CREATED_GND~I_combout\ $end
$var wire 1 _ \MEM_WB_RegisterRd[4]~input_o\ $end
$var wire 1 ` \ID_EX_RegisterRs[3]~input_o\ $end
$var wire 1 a \EX_MEM_RegisterRd[3]~input_o\ $end
$var wire 1 b \EX_MEM_RegisterRd[4]~input_o\ $end
$var wire 1 c \ID_EX_RegisterRs[4]~input_o\ $end
$var wire 1 d \Equal0~1_combout\ $end
$var wire 1 e \EX_MEM_RegisterRd[1]~input_o\ $end
$var wire 1 f \ID_EX_RegisterRs[2]~input_o\ $end
$var wire 1 g \EX_MEM_RegisterRd[0]~input_o\ $end
$var wire 1 h \ID_EX_RegisterRs[0]~input_o\ $end
$var wire 1 i \EX_MEM_RegisterRd[2]~input_o\ $end
$var wire 1 j \ID_EX_RegisterRs[1]~input_o\ $end
$var wire 1 k \Equal0~0_combout\ $end
$var wire 1 l \MEM_WB_RegisterRd[1]~input_o\ $end
$var wire 1 m \MEM_WB_RegWrite~input_o\ $end
$var wire 1 n \MEM_WB_RegisterRd[0]~input_o\ $end
$var wire 1 o \ForwardA~0_combout\ $end
$var wire 1 p \MEM_WB_RegisterRd[2]~input_o\ $end
$var wire 1 q \MEM_WB_RegisterRd[3]~input_o\ $end
$var wire 1 r \ForwardA~1_combout\ $end
$var wire 1 s \ForwardA~2_combout\ $end
$var wire 1 t \EX_MEM_RegWrite~input_o\ $end
$var wire 1 u \process_0~0_combout\ $end
$var wire 1 v \ID_EX_RegisterRt[3]~input_o\ $end
$var wire 1 w \ID_EX_RegisterRt[2]~input_o\ $end
$var wire 1 x \ForwardB~1_combout\ $end
$var wire 1 y \ID_EX_RegisterRt[0]~input_o\ $end
$var wire 1 z \ID_EX_RegisterRt[1]~input_o\ $end
$var wire 1 { \ForwardB~0_combout\ $end
$var wire 1 | \ID_EX_RegisterRt[4]~input_o\ $end
$var wire 1 } \Equal2~1_combout\ $end
$var wire 1 ~ \Equal2~0_combout\ $end
$var wire 1 !! \ForwardB~2_combout\ $end
$var wire 1 "! \process_0~1_combout\ $end
$var wire 1 #! \ALT_INV_Equal0~0_combout\ $end
$var wire 1 $! \ALT_INV_Equal0~1_combout\ $end
$var wire 1 %! \ALT_INV_ForwardA~0_combout\ $end
$var wire 1 &! \ALT_INV_ForwardA~1_combout\ $end
$var wire 1 '! \ALT_INV_Equal2~0_combout\ $end
$var wire 1 (! \ALT_INV_Equal2~1_combout\ $end
$var wire 1 )! \ALT_INV_ForwardB~0_combout\ $end
$var wire 1 *! \ALT_INV_ForwardB~1_combout\ $end
$var wire 1 +! \ALT_INV_ID_EX_RegisterRs[4]~input_o\ $end
$var wire 1 ,! \ALT_INV_EX_MEM_RegisterRd[0]~input_o\ $end
$var wire 1 -! \ALT_INV_MEM_WB_RegisterRd[4]~input_o\ $end
$var wire 1 .! \ALT_INV_ID_EX_RegisterRs[0]~input_o\ $end
$var wire 1 /! \ALT_INV_EX_MEM_RegisterRd[1]~input_o\ $end
$var wire 1 0! \ALT_INV_ID_EX_RegisterRs[1]~input_o\ $end
$var wire 1 1! \ALT_INV_EX_MEM_RegisterRd[2]~input_o\ $end
$var wire 1 2! \ALT_INV_ID_EX_RegisterRs[2]~input_o\ $end
$var wire 1 3! \ALT_INV_EX_MEM_RegisterRd[3]~input_o\ $end
$var wire 1 4! \ALT_INV_ID_EX_RegisterRs[3]~input_o\ $end
$var wire 1 5! \ALT_INV_EX_MEM_RegisterRd[4]~input_o\ $end
$var wire 1 6! \ALT_INV_MEM_WB_RegWrite~input_o\ $end
$var wire 1 7! \ALT_INV_MEM_WB_RegisterRd[0]~input_o\ $end
$var wire 1 8! \ALT_INV_MEM_WB_RegisterRd[2]~input_o\ $end
$var wire 1 9! \ALT_INV_MEM_WB_RegisterRd[1]~input_o\ $end
$var wire 1 :! \ALT_INV_MEM_WB_RegisterRd[3]~input_o\ $end
$var wire 1 ;! \ALT_INV_EX_MEM_RegWrite~input_o\ $end
$var wire 1 <! \ALT_INV_ID_EX_RegisterRt[4]~input_o\ $end
$var wire 1 =! \ALT_INV_ID_EX_RegisterRt[0]~input_o\ $end
$var wire 1 >! \ALT_INV_ID_EX_RegisterRt[1]~input_o\ $end
$var wire 1 ?! \ALT_INV_ID_EX_RegisterRt[2]~input_o\ $end
$var wire 1 @! \ALT_INV_ID_EX_RegisterRt[3]~input_o\ $end
$upscope $end
$upscope $end
$enddefinitions $end
#0
$dumpvars
0&
1:
0;
1<
x=
1>
1?
1@
1A
1B
1C
0X
1Y
x^
0_
0`
0a
0b
0c
1d
0e
1f
0g
0h
1i
0j
1k
1l
1m
0n
0o
0p
0q
0r
0s
0t
0u
0v
0w
1x
0y
1z
1{
0|
1}
0~
1!!
0"!
0#!
0$!
1%!
1&!
1'!
0(!
0)!
0*!
1+!
1,!
1-!
1.!
1/!
10!
01!
02!
13!
14!
15!
06!
17!
18!
09!
1:!
1;!
1<!
1=!
0>!
1?!
1@!
0!
0"
1#
0$
0%
0+
0,
1-
0.
0/
00
01
02
13
04
05
06
07
18
09
0D
0E
1F
0G
0H
0I
0J
0K
1L
0M
0N
0O
1P
0Q
0R
0S
0T
0U
1V
0W
0Z
0[
0\
1]
0'
0(
0)
1*
$end
#10000
1&
0:
1X
0Y
0m
1t
0;!
16!
0{
1u
1)!
0!!
1Z
1'
0]
0*
#20000
0&
1:
0X
1Y
1m
0t
1;!
06!
1{
0u
0)!
1!!
0Z
0'
1]
1*
#30000
1&
0:
1X
0Y
0m
1t
0;!
16!
0{
1u
1)!
0!!
1Z
1'
0]
0*
#40000
0&
1:
0X
1Y
1m
0t
1;!
06!
1{
0u
0)!
1!!
0Z
0'
1]
1*
#50000
1&
0:
1X
0Y
0m
1t
0;!
16!
0{
1u
1)!
0!!
1Z
1'
0]
0*
#60000
0&
1:
0X
1Y
1m
0t
1;!
06!
1{
0u
0)!
1!!
0Z
0'
1]
1*
#70000
1&
0:
1X
0Y
0m
1t
0;!
16!
0{
1u
1)!
0!!
1Z
1'
0]
0*
#80000
0&
1:
0X
1Y
1m
0t
1;!
06!
1{
0u
0)!
1!!
0Z
0'
1]
1*
#90000
1&
0:
1X
0Y
0m
1t
0;!
16!
0{
1u
1)!
0!!
1Z
1'
0]
0*
#100000
0&
1:
0X
1Y
1m
0t
1;!
06!
1{
0u
0)!
1!!
0Z
0'
1]
1*
#110000
1&
0:
1X
0Y
0m
1t
0;!
16!
0{
1u
1)!
0!!
1Z
1'
0]
0*
#120000
0&
1:
0X
1Y
1m
0t
1;!
06!
1{
0u
0)!
1!!
0Z
0'
1]
1*
#130000
1&
0:
1X
0Y
0m
1t
0;!
16!
0{
1u
1)!
0!!
1Z
1'
0]
0*
#140000
0&
1:
0X
1Y
1m
0t
1;!
06!
1{
0u
0)!
1!!
0Z
0'
1]
1*
#150000
1&
0:
1X
0Y
0m
1t
0;!
16!
0{
1u
1)!
0!!
1Z
1'
0]
0*
#160000
0&
1:
0X
1Y
1m
0t
1;!
06!
1{
0u
0)!
1!!
0Z
0'
1]
1*
#170000
1&
0:
1X
0Y
0m
1t
0;!
16!
0{
1u
1)!
0!!
1Z
1'
0]
0*
#180000
0&
1:
0X
1Y
1m
0t
1;!
06!
1{
0u
0)!
1!!
0Z
0'
1]
1*
#190000
1&
0:
1X
0Y
0m
1t
0;!
16!
0{
1u
1)!
0!!
1Z
1'
0]
0*
#200000
0&
1:
0X
1Y
1m
0t
1;!
06!
1{
0u
0)!
1!!
0Z
0'
1]
1*
#210000
1&
0:
1X
0Y
0m
1t
0;!
16!
0{
1u
1)!
0!!
1Z
1'
0]
0*
#220000
0&
1:
0X
1Y
1m
0t
1;!
06!
1{
0u
0)!
1!!
0Z
0'
1]
1*
#230000
1&
0:
1X
0Y
0m
1t
0;!
16!
0{
1u
1)!
0!!
1Z
1'
0]
0*
#240000
0&
1:
0X
1Y
1m
0t
1;!
06!
1{
0u
0)!
1!!
0Z
0'
1]
1*
#250000
1&
0:
1X
0Y
0m
1t
0;!
16!
0{
1u
1)!
0!!
1Z
1'
0]
0*
#260000
0&
1:
0X
1Y
1m
0t
1;!
06!
1{
0u
0)!
1!!
0Z
0'
1]
1*
#270000
1&
0:
1X
0Y
0m
1t
0;!
16!
0{
1u
1)!
0!!
1Z
1'
0]
0*
#280000
0&
1:
0X
1Y
1m
0t
1;!
06!
1{
0u
0)!
1!!
0Z
0'
1]
1*
#290000
1&
0:
1X
0Y
0m
1t
0;!
16!
0{
1u
1)!
0!!
1Z
1'
0]
0*
#300000
0&
1:
0X
1Y
1m
0t
1;!
06!
1{
0u
0)!
1!!
0Z
0'
1]
1*
#310000
1&
0:
1X
0Y
0m
1t
0;!
16!
0{
1u
1)!
0!!
1Z
1'
0]
0*
#320000
0&
1:
0X
1Y
1m
0t
1;!
06!
1{
0u
0)!
1!!
0Z
0'
1]
1*
#330000
1&
0:
1X
0Y
0m
1t
0;!
16!
0{
1u
1)!
0!!
1Z
1'
0]
0*
#340000
0&
1:
0X
1Y
1m
0t
1;!
06!
1{
0u
0)!
1!!
0Z
0'
1]
1*
#350000
1&
0:
1X
0Y
0m
1t
0;!
16!
0{
1u
1)!
0!!
1Z
1'
0]
0*
#360000
0&
1:
0X
1Y
1m
0t
1;!
06!
1{
0u
0)!
1!!
0Z
0'
1]
1*
#370000
1&
0:
1X
0Y
0m
1t
0;!
16!
0{
1u
1)!
0!!
1Z
1'
0]
0*
#380000
0&
1:
0X
1Y
1m
0t
1;!
06!
1{
0u
0)!
1!!
0Z
0'
1]
1*
#390000
1&
0:
1X
0Y
0m
1t
0;!
16!
0{
1u
1)!
0!!
1Z
1'
0]
0*
#400000
0&
1:
0X
1Y
1m
0t
1;!
06!
1{
0u
0)!
1!!
0Z
0'
1]
1*
#410000
1&
0:
1X
0Y
0m
1t
0;!
16!
0{
1u
1)!
0!!
1Z
1'
0]
0*
#420000
0&
1:
0X
1Y
1m
0t
1;!
06!
1{
0u
0)!
1!!
0Z
0'
1]
1*
#430000
1&
0:
1X
0Y
0m
1t
0;!
16!
0{
1u
1)!
0!!
1Z
1'
0]
0*
#440000
0&
1:
0X
1Y
1m
0t
1;!
06!
1{
0u
0)!
1!!
0Z
0'
1]
1*
#450000
1&
0:
1X
0Y
0m
1t
0;!
16!
0{
1u
1)!
0!!
1Z
1'
0]
0*
#460000
0&
1:
0X
1Y
1m
0t
1;!
06!
1{
0u
0)!
1!!
0Z
0'
1]
1*
#470000
1&
0:
1X
0Y
0m
1t
0;!
16!
0{
1u
1)!
0!!
1Z
1'
0]
0*
#480000
0&
1:
0X
1Y
1m
0t
1;!
06!
1{
0u
0)!
1!!
0Z
0'
1]
1*
#490000
1&
0:
1X
0Y
0m
1t
0;!
16!
0{
1u
1)!
0!!
1Z
1'
0]
0*
#500000
0&
1:
0X
1Y
1m
0t
1;!
06!
1{
0u
0)!
1!!
0Z
0'
1]
1*
#510000
1&
0:
1X
0Y
0m
1t
0;!
16!
0{
1u
1)!
0!!
1Z
1'
0]
0*
#520000
0&
1:
0X
1Y
1m
0t
1;!
06!
1{
0u
0)!
1!!
0Z
0'
1]
1*
#530000
1&
0:
1X
0Y
0m
1t
0;!
16!
0{
1u
1)!
0!!
1Z
1'
0]
0*
#540000
0&
1:
0X
1Y
1m
0t
1;!
06!
1{
0u
0)!
1!!
0Z
0'
1]
1*
#550000
1&
0:
1X
0Y
0m
1t
0;!
16!
0{
1u
1)!
0!!
1Z
1'
0]
0*
#560000
0&
1:
0X
1Y
1m
0t
1;!
06!
1{
0u
0)!
1!!
0Z
0'
1]
1*
#570000
1&
0:
1X
0Y
0m
1t
0;!
16!
0{
1u
1)!
0!!
1Z
1'
0]
0*
#580000
0&
1:
0X
1Y
1m
0t
1;!
06!
1{
0u
0)!
1!!
0Z
0'
1]
1*
#590000
1&
0:
1X
0Y
0m
1t
0;!
16!
0{
1u
1)!
0!!
1Z
1'
0]
0*
#600000
0&
1:
0X
1Y
1m
0t
1;!
06!
1{
0u
0)!
1!!
0Z
0'
1]
1*
#610000
1&
0:
1X
0Y
0m
1t
0;!
16!
0{
1u
1)!
0!!
1Z
1'
0]
0*
#620000
0&
1:
0X
1Y
1m
0t
1;!
06!
1{
0u
0)!
1!!
0Z
0'
1]
1*
#630000
1&
0:
1X
0Y
0m
1t
0;!
16!
0{
1u
1)!
0!!
1Z
1'
0]
0*
#640000
0&
1:
0X
1Y
1m
0t
1;!
06!
1{
0u
0)!
1!!
0Z
0'
1]
1*
#650000
1&
0:
1X
0Y
0m
1t
0;!
16!
0{
1u
1)!
0!!
1Z
1'
0]
0*
#660000
0&
1:
0X
1Y
1m
0t
1;!
06!
1{
0u
0)!
1!!
0Z
0'
1]
1*
#670000
1&
0:
1X
0Y
0m
1t
0;!
16!
0{
1u
1)!
0!!
1Z
1'
0]
0*
#680000
0&
1:
0X
1Y
1m
0t
1;!
06!
1{
0u
0)!
1!!
0Z
0'
1]
1*
#690000
1&
0:
1X
0Y
0m
1t
0;!
16!
0{
1u
1)!
0!!
1Z
1'
0]
0*
#700000
0&
1:
0X
1Y
1m
0t
1;!
06!
1{
0u
0)!
1!!
0Z
0'
1]
1*
#710000
1&
0:
1X
0Y
0m
1t
0;!
16!
0{
1u
1)!
0!!
1Z
1'
0]
0*
#720000
0&
1:
0X
1Y
1m
0t
1;!
06!
1{
0u
0)!
1!!
0Z
0'
1]
1*
#730000
1&
0:
1X
0Y
0m
1t
0;!
16!
0{
1u
1)!
0!!
1Z
1'
0]
0*
#740000
0&
1:
0X
1Y
1m
0t
1;!
06!
1{
0u
0)!
1!!
0Z
0'
1]
1*
#750000
1&
0:
1X
0Y
0m
1t
0;!
16!
0{
1u
1)!
0!!
1Z
1'
0]
0*
#760000
0&
1:
0X
1Y
1m
0t
1;!
06!
1{
0u
0)!
1!!
0Z
0'
1]
1*
#770000
1&
0:
1X
0Y
0m
1t
0;!
16!
0{
1u
1)!
0!!
1Z
1'
0]
0*
#780000
0&
1:
0X
1Y
1m
0t
1;!
06!
1{
0u
0)!
1!!
0Z
0'
1]
1*
#790000
1&
0:
1X
0Y
0m
1t
0;!
16!
0{
1u
1)!
0!!
1Z
1'
0]
0*
#800000
0&
1:
0X
1Y
1m
0t
1;!
06!
1{
0u
0)!
1!!
0Z
0'
1]
1*
#810000
1&
0:
1X
0Y
0m
1t
0;!
16!
0{
1u
1)!
0!!
1Z
1'
0]
0*
#820000
0&
1:
0X
1Y
1m
0t
1;!
06!
1{
0u
0)!
1!!
0Z
0'
1]
1*
#830000
1&
0:
1X
0Y
0m
1t
0;!
16!
0{
1u
1)!
0!!
1Z
1'
0]
0*
#840000
0&
1:
0X
1Y
1m
0t
1;!
06!
1{
0u
0)!
1!!
0Z
0'
1]
1*
#850000
1&
0:
1X
0Y
0m
1t
0;!
16!
0{
1u
1)!
0!!
1Z
1'
0]
0*
#860000
0&
1:
0X
1Y
1m
0t
1;!
06!
1{
0u
0)!
1!!
0Z
0'
1]
1*
#870000
1&
0:
1X
0Y
0m
1t
0;!
16!
0{
1u
1)!
0!!
1Z
1'
0]
0*
#880000
0&
1:
0X
1Y
1m
0t
1;!
06!
1{
0u
0)!
1!!
0Z
0'
1]
1*
#890000
1&
0:
1X
0Y
0m
1t
0;!
16!
0{
1u
1)!
0!!
1Z
1'
0]
0*
#900000
0&
1:
0X
1Y
1m
0t
1;!
06!
1{
0u
0)!
1!!
0Z
0'
1]
1*
#910000
1&
0:
1X
0Y
0m
1t
0;!
16!
0{
1u
1)!
0!!
1Z
1'
0]
0*
#920000
0&
1:
0X
1Y
1m
0t
1;!
06!
1{
0u
0)!
1!!
0Z
0'
1]
1*
#930000
1&
0:
1X
0Y
0m
1t
0;!
16!
0{
1u
1)!
0!!
1Z
1'
0]
0*
#940000
0&
1:
0X
1Y
1m
0t
1;!
06!
1{
0u
0)!
1!!
0Z
0'
1]
1*
#950000
1&
0:
1X
0Y
0m
1t
0;!
16!
0{
1u
1)!
0!!
1Z
1'
0]
0*
#960000
0&
1:
0X
1Y
1m
0t
1;!
06!
1{
0u
0)!
1!!
0Z
0'
1]
1*
#970000
1&
0:
1X
0Y
0m
1t
0;!
16!
0{
1u
1)!
0!!
1Z
1'
0]
0*
#980000
0&
1:
0X
1Y
1m
0t
1;!
06!
1{
0u
0)!
1!!
0Z
0'
1]
1*
#990000
1&
0:
1X
0Y
0m
1t
0;!
16!
0{
1u
1)!
0!!
1Z
1'
0]
0*
