PC_ADD/simulation/qsim/PC_ADD.msim.vcd
$comment
	File created using the following command:
		vcd file PC_ADD.msim.vcd -direction
$end
$date
	Mon Nov 27 19:30:10 2023
$end
$version
	ModelSim Version 2020.1
$end
$timescale
	1ps
$end

$scope module pc_add_vhd_vec_tst $end
$var wire 1 ! new_pc [31] $end
$var wire 1 " new_pc [30] $end
$var wire 1 # new_pc [29] $end
$var wire 1 $ new_pc [28] $end
$var wire 1 % new_pc [27] $end
$var wire 1 & new_pc [26] $end
$var wire 1 ' new_pc [25] $end
$var wire 1 ( new_pc [24] $end
$var wire 1 ) new_pc [23] $end
$var wire 1 * new_pc [22] $end
$var wire 1 + new_pc [21] $end
$var wire 1 , new_pc [20] $end
$var wire 1 - new_pc [19] $end
$var wire 1 . new_pc [18] $end
$var wire 1 / new_pc [17] $end
$var wire 1 0 new_pc [16] $end
$var wire 1 1 new_pc [15] $end
$var wire 1 2 new_pc [14] $end
$var wire 1 3 new_pc [13] $end
$var wire 1 4 new_pc [12] $end
$var wire 1 5 new_pc [11] $end
$var wire 1 6 new_pc [10] $end
$var wire 1 7 new_pc [9] $end
$var wire 1 8 new_pc [8] $end
$var wire 1 9 new_pc [7] $end
$var wire 1 : new_pc [6] $end
$var wire 1 ; new_pc [5] $end
$var wire 1 < new_pc [4] $end
$var wire 1 = new_pc [3] $end
$var wire 1 > new_pc [2] $end
$var wire 1 ? new_pc [1] $end
$var wire 1 @ new_pc [0] $end
$var wire 1 A pc [31] $end
$var wire 1 B pc [30] $end
$var wire 1 C pc [29] $end
$var wire 1 D pc [28] $end
$var wire 1 E pc [27] $end
$var wire 1 F pc [26] $end
$var wire 1 G pc [25] $end
$var wire 1 H pc [24] $end
$var wire 1 I pc [23] $end
$var wire 1 J pc [22] $end
$var wire 1 K pc [21] $end
$var wire 1 L pc [20] $end
$var wire 1 M pc [19] $end
$var wire 1 N pc [18] $end
$var wire 1 O pc [17] $end
$var wire 1 P pc [16] $end
$var wire 1 Q pc [15] $end
$var wire 1 R pc [14] $end
$var wire 1 S pc [13] $end
$var wire 1 T pc [12] $end
$var wire 1 U pc [11] $end
$var wire 1 V pc [10] $end
$var wire 1 W pc [9] $end
$var wire 1 X pc [8] $end
$var wire 1 Y pc [7] $end
$var wire 1 Z pc [6] $end
$var wire 1 [ pc [5] $end
$var wire 1 \ pc [4] $end
$var wire 1 ] pc [3] $end
$var wire 1 ^ pc [2] $end
$var wire 1 _ pc [1] $end
$var wire 1 ` pc [0] $end

$scope module i1 $end
$var wire 1 a gnd $end
$var wire 1 b vcc $end
$var wire 1 c unknown $end
$var wire 1 d devoe $end
$var wire 1 e devclrn $end
$var wire 1 f devpor $end
$var wire 1 g ww_devoe $end
$var wire 1 h ww_devclrn $end
$var wire 1 i ww_devpor $end
$var wire 1 j ww_pc [31] $end
$var wire 1 k ww_pc [30] $end
$var wire 1 l ww_pc [29] $end
$var wire 1 m ww_pc [28] $end
$var wire 1 n ww_pc [27] $end
$var wire 1 o ww_pc [26] $end
$var wire 1 p ww_pc [25] $end
$var wire 1 q ww_pc [24] $end
$var wire 1 r ww_pc [23] $end
$var wire 1 s ww_pc [22] $end
$var wire 1 t ww_pc [21] $end
$var wire 1 u ww_pc [20] $end
$var wire 1 v ww_pc [19] $end
$var wire 1 w ww_pc [18] $end
$var wire 1 x ww_pc [17] $end
$var wire 1 y ww_pc [16] $end
$var wire 1 z ww_pc [15] $end
$var wire 1 { ww_pc [14] $end
$var wire 1 | ww_pc [13] $end
$var wire 1 } ww_pc [12] $end
$var wire 1 ~ ww_pc [11] $end
$var wire 1 !! ww_pc [10] $end
$var wire 1 "! ww_pc [9] $end
$var wire 1 #! ww_pc [8] $end
$var wire 1 $! ww_pc [7] $end
$var wire 1 %! ww_pc [6] $end
$var wire 1 &! ww_pc [5] $end
$var wire 1 '! ww_pc [4] $end
$var wire 1 (! ww_pc [3] $end
$var wire 1 )! ww_pc [2] $end
$var wire 1 *! ww_pc [1] $end
$var wire 1 +! ww_pc [0] $end
$var wire 1 ,! ww_new_pc [31] $end
$var wire 1 -! ww_new_pc [30] $end
$var wire 1 .! ww_new_pc [29] $end
$var wire 1 /! ww_new_pc [28] $end
$var wire 1 0! ww_new_pc [27] $end
$var wire 1 1! ww_new_pc [26] $end
$var wire 1 2! ww_new_pc [25] $end
$var wire 1 3! ww_new_pc [24] $end
$var wire 1 4! ww_new_pc [23] $end
$var wire 1 5! ww_new_pc [22] $end
$var wire 1 6! ww_new_pc [21] $end
$var wire 1 7! ww_new_pc [20] $end
$var wire 1 8! ww_new_pc [19] $end
$var wire 1 9! ww_new_pc [18] $end
$var wire 1 :! ww_new_pc [17] $end
$var wire 1 ;! ww_new_pc [16] $end
$var wire 1 <! ww_new_pc [15] $end
$var wire 1 =! ww_new_pc [14] $end
$var wire 1 >! ww_new_pc [13] $end
$var wire 1 ?! ww_new_pc [12] $end
$var wire 1 @! ww_new_pc [11] $end
$var wire 1 A! ww_new_pc [10] $end
$var wire 1 B! ww_new_pc [9] $end
$var wire 1 C! ww_new_pc [8] $end
$var wire 1 D! ww_new_pc [7] $end
$var wire 1 E! ww_new_pc [6] $end
$var wire 1 F! ww_new_pc [5] $end
$var wire 1 G! ww_new_pc [4] $end
$var wire 1 H! ww_new_pc [3] $end
$var wire 1 I! ww_new_pc [2] $end
$var wire 1 J! ww_new_pc [1] $end
$var wire 1 K! ww_new_pc [0] $end
$var wire 1 L! \~QUARTUS_CREATED_GND~I_combout\ $end
$var wire 1 M! \pc[0]~input_o\ $end
$var wire 1 N! \pc[1]~input_o\ $end
$var wire 1 O! \Add0~1_sumout\ $end
$var wire 1 P! \pc[2]~input_o\ $end
$var wire 1 Q! \Add0~2\ $end
$var wire 1 R! \Add0~5_sumout\ $end
$var wire 1 S! \pc[3]~input_o\ $end
$var wire 1 T! \Add0~6\ $end
$var wire 1 U! \Add0~9_sumout\ $end
$var wire 1 V! \pc[4]~input_o\ $end
$var wire 1 W! \Add0~10\ $end
$var wire 1 X! \Add0~13_sumout\ $end
$var wire 1 Y! \pc[5]~input_o\ $end
$var wire 1 Z! \Add0~14\ $end
$var wire 1 [! \Add0~17_sumout\ $end
$var wire 1 \! \pc[6]~input_o\ $end
$var wire 1 ]! \Add0~18\ $end
$var wire 1 ^! \Add0~21_sumout\ $end
$var wire 1 _! \pc[7]~input_o\ $end
$var wire 1 `! \Add0~22\ $end
$var wire 1 a! \Add0~25_sumout\ $end
$var wire 1 b! \pc[8]~input_o\ $end
$var wire 1 c! \Add0~26\ $end
$var wire 1 d! \Add0~29_sumout\ $end
$var wire 1 e! \pc[9]~input_o\ $end
$var wire 1 f! \Add0~30\ $end
$var wire 1 g! \Add0~33_sumout\ $end
$var wire 1 h! \pc[10]~input_o\ $end
$var wire 1 i! \Add0~34\ $end
$var wire 1 j! \Add0~37_sumout\ $end
$var wire 1 k! \pc[11]~input_o\ $end
$var wire 1 l! \Add0~38\ $end
$var wire 1 m! \Add0~41_sumout\ $end
$var wire 1 n! \pc[12]~input_o\ $end
$var wire 1 o! \Add0~42\ $end
$var wire 1 p! \Add0~45_sumout\ $end
$var wire 1 q! \pc[13]~input_o\ $end
$var wire 1 r! \Add0~46\ $end
$var wire 1 s! \Add0~49_sumout\ $end
$var wire 1 t! \pc[14]~input_o\ $end
$var wire 1 u! \Add0~50\ $end
$var wire 1 v! \Add0~53_sumout\ $end
$var wire 1 w! \pc[15]~input_o\ $end
$var wire 1 x! \Add0~54\ $end
$var wire 1 y! \Add0~57_sumout\ $end
$var wire 1 z! \pc[16]~input_o\ $end
$var wire 1 {! \Add0~58\ $end
$var wire 1 |! \Add0~61_sumout\ $end
$var wire 1 }! \pc[17]~input_o\ $end
$var wire 1 ~! \Add0~62\ $end
$var wire 1 !" \Add0~65_sumout\ $end
$var wire 1 "" \pc[18]~input_o\ $end
$var wire 1 #" \Add0~66\ $end
$var wire 1 $" \Add0~69_sumout\ $end
$var wire 1 %" \pc[19]~input_o\ $end
$var wire 1 &" \Add0~70\ $end
$var wire 1 '" \Add0~73_sumout\ $end
$var wire 1 (" \pc[20]~input_o\ $end
$var wire 1 )" \Add0~74\ $end
$var wire 1 *" \Add0~77_sumout\ $end
$var wire 1 +" \pc[21]~input_o\ $end
$var wire 1 ," \Add0~78\ $end
$var wire 1 -" \Add0~81_sumout\ $end
$var wire 1 ." \pc[22]~input_o\ $end
$var wire 1 /" \Add0~82\ $end
$var wire 1 0" \Add0~85_sumout\ $end
$var wire 1 1" \pc[23]~input_o\ $end
$var wire 1 2" \Add0~86\ $end
$var wire 1 3" \Add0~89_sumout\ $end
$var wire 1 4" \pc[24]~input_o\ $end
$var wire 1 5" \Add0~90\ $end
$var wire 1 6" \Add0~93_sumout\ $end
$var wire 1 7" \pc[25]~input_o\ $end
$var wire 1 8" \Add0~94\ $end
$var wire 1 9" \Add0~97_sumout\ $end
$var wire 1 :" \pc[26]~input_o\ $end
$var wire 1 ;" \Add0~98\ $end
$var wire 1 <" \Add0~101_sumout\ $end
$var wire 1 =" \pc[27]~input_o\ $end
$var wire 1 >" \Add0~102\ $end
$var wire 1 ?" \Add0~105_sumout\ $end
$var wire 1 @" \pc[28]~input_o\ $end
$var wire 1 A" \Add0~106\ $end
$var wire 1 B" \Add0~109_sumout\ $end
$var wire 1 C" \pc[29]~input_o\ $end
$var wire 1 D" \Add0~110\ $end
$var wire 1 E" \Add0~113_sumout\ $end
$var wire 1 F" \pc[30]~input_o\ $end
$var wire 1 G" \Add0~114\ $end
$var wire 1 H" \Add0~117_sumout\ $end
$var wire 1 I" \pc[31]~input_o\ $end
$var wire 1 J" \Add0~118\ $end
$var wire 1 K" \Add0~121_sumout\ $end
$var wire 1 L" \ALT_INV_pc[31]~input_o\ $end
$var wire 1 M" \ALT_INV_pc[30]~input_o\ $end
$var wire 1 N" \ALT_INV_pc[29]~input_o\ $end
$var wire 1 O" \ALT_INV_pc[28]~input_o\ $end
$var wire 1 P" \ALT_INV_pc[27]~input_o\ $end
$var wire 1 Q" \ALT_INV_pc[26]~input_o\ $end
$var wire 1 R" \ALT_INV_pc[25]~input_o\ $end
$var wire 1 S" \ALT_INV_pc[24]~input_o\ $end
$var wire 1 T" \ALT_INV_pc[23]~input_o\ $end
$var wire 1 U" \ALT_INV_pc[22]~input_o\ $end
$var wire 1 V" \ALT_INV_pc[21]~input_o\ $end
$var wire 1 W" \ALT_INV_pc[20]~input_o\ $end
$var wire 1 X" \ALT_INV_pc[19]~input_o\ $end
$var wire 1 Y" \ALT_INV_pc[18]~input_o\ $end
$var wire 1 Z" \ALT_INV_pc[17]~input_o\ $end
$var wire 1 [" \ALT_INV_pc[16]~input_o\ $end
$var wire 1 \" \ALT_INV_pc[15]~input_o\ $end
$var wire 1 ]" \ALT_INV_pc[14]~input_o\ $end
$var wire 1 ^" \ALT_INV_pc[13]~input_o\ $end
$var wire 1 _" \ALT_INV_pc[12]~input_o\ $end
$var wire 1 `" \ALT_INV_pc[11]~input_o\ $end
$var wire 1 a" \ALT_INV_pc[10]~input_o\ $end
$var wire 1 b" \ALT_INV_pc[9]~input_o\ $end
$var wire 1 c" \ALT_INV_pc[8]~input_o\ $end
$var wire 1 d" \ALT_INV_pc[7]~input_o\ $end
$var wire 1 e" \ALT_INV_pc[6]~input_o\ $end
$var wire 1 f" \ALT_INV_pc[5]~input_o\ $end
$var wire 1 g" \ALT_INV_pc[4]~input_o\ $end
$var wire 1 h" \ALT_INV_pc[3]~input_o\ $end
$var wire 1 i" \ALT_INV_pc[2]~input_o\ $end
$var wire 1 j" \ALT_INV_pc[1]~input_o\ $end
$var wire 1 k" \ALT_INV_pc[0]~input_o\ $end
$upscope $end
$upscope $end
$enddefinitions $end
#0
$dumpvars
0a
1b
xc
1d
1e
1f
1g
1h
1i
xL!
0M!
1N!
1O!
0P!
0Q!
0R!
0S!
0T!
0U!
0V!
0W!
0X!
0Y!
0Z!
0[!
0\!
0]!
0^!
0_!
0`!
0a!
0b!
0c!
0d!
0e!
0f!
0g!
0h!
0i!
0j!
0k!
0l!
0m!
0n!
0o!
0p!
0q!
0r!
0s!
0t!
0u!
0v!
0w!
0x!
0y!
0z!
0{!
0|!
0}!
0~!
0!"
0""
0#"
0$"
0%"
0&"
0'"
0("
0)"
0*"
0+"
0,"
0-"
0."
0/"
00"
01"
02"
03"
04"
05"
06"
07"
08"
09"
0:"
0;"
0<"
0="
0>"
0?"
0@"
0A"
0B"
0C"
0D"
0E"
0F"
0G"
0H"
0I"
0J"
0K"
1L"
1M"
1N"
1O"
1P"
1Q"
1R"
1S"
1T"
1U"
1V"
1W"
1X"
1Y"
1Z"
1["
1\"
1]"
1^"
1_"
1`"
1a"
1b"
1c"
1d"
1e"
1f"
1g"
1h"
1i"
0j"
1k"
0A
0B
0C
0D
0E
0F
0G
0H
0I
0J
0K
0L
0M
0N
0O
0P
0Q
0R
0S
0T
0U
0V
0W
0X
0Y
0Z
0[
0\
0]
0^
1_
0`
0j
0k
0l
0m
0n
0o
0p
0q
0r
0s
0t
0u
0v
0w
0x
0y
0z
0{
0|
0}
0~
0!!
0"!
0#!
0$!
0%!
0&!
0'!
0(!
0)!
1*!
0+!
0,!
0-!
0.!
0/!
00!
01!
02!
03!
04!
05!
06!
07!
08!
09!
0:!
0;!
0<!
0=!
0>!
0?!
0@!
0A!
0B!
0C!
0D!
0E!
0F!
0G!
0H!
0I!
1J!
1K!
0!
0"
0#
0$
0%
0&
0'
0(
0)
0*
0+
0,
0-
0.
0/
00
01
02
03
04
05
06
07
08
09
0:
0;
0<
0=
0>
1?
1@
$end
#10000
1`
1+!
1M!
0k"
0O!
1Q!
1R!
0K!
0@
0J!
0?
1I!
1>
#20000
0`
1^
0_
0+!
0*!
1)!
1P!
0N!
0M!
1k"
1j"
0i"
0R!
1T!
0Q!
1R!
0T!
1U!
1K!
0U!
1@
0I!
0>
1H!
1I!
1>
1=
0H!
0=
#30000
1`
1+!
1M!
0k"
1O!
0K!
0@
1J!
1?
#40000
0`
1_
0+!
1*!
1N!
0M!
1k"
0j"
1K!
1@
#50000
1`
1+!
1M!
0k"
0O!
1Q!
0R!
1T!
0K!
1U!
0@
0J!
0?
0I!
0>
1H!
1=
#60000
0`
0_
0^
1]
0+!
0*!
0)!
1(!
1S!
0P!
0N!
0M!
1k"
1j"
1i"
0h"
0U!
1W!
1R!
0T!
0Q!
0R!
1U!
0W!
1X!
1K!
0X!
1@
1I!
0H!
1>
0=
1G!
1H!
0I!
0>
1=
1<
0G!
0<
#70000
1`
1+!
1M!
0k"
1O!
0K!
0@
1J!
1?
#80000
0`
1_
0+!
1*!
1N!
0M!
1k"
0j"
1K!
1@
#90000
1`
1+!
1M!
0k"
0O!
1Q!
1R!
0K!
0@
0J!
0?
1I!
1>
#100000
0`
0_
1^
0+!
0*!
1)!
1P!
0N!
0M!
1k"
1j"
0i"
0R!
1T!
0Q!
1R!
0T!
0U!
1W!
1K!
1X!
1U!
0W!
1@
0I!
0X!
0>
0H!
1I!
1>
0=
1H!
1G!
1=
1<
0G!
0<
#110000
1`
1+!
1M!
0k"
1O!
0K!
0@
1J!
1?
#120000
0`
1_
0+!
1*!
1N!
0M!
1k"
0j"
1K!
1@
#130000
1`
1+!
1M!
0k"
0O!
1Q!
0R!
1T!
0K!
0U!
1W!
0@
0J!
1X!
0?
0I!
0>
0H!
0=
1G!
1<
#140000
0`
0_
0^
0]
1\
0+!
0*!
0)!
0(!
1'!
1V!
0S!
0P!
0N!
0M!
1k"
1j"
1i"
1h"
0g"
0X!
1Z!
1U!
0W!
1R!
0T!
0Q!
0R!
0U!
1X!
0Z!
1[!
1K!
0[!
1@
1I!
1H!
0G!
1>
1=
0<
1F!
1G!
0H!
0I!
0>
0=
1<
1;
0F!
0;
#150000
1`
1+!
1M!
0k"
1O!
0K!
0@
1J!
1?
#160000
0`
1_
0+!
1*!
1N!
0M!
1k"
0j"
1K!
1@
#170000
1`
1+!
1M!
0k"
0O!
1Q!
1R!
0K!
0@
0J!
0?
1I!
1>
#180000
0`
0_
1^
0+!
0*!
1)!
1P!
0N!
0M!
1k"
1j"
0i"
0R!
1T!
0Q!
1R!
0T!
1U!
1K!
0U!
1@
0I!
0>
1H!
1I!
1>
1=
0H!
0=
#190000
1`
1+!
1M!
0k"
1O!
0K!
0@
1J!
1?
#200000
0`
1_
0+!
1*!
1N!
0M!
1k"
0j"
1K!
1@
#210000
1`
1+!
1M!
0k"
0O!
1Q!
0R!
1T!
0K!
1U!
0@
0J!
0?
0I!
0>
1H!
1=
#220000
0`
0_
0^
1]
0+!
0*!
0)!
1(!
1S!
0P!
0N!
0M!
1k"
1j"
1i"
0h"
0U!
1W!
1R!
0T!
0Q!
0R!
1U!
0W!
0X!
1Z!
1K!
1[!
1X!
0Z!
1@
1I!
0H!
0[!
1>
0=
0G!
1H!
0I!
0>
1=
0<
1G!
1F!
1<
1;
0F!
0;
#230000
1`
1+!
1M!
0k"
1O!
0K!
0@
1J!
1?
#240000
0`
1_
0+!
1*!
1N!
0M!
1k"
0j"
1K!
1@
#250000
1`
1+!
1M!
0k"
0O!
1Q!
1R!
0K!
0@
0J!
0?
1I!
1>
#260000
0`
0_
1^
0+!
0*!
1)!
1P!
0N!
0M!
1k"
1j"
0i"
0R!
1T!
0Q!
1R!
0T!
0U!
1W!
1K!
0X!
1Z!
1U!
0W!
1@
0I!
1X!
0Z!
1[!
0>
0H!
1I!
0[!
1>
0=
1H!
0G!
1=
0<
1F!
1G!
1<
1;
0F!
0;
#270000
1`
1+!
1M!
0k"
1O!
0K!
0@
1J!
1?
#280000
0`
1_
0+!
1*!
1N!
0M!
1k"
0j"
1K!
1@
#290000
1`
1+!
1M!
0k"
0O!
1Q!
0R!
1T!
0K!
0U!
1W!
0@
0J!
0X!
1Z!
0?
0I!
1[!
0>
0H!
0=
0G!
0<
1F!
1;
#300000
0`
0_
0^
0]
0\
1[
0+!
0*!
0)!
0(!
0'!
1&!
1Y!
0V!
0S!
0P!
0N!
0M!
1k"
1j"
1i"
1h"
1g"
0f"
0[!
1]!
1X!
0Z!
1U!
0W!
1R!
0T!
0Q!
0R!
0U!
0X!
1[!
0]!
1^!
1K!
0^!
1@
1I!
1H!
1G!
0F!
1>
1=
1<
0;
1E!
1F!
0G!
0H!
0I!
0>
0=
0<
1;
1:
0E!
0:
#310000
1`
1+!
1M!
0k"
1O!
0K!
0@
1J!
1?
#320000
0`
1_
0+!
1*!
1N!
0M!
1k"
0j"
1K!
1@
#330000
1`
1+!
1M!
0k"
0O!
1Q!
1R!
0K!
0@
0J!
0?
1I!
1>
#340000
0`
0_
1^
0+!
0*!
1)!
1P!
0N!
0M!
1k"
1j"
0i"
0R!
1T!
0Q!
1R!
0T!
1U!
1K!
0U!
1@
0I!
0>
1H!
1I!
1>
1=
0H!
0=
#350000
1`
1+!
1M!
0k"
1O!
0K!
0@
1J!
1?
#360000
0`
1_
0+!
1*!
1N!
0M!
1k"
0j"
1K!
1@
#370000
1`
1+!
1M!
0k"
0O!
1Q!
0R!
1T!
0K!
1U!
0@
0J!
0?
0I!
0>
1H!
1=
#380000
0`
0_
0^
1]
0+!
0*!
0)!
1(!
1S!
0P!
0N!
0M!
1k"
1j"
1i"
0h"
0U!
1W!
1R!
0T!
0Q!
0R!
1U!
0W!
1X!
1K!
0X!
1@
1I!
0H!
1>
0=
1G!
1H!
0I!
0>
1=
1<
0G!
0<
#390000
1`
1+!
1M!
0k"
1O!
0K!
0@
1J!
1?
#400000
0`
1_
0+!
1*!
1N!
0M!
1k"
0j"
1K!
1@
#410000
1`
1+!
1M!
0k"
0O!
1Q!
1R!
0K!
0@
0J!
0?
1I!
1>
#420000
0`
0_
1^
0+!
0*!
1)!
1P!
0N!
0M!
1k"
1j"
0i"
0R!
1T!
0Q!
1R!
0T!
0U!
1W!
1K!
1X!
1U!
0W!
1@
0I!
0X!
0>
0H!
1I!
1>
0=
1H!
1G!
1=
1<
0G!
0<
#430000
1`
1+!
1M!
0k"
1O!
0K!
0@
1J!
1?
#440000
0`
1_
0+!
1*!
1N!
0M!
1k"
0j"
1K!
1@
#450000
1`
1+!
1M!
0k"
0O!
1Q!
0R!
1T!
0K!
0U!
1W!
0@
0J!
1X!
0?
0I!
0>
0H!
0=
1G!
1<
#460000
0`
0_
0^
0]
1\
0+!
0*!
0)!
0(!
1'!
1V!
0S!
0P!
0N!
0M!
1k"
1j"
1i"
1h"
0g"
0X!
1Z!
1U!
0W!
1R!
0T!
0Q!
0R!
0U!
1X!
0Z!
0[!
1]!
1K!
1^!
1[!
0]!
1@
1I!
1H!
0G!
0^!
1>
1=
0<
0F!
1G!
0H!
0I!
0>
0=
1<
0;
1F!
1E!
1;
1:
0E!
0:
#470000
1`
1+!
1M!
0k"
1O!
0K!
0@
1J!
1?
#480000
0`
1_
0+!
1*!
1N!
0M!
1k"
0j"
1K!
1@
#490000
1`
1+!
1M!
0k"
0O!
1Q!
1R!
0K!
0@
0J!
0?
1I!
1>
#500000
0`
0_
1^
0+!
0*!
1)!
1P!
0N!
0M!
1k"
1j"
0i"
0R!
1T!
0Q!
1R!
0T!
1U!
1K!
0U!
1@
0I!
0>
1H!
1I!
1>
1=
0H!
0=
#510000
1`
1+!
1M!
0k"
1O!
0K!
0@
1J!
1?
#520000
0`
1_
0+!
1*!
1N!
0M!
1k"
0j"
1K!
1@
#530000
1`
1+!
1M!
0k"
0O!
1Q!
0R!
1T!
0K!
1U!
0@
0J!
0?
0I!
0>
1H!
1=
#540000
0`
0_
0^
1]
0+!
0*!
0)!
1(!
1S!
0P!
0N!
0M!
1k"
1j"
1i"
0h"
0U!
1W!
1R!
0T!
0Q!
0R!
1U!
0W!
0X!
1Z!
1K!
0[!
1]!
1X!
0Z!
1@
1I!
0H!
1[!
0]!
1^!
1>
0=
0G!
1H!
0I!
0^!
0>
1=
0<
1G!
0F!
1<
0;
1E!
1F!
1;
1:
0E!
0:
#550000
1`
1+!
1M!
0k"
1O!
0K!
0@
1J!
1?
#560000
0`
1_
0+!
1*!
1N!
0M!
1k"
0j"
1K!
1@
#570000
1`
1+!
1M!
0k"
0O!
1Q!
1R!
0K!
0@
0J!
0?
1I!
1>
#580000
0`
0_
1^
0+!
0*!
1)!
1P!
0N!
0M!
1k"
1j"
0i"
0R!
1T!
0Q!
1R!
0T!
0U!
1W!
1K!
0X!
1Z!
1U!
0W!
1@
0I!
1X!
0Z!
0[!
1]!
0>
0H!
1I!
1^!
1[!
0]!
1>
0=
1H!
0G!
0^!
1=
0<
0F!
1G!
1<
0;
1F!
1E!
1;
1:
0E!
0:
#590000
1`
1+!
1M!
0k"
1O!
0K!
0@
1J!
1?
#600000
0`
1_
0+!
1*!
1N!
0M!
1k"
0j"
1K!
1@
#610000
1`
1+!
1M!
0k"
0O!
1Q!
0R!
1T!
0K!
0U!
1W!
0@
0J!
0X!
1Z!
0?
0I!
0[!
1]!
0>
0H!
1^!
0=
0G!
0<
0F!
0;
1E!
1:
#620000
0`
0_
0^
0]
0\
0[
1Z
0+!
0*!
0)!
0(!
0'!
0&!
1%!
1\!
0Y!
0V!
0S!
0P!
0N!
0M!
1k"
1j"
1i"
1h"
1g"
1f"
0e"
0^!
1`!
1[!
0]!
1X!
0Z!
1U!
0W!
1R!
0T!
0Q!
0R!
0U!
0X!
0[!
1^!
0`!
1a!
1K!
0a!
1@
1I!
1H!
1G!
1F!
0E!
1>
1=
1<
1;
0:
1D!
1E!
0F!
0G!
0H!
0I!
0>
0=
0<
0;
1:
19
0D!
09
#630000
1`
1+!
1M!
0k"
1O!
0K!
0@
1J!
1?
#640000
0`
1_
0+!
1*!
1N!
0M!
1k"
0j"
1K!
1@
#650000
1`
1+!
1M!
0k"
0O!
1Q!
1R!
0K!
0@
0J!
0?
1I!
1>
#660000
0`
0_
1^
0+!
0*!
1)!
1P!
0N!
0M!
1k"
1j"
0i"
0R!
1T!
0Q!
1R!
0T!
1U!
1K!
0U!
1@
0I!
0>
1H!
1I!
1>
1=
0H!
0=
#670000
1`
1+!
1M!
0k"
1O!
0K!
0@
1J!
1?
#680000
0`
1_
0+!
1*!
1N!
0M!
1k"
0j"
1K!
1@
#690000
1`
1+!
1M!
0k"
0O!
1Q!
0R!
1T!
0K!
1U!
0@
0J!
0?
0I!
0>
1H!
1=
#700000
0`
0_
0^
1]
0+!
0*!
0)!
1(!
1S!
0P!
0N!
0M!
1k"
1j"
1i"
0h"
0U!
1W!
1R!
0T!
0Q!
0R!
1U!
0W!
1X!
1K!
0X!
1@
1I!
0H!
1>
0=
1G!
1H!
0I!
0>
1=
1<
0G!
0<
#710000
1`
1+!
1M!
0k"
1O!
0K!
0@
1J!
1?
#720000
0`
1_
0+!
1*!
1N!
0M!
1k"
0j"
1K!
1@
#730000
1`
1+!
1M!
0k"
0O!
1Q!
1R!
0K!
0@
0J!
0?
1I!
1>
#740000
0`
0_
1^
0+!
0*!
1)!
1P!
0N!
0M!
1k"
1j"
0i"
0R!
1T!
0Q!
1R!
0T!
0U!
1W!
1K!
1X!
1U!
0W!
1@
0I!
0X!
0>
0H!
1I!
1>
0=
1H!
1G!
1=
1<
0G!
0<
#750000
1`
1+!
1M!
0k"
1O!
0K!
0@
1J!
1?
#760000
0`
1_
0+!
1*!
1N!
0M!
1k"
0j"
1K!
1@
#770000
1`
1+!
1M!
0k"
0O!
1Q!
0R!
1T!
0K!
0U!
1W!
0@
0J!
1X!
0?
0I!
0>
0H!
0=
1G!
1<
#780000
0`
0_
0^
0]
1\
0+!
0*!
0)!
0(!
1'!
1V!
0S!
0P!
0N!
0M!
1k"
1j"
1i"
1h"
0g"
0X!
1Z!
1U!
0W!
1R!
0T!
0Q!
0R!
0U!
1X!
0Z!
1[!
1K!
0[!
1@
1I!
1H!
0G!
1>
1=
0<
1F!
1G!
0H!
0I!
0>
0=
1<
1;
0F!
0;
#790000
1`
1+!
1M!
0k"
1O!
0K!
0@
1J!
1?
#800000
0`
1_
0+!
1*!
1N!
0M!
1k"
0j"
1K!
1@
#810000
1`
1+!
1M!
0k"
0O!
1Q!
1R!
0K!
0@
0J!
0?
1I!
1>
#820000
0`
0_
1^
0+!
0*!
1)!
1P!
0N!
0M!
1k"
1j"
0i"
0R!
1T!
0Q!
1R!
0T!
1U!
1K!
0U!
1@
0I!
0>
1H!
1I!
1>
1=
0H!
0=
#830000
1`
1+!
1M!
0k"
1O!
0K!
0@
1J!
1?
#840000
0`
1_
0+!
1*!
1N!
0M!
1k"
0j"
1K!
1@
#850000
1`
1+!
1M!
0k"
0O!
1Q!
0R!
1T!
0K!
1U!
0@
0J!
0?
0I!
0>
1H!
1=
#860000
0`
0_
0^
1]
0+!
0*!
0)!
1(!
1S!
0P!
0N!
0M!
1k"
1j"
1i"
0h"
0U!
1W!
1R!
0T!
0Q!
0R!
1U!
0W!
0X!
1Z!
1K!
1[!
1X!
0Z!
1@
1I!
0H!
0[!
1>
0=
0G!
1H!
0I!
0>
1=
0<
1G!
1F!
1<
1;
0F!
0;
#870000
1`
1+!
1M!
0k"
1O!
0K!
0@
1J!
1?
#880000
0`
1_
0+!
1*!
1N!
0M!
1k"
0j"
1K!
1@
#890000
1`
1+!
1M!
0k"
0O!
1Q!
1R!
0K!
0@
0J!
0?
1I!
1>
#900000
0`
0_
1^
0+!
0*!
1)!
1P!
0N!
0M!
1k"
1j"
0i"
0R!
1T!
0Q!
1R!
0T!
0U!
1W!
1K!
0X!
1Z!
1U!
0W!
1@
0I!
1X!
0Z!
1[!
0>
0H!
1I!
0[!
1>
0=
1H!
0G!
1=
0<
1F!
1G!
1<
1;
0F!
0;
#910000
1`
1+!
1M!
0k"
1O!
0K!
0@
1J!
1?
#920000
0`
1_
0+!
1*!
1N!
0M!
1k"
0j"
1K!
1@
#930000
1`
1+!
1M!
0k"
0O!
1Q!
0R!
1T!
0K!
0U!
1W!
0@
0J!
0X!
1Z!
0?
0I!
1[!
0>
0H!
0=
0G!
0<
1F!
1;
#940000
0`
0_
0^
0]
0\
1[
0+!
0*!
0)!
0(!
0'!
1&!
1Y!
0V!
0S!
0P!
0N!
0M!
1k"
1j"
1i"
1h"
1g"
0f"
0[!
1]!
1X!
0Z!
1U!
0W!
1R!
0T!
0Q!
0R!
0U!
0X!
1[!
0]!
0^!
1`!
1K!
1a!
1^!
0`!
1@
1I!
1H!
1G!
0F!
0a!
1>
1=
1<
0;
0E!
1F!
0G!
0H!
0I!
0>
0=
0<
1;
0:
1E!
1D!
1:
19
0D!
09
#950000
1`
1+!
1M!
0k"
1O!
0K!
0@
1J!
1?
#960000
0`
1_
0+!
1*!
1N!
0M!
1k"
0j"
1K!
1@
#970000
1`
1+!
1M!
0k"
0O!
1Q!
1R!
0K!
0@
0J!
0?
1I!
1>
#980000
0`
0_
1^
0+!
0*!
1)!
1P!
0N!
0M!
1k"
1j"
0i"
0R!
1T!
0Q!
1R!
0T!
1U!
1K!
0U!
1@
0I!
0>
1H!
1I!
1>
1=
0H!
0=
#990000
1`
1+!
1M!
0k"
1O!
0K!
0@
1J!
1?
