PC_COUNTER/simulation/qsim/PC_COUNTER.msim.vcd
$comment
	File created using the following command:
		vcd file PC_COUNTER.msim.vcd -direction
$end
$date
	Mon Nov 27 20:38:23 2023
$end
$version
	ModelSim Version 2020.1
$end
$timescale
	1ps
$end

$scope module pc_counter_vhd_vec_tst $end
$var wire 1 ! clk $end
$var wire 1 " new_pc [31] $end
$var wire 1 # new_pc [30] $end
$var wire 1 $ new_pc [29] $end
$var wire 1 % new_pc [28] $end
$var wire 1 & new_pc [27] $end
$var wire 1 ' new_pc [26] $end
$var wire 1 ( new_pc [25] $end
$var wire 1 ) new_pc [24] $end
$var wire 1 * new_pc [23] $end
$var wire 1 + new_pc [22] $end
$var wire 1 , new_pc [21] $end
$var wire 1 - new_pc [20] $end
$var wire 1 . new_pc [19] $end
$var wire 1 / new_pc [18] $end
$var wire 1 0 new_pc [17] $end
$var wire 1 1 new_pc [16] $end
$var wire 1 2 new_pc [15] $end
$var wire 1 3 new_pc [14] $end
$var wire 1 4 new_pc [13] $end
$var wire 1 5 new_pc [12] $end
$var wire 1 6 new_pc [11] $end
$var wire 1 7 new_pc [10] $end
$var wire 1 8 new_pc [9] $end
$var wire 1 9 new_pc [8] $end
$var wire 1 : new_pc [7] $end
$var wire 1 ; new_pc [6] $end
$var wire 1 < new_pc [5] $end
$var wire 1 = new_pc [4] $end
$var wire 1 > new_pc [3] $end
$var wire 1 ? new_pc [2] $end
$var wire 1 @ new_pc [1] $end
$var wire 1 A new_pc [0] $end
$var wire 1 B pc [31] $end
$var wire 1 C pc [30] $end
$var wire 1 D pc [29] $end
$var wire 1 E pc [28] $end
$var wire 1 F pc [27] $end
$var wire 1 G pc [26] $end
$var wire 1 H pc [25] $end
$var wire 1 I pc [24] $end
$var wire 1 J pc [23] $end
$var wire 1 K pc [22] $end
$var wire 1 L pc [21] $end
$var wire 1 M pc [20] $end
$var wire 1 N pc [19] $end
$var wire 1 O pc [18] $end
$var wire 1 P pc [17] $end
$var wire 1 Q pc [16] $end
$var wire 1 R pc [15] $end
$var wire 1 S pc [14] $end
$var wire 1 T pc [13] $end
$var wire 1 U pc [12] $end
$var wire 1 V pc [11] $end
$var wire 1 W pc [10] $end
$var wire 1 X pc [9] $end
$var wire 1 Y pc [8] $end
$var wire 1 Z pc [7] $end
$var wire 1 [ pc [6] $end
$var wire 1 \ pc [5] $end
$var wire 1 ] pc [4] $end
$var wire 1 ^ pc [3] $end
$var wire 1 _ pc [2] $end
$var wire 1 ` pc [1] $end
$var wire 1 a pc [0] $end
$var wire 1 b pc_write $end

$scope module i1 $end
$var wire 1 c gnd $end
$var wire 1 d vcc $end
$var wire 1 e unknown $end
$var wire 1 f devoe $end
$var wire 1 g devclrn $end
$var wire 1 h devpor $end
$var wire 1 i ww_devoe $end
$var wire 1 j ww_devclrn $end
$var wire 1 k ww_devpor $end
$var wire 1 l ww_pc_write $end
$var wire 1 m ww_clk $end
$var wire 1 n ww_pc [31] $end
$var wire 1 o ww_pc [30] $end
$var wire 1 p ww_pc [29] $end
$var wire 1 q ww_pc [28] $end
$var wire 1 r ww_pc [27] $end
$var wire 1 s ww_pc [26] $end
$var wire 1 t ww_pc [25] $end
$var wire 1 u ww_pc [24] $end
$var wire 1 v ww_pc [23] $end
$var wire 1 w ww_pc [22] $end
$var wire 1 x ww_pc [21] $end
$var wire 1 y ww_pc [20] $end
$var wire 1 z ww_pc [19] $end
$var wire 1 { ww_pc [18] $end
$var wire 1 | ww_pc [17] $end
$var wire 1 } ww_pc [16] $end
$var wire 1 ~ ww_pc [15] $end
$var wire 1 !! ww_pc [14] $end
$var wire 1 "! ww_pc [13] $end
$var wire 1 #! ww_pc [12] $end
$var wire 1 $! ww_pc [11] $end
$var wire 1 %! ww_pc [10] $end
$var wire 1 &! ww_pc [9] $end
$var wire 1 '! ww_pc [8] $end
$var wire 1 (! ww_pc [7] $end
$var wire 1 )! ww_pc [6] $end
$var wire 1 *! ww_pc [5] $end
$var wire 1 +! ww_pc [4] $end
$var wire 1 ,! ww_pc [3] $end
$var wire 1 -! ww_pc [2] $end
$var wire 1 .! ww_pc [1] $end
$var wire 1 /! ww_pc [0] $end
$var wire 1 0! ww_new_pc [31] $end
$var wire 1 1! ww_new_pc [30] $end
$var wire 1 2! ww_new_pc [29] $end
$var wire 1 3! ww_new_pc [28] $end
$var wire 1 4! ww_new_pc [27] $end
$var wire 1 5! ww_new_pc [26] $end
$var wire 1 6! ww_new_pc [25] $end
$var wire 1 7! ww_new_pc [24] $end
$var wire 1 8! ww_new_pc [23] $end
$var wire 1 9! ww_new_pc [22] $end
$var wire 1 :! ww_new_pc [21] $end
$var wire 1 ;! ww_new_pc [20] $end
$var wire 1 <! ww_new_pc [19] $end
$var wire 1 =! ww_new_pc [18] $end
$var wire 1 >! ww_new_pc [17] $end
$var wire 1 ?! ww_new_pc [16] $end
$var wire 1 @! ww_new_pc [15] $end
$var wire 1 A! ww_new_pc [14] $end
$var wire 1 B! ww_new_pc [13] $end
$var wire 1 C! ww_new_pc [12] $end
$var wire 1 D! ww_new_pc [11] $end
$var wire 1 E! ww_new_pc [10] $end
$var wire 1 F! ww_new_pc [9] $end
$var wire 1 G! ww_new_pc [8] $end
$var wire 1 H! ww_new_pc [7] $end
$var wire 1 I! ww_new_pc [6] $end
$var wire 1 J! ww_new_pc [5] $end
$var wire 1 K! ww_new_pc [4] $end
$var wire 1 L! ww_new_pc [3] $end
$var wire 1 M! ww_new_pc [2] $end
$var wire 1 N! ww_new_pc [1] $end
$var wire 1 O! ww_new_pc [0] $end
$var wire 1 P! \~QUARTUS_CREATED_GND~I_combout\ $end
$var wire 1 Q! \clk~input_o\ $end
$var wire 1 R! \clk~inputCLKENA0_outclk\ $end
$var wire 1 S! \pc[0]~input_o\ $end
$var wire 1 T! \pc_write~input_o\ $end
$var wire 1 U! \new_pc[0]~reg0_q\ $end
$var wire 1 V! \pc[1]~input_o\ $end
$var wire 1 W! \new_pc[1]~reg0feeder_combout\ $end
$var wire 1 X! \new_pc[1]~reg0_q\ $end
$var wire 1 Y! \pc[2]~input_o\ $end
$var wire 1 Z! \new_pc[2]~reg0feeder_combout\ $end
$var wire 1 [! \new_pc[2]~reg0_q\ $end
$var wire 1 \! \pc[3]~input_o\ $end
$var wire 1 ]! \new_pc[3]~reg0feeder_combout\ $end
$var wire 1 ^! \new_pc[3]~reg0_q\ $end
$var wire 1 _! \pc[4]~input_o\ $end
$var wire 1 `! \new_pc[4]~reg0_q\ $end
$var wire 1 a! \pc[5]~input_o\ $end
$var wire 1 b! \new_pc[5]~reg0feeder_combout\ $end
$var wire 1 c! \new_pc[5]~reg0_q\ $end
$var wire 1 d! \pc[6]~input_o\ $end
$var wire 1 e! \new_pc[6]~reg0feeder_combout\ $end
$var wire 1 f! \new_pc[6]~reg0_q\ $end
$var wire 1 g! \pc[7]~input_o\ $end
$var wire 1 h! \new_pc[7]~reg0feeder_combout\ $end
$var wire 1 i! \new_pc[7]~reg0_q\ $end
$var wire 1 j! \pc[8]~input_o\ $end
$var wire 1 k! \new_pc[8]~reg0feeder_combout\ $end
$var wire 1 l! \new_pc[8]~reg0_q\ $end
$var wire 1 m! \pc[9]~input_o\ $end
$var wire 1 n! \new_pc[9]~reg0feeder_combout\ $end
$var wire 1 o! \new_pc[9]~reg0_q\ $end
$var wire 1 p! \pc[10]~input_o\ $end
$var wire 1 q! \new_pc[10]~reg0feeder_combout\ $end
$var wire 1 r! \new_pc[10]~reg0_q\ $end
$var wire 1 s! \pc[11]~input_o\ $end
$var wire 1 t! \new_pc[11]~reg0feeder_combout\ $end
$var wire 1 u! \new_pc[11]~reg0_q\ $end
$var wire 1 v! \pc[12]~input_o\ $end
$var wire 1 w! \new_pc[12]~reg0_q\ $end
$var wire 1 x! \pc[13]~input_o\ $end
$var wire 1 y! \new_pc[13]~reg0feeder_combout\ $end
$var wire 1 z! \new_pc[13]~reg0_q\ $end
$var wire 1 {! \pc[14]~input_o\ $end
$var wire 1 |! \new_pc[14]~reg0_q\ $end
$var wire 1 }! \pc[15]~input_o\ $end
$var wire 1 ~! \new_pc[15]~reg0feeder_combout\ $end
$var wire 1 !" \new_pc[15]~reg0_q\ $end
$var wire 1 "" \pc[16]~input_o\ $end
$var wire 1 #" \new_pc[16]~reg0feeder_combout\ $end
$var wire 1 $" \new_pc[16]~reg0_q\ $end
$var wire 1 %" \pc[17]~input_o\ $end
$var wire 1 &" \new_pc[17]~reg0_q\ $end
$var wire 1 '" \pc[18]~input_o\ $end
$var wire 1 (" \new_pc[18]~reg0feeder_combout\ $end
$var wire 1 )" \new_pc[18]~reg0_q\ $end
$var wire 1 *" \pc[19]~input_o\ $end
$var wire 1 +" \new_pc[19]~reg0feeder_combout\ $end
$var wire 1 ," \new_pc[19]~reg0_q\ $end
$var wire 1 -" \pc[20]~input_o\ $end
$var wire 1 ." \new_pc[20]~reg0feeder_combout\ $end
$var wire 1 /" \new_pc[20]~reg0_q\ $end
$var wire 1 0" \pc[21]~input_o\ $end
$var wire 1 1" \new_pc[21]~reg0feeder_combout\ $end
$var wire 1 2" \new_pc[21]~reg0_q\ $end
$var wire 1 3" \pc[22]~input_o\ $end
$var wire 1 4" \new_pc[22]~reg0_q\ $end
$var wire 1 5" \pc[23]~input_o\ $end
$var wire 1 6" \new_pc[23]~reg0feeder_combout\ $end
$var wire 1 7" \new_pc[23]~reg0_q\ $end
$var wire 1 8" \pc[24]~input_o\ $end
$var wire 1 9" \new_pc[24]~reg0feeder_combout\ $end
$var wire 1 :" \new_pc[24]~reg0_q\ $end
$var wire 1 ;" \pc[25]~input_o\ $end
$var wire 1 <" \new_pc[25]~reg0feeder_combout\ $end
$var wire 1 =" \new_pc[25]~reg0_q\ $end
$var wire 1 >" \pc[26]~input_o\ $end
$var wire 1 ?" \new_pc[26]~reg0feeder_combout\ $end
$var wire 1 @" \new_pc[26]~reg0_q\ $end
$var wire 1 A" \pc[27]~input_o\ $end
$var wire 1 B" \new_pc[27]~reg0feeder_combout\ $end
$var wire 1 C" \new_pc[27]~reg0_q\ $end
$var wire 1 D" \pc[28]~input_o\ $end
$var wire 1 E" \new_pc[28]~reg0feeder_combout\ $end
$var wire 1 F" \new_pc[28]~reg0_q\ $end
$var wire 1 G" \pc[29]~input_o\ $end
$var wire 1 H" \new_pc[29]~reg0feeder_combout\ $end
$var wire 1 I" \new_pc[29]~reg0_q\ $end
$var wire 1 J" \pc[30]~input_o\ $end
$var wire 1 K" \new_pc[30]~reg0feeder_combout\ $end
$var wire 1 L" \new_pc[30]~reg0_q\ $end
$var wire 1 M" \pc[31]~input_o\ $end
$var wire 1 N" \new_pc[31]~reg0_q\ $end
$var wire 1 O" \ALT_INV_pc[30]~input_o\ $end
$var wire 1 P" \ALT_INV_pc[29]~input_o\ $end
$var wire 1 Q" \ALT_INV_pc[28]~input_o\ $end
$var wire 1 R" \ALT_INV_pc[27]~input_o\ $end
$var wire 1 S" \ALT_INV_pc[26]~input_o\ $end
$var wire 1 T" \ALT_INV_pc[25]~input_o\ $end
$var wire 1 U" \ALT_INV_pc[24]~input_o\ $end
$var wire 1 V" \ALT_INV_pc[23]~input_o\ $end
$var wire 1 W" \ALT_INV_pc[21]~input_o\ $end
$var wire 1 X" \ALT_INV_pc[20]~input_o\ $end
$var wire 1 Y" \ALT_INV_pc[19]~input_o\ $end
$var wire 1 Z" \ALT_INV_pc[18]~input_o\ $end
$var wire 1 [" \ALT_INV_pc[16]~input_o\ $end
$var wire 1 \" \ALT_INV_pc[15]~input_o\ $end
$var wire 1 ]" \ALT_INV_pc[13]~input_o\ $end
$var wire 1 ^" \ALT_INV_pc[11]~input_o\ $end
$var wire 1 _" \ALT_INV_pc[10]~input_o\ $end
$var wire 1 `" \ALT_INV_pc[9]~input_o\ $end
$var wire 1 a" \ALT_INV_pc[8]~input_o\ $end
$var wire 1 b" \ALT_INV_pc[7]~input_o\ $end
$var wire 1 c" \ALT_INV_pc[6]~input_o\ $end
$var wire 1 d" \ALT_INV_pc[5]~input_o\ $end
$var wire 1 e" \ALT_INV_pc[3]~input_o\ $end
$var wire 1 f" \ALT_INV_pc[2]~input_o\ $end
$var wire 1 g" \ALT_INV_pc[1]~input_o\ $end
$var wire 1 h" \ALT_INV_pc_write~input_o\ $end
$upscope $end
$upscope $end
$enddefinitions $end
#0
$dumpvars
0!
1b
0c
1d
xe
1f
1g
1h
1i
1j
1k
1l
0m
xP!
0Q!
0R!
0S!
1T!
0U!
0V!
0W!
0X!
1Y!
1Z!
0[!
0\!
0]!
0^!
0_!
0`!
0a!
0b!
0c!
0d!
0e!
0f!
0g!
0h!
0i!
0j!
0k!
0l!
0m!
0n!
0o!
0p!
0q!
0r!
0s!
0t!
0u!
0v!
0w!
0x!
0y!
0z!
0{!
0|!
0}!
0~!
0!"
0""
0#"
0$"
0%"
0&"
0'"
0("
0)"
0*"
0+"
0,"
0-"
0."
0/"
00"
01"
02"
03"
04"
05"
06"
07"
08"
09"
0:"
0;"
0<"
0="
0>"
0?"
0@"
0A"
0B"
0C"
0D"
0E"
0F"
0G"
0H"
0I"
0J"
0K"
0L"
0M"
0N"
1O"
1P"
1Q"
1R"
1S"
1T"
1U"
1V"
1W"
1X"
1Y"
1Z"
1["
1\"
1]"
1^"
1_"
1`"
1a"
1b"
1c"
1d"
1e"
0f"
1g"
0h"
0B
0C
0D
0E
0F
0G
0H
0I
0J
0K
0L
0M
0N
0O
0P
0Q
0R
0S
0T
0U
0V
0W
0X
0Y
0Z
0[
0\
0]
0^
1_
0`
0a
0n
0o
0p
0q
0r
0s
0t
0u
0v
0w
0x
0y
0z
0{
0|
0}
0~
0!!
0"!
0#!
0$!
0%!
0&!
0'!
0(!
0)!
0*!
0+!
0,!
1-!
0.!
0/!
00!
01!
02!
03!
04!
05!
06!
07!
08!
09!
0:!
0;!
0<!
0=!
0>!
0?!
0@!
0A!
0B!
0C!
0D!
0E!
0F!
0G!
0H!
0I!
0J!
0K!
0L!
0M!
0N!
0O!
0"
0#
0$
0%
0&
0'
0(
0)
0*
0+
0,
0-
0.
0/
00
01
02
03
04
05
06
07
08
09
0:
0;
0<
0=
0>
0?
0@
0A
$end
#10000
1!
1a
1m
1/!
1S!
1Q!
1R!
#20000
0!
0a
1`
0b
0m
0/!
1.!
0l
0T!
1V!
0S!
0Q!
0R!
0g"
1h"
1W!
#30000
1!
1a
1m
1/!
1S!
1Q!
1R!
1U!
1X!
1[!
1M!
1N!
1O!
1A
1@
1?
#40000
0!
0a
0`
1b
1^
0_
0m
0/!
0.!
0-!
1,!
1l
1T!
1\!
0Y!
0V!
0S!
0Q!
0R!
1g"
1f"
0e"
0h"
1]!
0Z!
0W!
#50000
1!
1a
1m
1/!
1S!
1Q!
1R!
#60000
0!
0a
1`
0b
0m
0/!
1.!
0l
0T!
1V!
0S!
0Q!
0R!
0g"
1h"
1W!
#70000
1!
1a
1m
1/!
1S!
1Q!
1R!
0[!
1^!
1L!
0M!
0?
1>
#80000
0!
0a
0`
1b
1_
0m
0/!
0.!
1-!
1l
1T!
1Y!
0V!
0S!
0Q!
0R!
1g"
0f"
0h"
1Z!
0W!
#90000
1!
1a
1m
1/!
1S!
1Q!
1R!
#100000
0!
0a
1`
0b
0m
0/!
1.!
0l
0T!
1V!
0S!
0Q!
0R!
0g"
1h"
1W!
#110000
1!
1a
1m
1/!
1S!
1Q!
1R!
1[!
1M!
1?
#120000
0!
0a
0`
1b
0_
0^
1]
0m
0/!
0.!
0-!
0,!
1+!
1l
1T!
1_!
0\!
0Y!
0V!
0S!
0Q!
0R!
1g"
1f"
1e"
0h"
0]!
0Z!
0W!
#130000
1!
1a
1m
1/!
1S!
1Q!
1R!
#140000
0!
0a
1`
0b
0m
0/!
1.!
0l
0T!
1V!
0S!
0Q!
0R!
0g"
1h"
1W!
#150000
1!
1a
1m
1/!
1S!
1Q!
1R!
0[!
0^!
1`!
1K!
0L!
0M!
0?
0>
1=
#160000
0!
0a
0`
1b
1_
0m
0/!
0.!
1-!
1l
1T!
1Y!
0V!
0S!
0Q!
0R!
1g"
0f"
0h"
1Z!
0W!
#170000
1!
1a
1m
1/!
1S!
1Q!
1R!
#180000
0!
0a
1`
0b
0m
0/!
1.!
0l
0T!
1V!
0S!
0Q!
0R!
0g"
1h"
1W!
#190000
1!
1a
1m
1/!
1S!
1Q!
1R!
1[!
1M!
1?
#200000
0!
0a
0`
1b
0_
1^
0m
0/!
0.!
0-!
1,!
1l
1T!
1\!
0Y!
0V!
0S!
0Q!
0R!
1g"
1f"
0e"
0h"
1]!
0Z!
0W!
#210000
1!
1a
1m
1/!
1S!
1Q!
1R!
#220000
0!
0a
1`
0b
0m
0/!
1.!
0l
0T!
1V!
0S!
0Q!
0R!
0g"
1h"
1W!
#230000
1!
1a
1m
1/!
1S!
1Q!
1R!
0[!
1^!
1L!
0M!
0?
1>
#240000
0!
0a
0`
1b
1_
0m
0/!
0.!
1-!
1l
1T!
1Y!
0V!
0S!
0Q!
0R!
1g"
0f"
0h"
1Z!
0W!
#250000
1!
1a
1m
1/!
1S!
1Q!
1R!
#260000
0!
0a
1`
0b
0m
0/!
1.!
0l
0T!
1V!
0S!
0Q!
0R!
0g"
1h"
1W!
#270000
1!
1a
1m
1/!
1S!
1Q!
1R!
1[!
1M!
1?
#280000
0!
0a
0`
1b
0_
0^
0]
1\
0m
0/!
0.!
0-!
0,!
0+!
1*!
1l
1T!
1a!
0_!
0\!
0Y!
0V!
0S!
0Q!
0R!
1g"
1f"
1e"
0d"
0h"
1b!
0]!
0Z!
0W!
#290000
1!
1a
1m
1/!
1S!
1Q!
1R!
#300000
0!
0a
1`
0b
0m
0/!
1.!
0l
0T!
1V!
0S!
0Q!
0R!
0g"
1h"
1W!
#310000
1!
1a
1m
1/!
1S!
1Q!
1R!
0[!
0^!
0`!
1c!
1J!
0K!
0L!
0M!
0?
0>
0=
1<
#320000
0!
0a
0`
1b
1_
0m
0/!
0.!
1-!
1l
1T!
1Y!
0V!
0S!
0Q!
0R!
1g"
0f"
0h"
1Z!
0W!
#330000
1!
1a
1m
1/!
1S!
1Q!
1R!
#340000
0!
0a
1`
0b
0m
0/!
1.!
0l
0T!
1V!
0S!
0Q!
0R!
0g"
1h"
1W!
#350000
1!
1a
1m
1/!
1S!
1Q!
1R!
1[!
1M!
1?
#360000
0!
0a
0`
1b
0_
1^
0m
0/!
0.!
0-!
1,!
1l
1T!
1\!
0Y!
0V!
0S!
0Q!
0R!
1g"
1f"
0e"
0h"
1]!
0Z!
0W!
#370000
1!
1a
1m
1/!
1S!
1Q!
1R!
#380000
0!
0a
1`
0b
0m
0/!
1.!
0l
0T!
1V!
0S!
0Q!
0R!
0g"
1h"
1W!
#390000
1!
1a
1m
1/!
1S!
1Q!
1R!
0[!
1^!
1L!
0M!
0?
1>
#400000
0!
0a
0`
1b
1_
0m
0/!
0.!
1-!
1l
1T!
1Y!
0V!
0S!
0Q!
0R!
1g"
0f"
0h"
1Z!
0W!
#410000
1!
1a
1m
1/!
1S!
1Q!
1R!
#420000
0!
0a
1`
0b
0m
0/!
1.!
0l
0T!
1V!
0S!
0Q!
0R!
0g"
1h"
1W!
#430000
1!
1a
1m
1/!
1S!
1Q!
1R!
1[!
1M!
1?
#440000
0!
0a
0`
1b
0_
0^
1]
0m
0/!
0.!
0-!
0,!
1+!
1l
1T!
1_!
0\!
0Y!
0V!
0S!
0Q!
0R!
1g"
1f"
1e"
0h"
0]!
0Z!
0W!
#450000
1!
1a
1m
1/!
1S!
1Q!
1R!
#460000
0!
0a
1`
0b
0m
0/!
1.!
0l
0T!
1V!
0S!
0Q!
0R!
0g"
1h"
1W!
#470000
1!
1a
1m
1/!
1S!
1Q!
1R!
0[!
0^!
1`!
1K!
0L!
0M!
0?
0>
1=
#480000
0!
0a
0`
1b
1_
0m
0/!
0.!
1-!
1l
1T!
1Y!
0V!
0S!
0Q!
0R!
1g"
0f"
0h"
1Z!
0W!
#490000
1!
1a
1m
1/!
1S!
1Q!
1R!
#500000
0!
0a
1`
0b
0m
0/!
1.!
0l
0T!
1V!
0S!
0Q!
0R!
0g"
1h"
1W!
#510000
1!
1a
1m
1/!
1S!
1Q!
1R!
1[!
1M!
1?
#520000
0!
0a
0`
1b
0_
1^
0m
0/!
0.!
0-!
1,!
1l
1T!
1\!
0Y!
0V!
0S!
0Q!
0R!
1g"
1f"
0e"
0h"
1]!
0Z!
0W!
#530000
1!
1a
1m
1/!
1S!
1Q!
1R!
#540000
0!
0a
1`
0b
0m
0/!
1.!
0l
0T!
1V!
0S!
0Q!
0R!
0g"
1h"
1W!
#550000
1!
1a
1m
1/!
1S!
1Q!
1R!
0[!
1^!
1L!
0M!
0?
1>
#560000
0!
0a
0`
1b
1_
0m
0/!
0.!
1-!
1l
1T!
1Y!
0V!
0S!
0Q!
0R!
1g"
0f"
0h"
1Z!
0W!
#570000
1!
1a
1m
1/!
1S!
1Q!
1R!
#580000
0!
0a
1`
0b
0m
0/!
1.!
0l
0T!
1V!
0S!
0Q!
0R!
0g"
1h"
1W!
#590000
1!
1a
1m
1/!
1S!
1Q!
1R!
1[!
1M!
1?
#600000
0!
0a
0`
1b
0_
0^
0]
0\
1[
0m
0/!
0.!
0-!
0,!
0+!
0*!
1)!
1l
1T!
1d!
0a!
0_!
0\!
0Y!
0V!
0S!
0Q!
0R!
1g"
1f"
1e"
1d"
0c"
0h"
1e!
0b!
0]!
0Z!
0W!
#610000
1!
1a
1m
1/!
1S!
1Q!
1R!
#620000
0!
0a
1`
0b
0m
0/!
1.!
0l
0T!
1V!
0S!
0Q!
0R!
0g"
1h"
1W!
#630000
1!
1a
1m
1/!
1S!
1Q!
1R!
0[!
0^!
0`!
0c!
1f!
1I!
0J!
0K!
0L!
0M!
0?
0>
0=
0<
1;
#640000
0!
0a
0`
1b
1_
0m
0/!
0.!
1-!
1l
1T!
1Y!
0V!
0S!
0Q!
0R!
1g"
0f"
0h"
1Z!
0W!
#650000
1!
1a
1m
1/!
1S!
1Q!
1R!
#660000
0!
0a
1`
0b
0m
0/!
1.!
0l
0T!
1V!
0S!
0Q!
0R!
0g"
1h"
1W!
#670000
1!
1a
1m
1/!
1S!
1Q!
1R!
1[!
1M!
1?
#680000
0!
0a
0`
1b
0_
1^
0m
0/!
0.!
0-!
1,!
1l
1T!
1\!
0Y!
0V!
0S!
0Q!
0R!
1g"
1f"
0e"
0h"
1]!
0Z!
0W!
#690000
1!
1a
1m
1/!
1S!
1Q!
1R!
#700000
0!
0a
1`
0b
0m
0/!
1.!
0l
0T!
1V!
0S!
0Q!
0R!
0g"
1h"
1W!
#710000
1!
1a
1m
1/!
1S!
1Q!
1R!
0[!
1^!
1L!
0M!
0?
1>
#720000
0!
0a
0`
1b
1_
0m
0/!
0.!
1-!
1l
1T!
1Y!
0V!
0S!
0Q!
0R!
1g"
0f"
0h"
1Z!
0W!
#730000
1!
1a
1m
1/!
1S!
1Q!
1R!
#740000
0!
0a
1`
0b
0m
0/!
1.!
0l
0T!
1V!
0S!
0Q!
0R!
0g"
1h"
1W!
#750000
1!
1a
1m
1/!
1S!
1Q!
1R!
1[!
1M!
1?
#760000
0!
0a
0`
1b
0_
0^
1]
0m
0/!
0.!
0-!
0,!
1+!
1l
1T!
1_!
0\!
0Y!
0V!
0S!
0Q!
0R!
1g"
1f"
1e"
0h"
0]!
0Z!
0W!
#770000
1!
1a
1m
1/!
1S!
1Q!
1R!
#780000
0!
0a
1`
0b
0m
0/!
1.!
0l
0T!
1V!
0S!
0Q!
0R!
0g"
1h"
1W!
#790000
1!
1a
1m
1/!
1S!
1Q!
1R!
0[!
0^!
1`!
1K!
0L!
0M!
0?
0>
1=
#800000
0!
0a
0`
1b
1_
0m
0/!
0.!
1-!
1l
1T!
1Y!
0V!
0S!
0Q!
0R!
1g"
0f"
0h"
1Z!
0W!
#810000
1!
1a
1m
1/!
1S!
1Q!
1R!
#820000
0!
0a
1`
0b
0m
0/!
1.!
0l
0T!
1V!
0S!
0Q!
0R!
0g"
1h"
1W!
#830000
1!
1a
1m
1/!
1S!
1Q!
1R!
1[!
1M!
1?
#840000
0!
0a
0`
1b
0_
1^
0m
0/!
0.!
0-!
1,!
1l
1T!
1\!
0Y!
0V!
0S!
0Q!
0R!
1g"
1f"
0e"
0h"
1]!
0Z!
0W!
#850000
1!
1a
1m
1/!
1S!
1Q!
1R!
#860000
0!
0a
1`
0b
0m
0/!
1.!
0l
0T!
1V!
0S!
0Q!
0R!
0g"
1h"
1W!
#870000
1!
1a
1m
1/!
1S!
1Q!
1R!
0[!
1^!
1L!
0M!
0?
1>
#880000
0!
0a
0`
1b
1_
0m
0/!
0.!
1-!
1l
1T!
1Y!
0V!
0S!
0Q!
0R!
1g"
0f"
0h"
1Z!
0W!
#890000
1!
1a
1m
1/!
1S!
1Q!
1R!
#900000
0!
0a
1`
0b
0m
0/!
1.!
0l
0T!
1V!
0S!
0Q!
0R!
0g"
1h"
1W!
#910000
1!
1a
1m
1/!
1S!
1Q!
1R!
1[!
1M!
1?
#920000
0!
0a
0`
1b
0_
0^
0]
1\
0m
0/!
0.!
0-!
0,!
0+!
1*!
1l
1T!
1a!
0_!
0\!
0Y!
0V!
0S!
0Q!
0R!
1g"
1f"
1e"
0d"
0h"
1b!
0]!
0Z!
0W!
#930000
1!
1a
1m
1/!
1S!
1Q!
1R!
#940000
0!
0a
1`
0b
0m
0/!
1.!
0l
0T!
1V!
0S!
0Q!
0R!
0g"
1h"
1W!
#950000
1!
1a
1m
1/!
1S!
1Q!
1R!
0[!
0^!
0`!
1c!
1J!
0K!
0L!
0M!
0?
0>
0=
1<
#960000
0!
0a
0`
1b
1_
0m
0/!
0.!
1-!
1l
1T!
1Y!
0V!
0S!
0Q!
0R!
1g"
0f"
0h"
1Z!
0W!
#970000
1!
1a
1m
1/!
1S!
1Q!
1R!
#980000
0!
0a
1`
0b
0m
0/!
1.!
0l
0T!
1V!
0S!
0Q!
0R!
0g"
1h"
1W!
#990000
1!
1a
1m
1/!
1S!
1Q!
1R!
1[!
1M!
1?
