IP_CACH_RAM/simulation/qsim/IP_CACH_RAM.msim.vcd
$comment
	File created using the following command:
		vcd file IP_CACH_RAM.msim.vcd -direction
$end
$date
	Thu Feb 01 13:04:02 2024
$end
$version
	ModelSim Version 2020.1
$end
$timescale
	1ps
$end

$scope module ip_cach_ram_vhd_vec_tst $end
$var wire 1 ! address [4] $end
$var wire 1 " address [3] $end
$var wire 1 # address [2] $end
$var wire 1 $ address [1] $end
$var wire 1 % address [0] $end
$var wire 1 & clock $end
$var wire 1 ' data [31] $end
$var wire 1 ( data [30] $end
$var wire 1 ) data [29] $end
$var wire 1 * data [28] $end
$var wire 1 + data [27] $end
$var wire 1 , data [26] $end
$var wire 1 - data [25] $end
$var wire 1 . data [24] $end
$var wire 1 / data [23] $end
$var wire 1 0 data [22] $end
$var wire 1 1 data [21] $end
$var wire 1 2 data [20] $end
$var wire 1 3 data [19] $end
$var wire 1 4 data [18] $end
$var wire 1 5 data [17] $end
$var wire 1 6 data [16] $end
$var wire 1 7 data [15] $end
$var wire 1 8 data [14] $end
$var wire 1 9 data [13] $end
$var wire 1 : data [12] $end
$var wire 1 ; data [11] $end
$var wire 1 < data [10] $end
$var wire 1 = data [9] $end
$var wire 1 > data [8] $end
$var wire 1 ? data [7] $end
$var wire 1 @ data [6] $end
$var wire 1 A data [5] $end
$var wire 1 B data [4] $end
$var wire 1 C data [3] $end
$var wire 1 D data [2] $end
$var wire 1 E data [1] $end
$var wire 1 F data [0] $end
$var wire 1 G q [31] $end
$var wire 1 H q [30] $end
$var wire 1 I q [29] $end
$var wire 1 J q [28] $end
$var wire 1 K q [27] $end
$var wire 1 L q [26] $end
$var wire 1 M q [25] $end
$var wire 1 N q [24] $end
$var wire 1 O q [23] $end
$var wire 1 P q [22] $end
$var wire 1 Q q [21] $end
$var wire 1 R q [20] $end
$var wire 1 S q [19] $end
$var wire 1 T q [18] $end
$var wire 1 U q [17] $end
$var wire 1 V q [16] $end
$var wire 1 W q [15] $end
$var wire 1 X q [14] $end
$var wire 1 Y q [13] $end
$var wire 1 Z q [12] $end
$var wire 1 [ q [11] $end
$var wire 1 \ q [10] $end
$var wire 1 ] q [9] $end
$var wire 1 ^ q [8] $end
$var wire 1 _ q [7] $end
$var wire 1 ` q [6] $end
$var wire 1 a q [5] $end
$var wire 1 b q [4] $end
$var wire 1 c q [3] $end
$var wire 1 d q [2] $end
$var wire 1 e q [1] $end
$var wire 1 f q [0] $end
$var wire 1 g wren $end

$scope module i1 $end
$var wire 1 h gnd $end
$var wire 1 i vcc $end
$var wire 1 j unknown $end
$var wire 1 k devoe $end
$var wire 1 l devclrn $end
$var wire 1 m devpor $end
$var wire 1 n ww_devoe $end
$var wire 1 o ww_devclrn $end
$var wire 1 p ww_devpor $end
$var wire 1 q ww_address [4] $end
$var wire 1 r ww_address [3] $end
$var wire 1 s ww_address [2] $end
$var wire 1 t ww_address [1] $end
$var wire 1 u ww_address [0] $end
$var wire 1 v ww_clock $end
$var wire 1 w ww_data [31] $end
$var wire 1 x ww_data [30] $end
$var wire 1 y ww_data [29] $end
$var wire 1 z ww_data [28] $end
$var wire 1 { ww_data [27] $end
$var wire 1 | ww_data [26] $end
$var wire 1 } ww_data [25] $end
$var wire 1 ~ ww_data [24] $end
$var wire 1 !! ww_data [23] $end
$var wire 1 "! ww_data [22] $end
$var wire 1 #! ww_data [21] $end
$var wire 1 $! ww_data [20] $end
$var wire 1 %! ww_data [19] $end
$var wire 1 &! ww_data [18] $end
$var wire 1 '! ww_data [17] $end
$var wire 1 (! ww_data [16] $end
$var wire 1 )! ww_data [15] $end
$var wire 1 *! ww_data [14] $end
$var wire 1 +! ww_data [13] $end
$var wire 1 ,! ww_data [12] $end
$var wire 1 -! ww_data [11] $end
$var wire 1 .! ww_data [10] $end
$var wire 1 /! ww_data [9] $end
$var wire 1 0! ww_data [8] $end
$var wire 1 1! ww_data [7] $end
$var wire 1 2! ww_data [6] $end
$var wire 1 3! ww_data [5] $end
$var wire 1 4! ww_data [4] $end
$var wire 1 5! ww_data [3] $end
$var wire 1 6! ww_data [2] $end
$var wire 1 7! ww_data [1] $end
$var wire 1 8! ww_data [0] $end
$var wire 1 9! ww_wren $end
$var wire 1 :! ww_q [31] $end
$var wire 1 ;! ww_q [30] $end
$var wire 1 <! ww_q [29] $end
$var wire 1 =! ww_q [28] $end
$var wire 1 >! ww_q [27] $end
$var wire 1 ?! ww_q [26] $end
$var wire 1 @! ww_q [25] $end
$var wire 1 A! ww_q [24] $end
$var wire 1 B! ww_q [23] $end
$var wire 1 C! ww_q [22] $end
$var wire 1 D! ww_q [21] $end
$var wire 1 E! ww_q [20] $end
$var wire 1 F! ww_q [19] $end
$var wire 1 G! ww_q [18] $end
$var wire 1 H! ww_q [17] $end
$var wire 1 I! ww_q [16] $end
$var wire 1 J! ww_q [15] $end
$var wire 1 K! ww_q [14] $end
$var wire 1 L! ww_q [13] $end
$var wire 1 M! ww_q [12] $end
$var wire 1 N! ww_q [11] $end
$var wire 1 O! ww_q [10] $end
$var wire 1 P! ww_q [9] $end
$var wire 1 Q! ww_q [8] $end
$var wire 1 R! ww_q [7] $end
$var wire 1 S! ww_q [6] $end
$var wire 1 T! ww_q [5] $end
$var wire 1 U! ww_q [4] $end
$var wire 1 V! ww_q [3] $end
$var wire 1 W! ww_q [2] $end
$var wire 1 X! ww_q [1] $end
$var wire 1 Y! ww_q [0] $end
$var wire 1 Z! \U1|altsyncram_component|auto_generated|ram_block1a0_PORTADATAIN_bus\ [19] $end
$var wire 1 [! \U1|altsyncram_component|auto_generated|ram_block1a0_PORTADATAIN_bus\ [18] $end
$var wire 1 \! \U1|altsyncram_component|auto_generated|ram_block1a0_PORTADATAIN_bus\ [17] $end
$var wire 1 ]! \U1|altsyncram_component|auto_generated|ram_block1a0_PORTADATAIN_bus\ [16] $end
$var wire 1 ^! \U1|altsyncram_component|auto_generated|ram_block1a0_PORTADATAIN_bus\ [15] $end
$var wire 1 _! \U1|altsyncram_component|auto_generated|ram_block1a0_PORTADATAIN_bus\ [14] $end
$var wire 1 `! \U1|altsyncram_component|auto_generated|ram_block1a0_PORTADATAIN_bus\ [13] $end
$var wire 1 a! \U1|altsyncram_component|auto_generated|ram_block1a0_PORTADATAIN_bus\ [12] $end
$var wire 1 b! \U1|altsyncram_component|auto_generated|ram_block1a0_PORTADATAIN_bus\ [11] $end
$var wire 1 c! \U1|altsyncram_component|auto_generated|ram_block1a0_PORTADATAIN_bus\ [10] $end
$var wire 1 d! \U1|altsyncram_component|auto_generated|ram_block1a0_PORTADATAIN_bus\ [9] $end
$var wire 1 e! \U1|altsyncram_component|auto_generated|ram_block1a0_PORTADATAIN_bus\ [8] $end
$var wire 1 f! \U1|altsyncram_component|auto_generated|ram_block1a0_PORTADATAIN_bus\ [7] $end
$var wire 1 g! \U1|altsyncram_component|auto_generated|ram_block1a0_PORTADATAIN_bus\ [6] $end
$var wire 1 h! \U1|altsyncram_component|auto_generated|ram_block1a0_PORTADATAIN_bus\ [5] $end
$var wire 1 i! \U1|altsyncram_component|auto_generated|ram_block1a0_PORTADATAIN_bus\ [4] $end
$var wire 1 j! \U1|altsyncram_component|auto_generated|ram_block1a0_PORTADATAIN_bus\ [3] $end
$var wire 1 k! \U1|altsyncram_component|auto_generated|ram_block1a0_PORTADATAIN_bus\ [2] $end
$var wire 1 l! \U1|altsyncram_component|auto_generated|ram_block1a0_PORTADATAIN_bus\ [1] $end
$var wire 1 m! \U1|altsyncram_component|auto_generated|ram_block1a0_PORTADATAIN_bus\ [0] $end
$var wire 1 n! \U1|altsyncram_component|auto_generated|ram_block1a0_PORTAADDR_bus\ [4] $end
$var wire 1 o! \U1|altsyncram_component|auto_generated|ram_block1a0_PORTAADDR_bus\ [3] $end
$var wire 1 p! \U1|altsyncram_component|auto_generated|ram_block1a0_PORTAADDR_bus\ [2] $end
$var wire 1 q! \U1|altsyncram_component|auto_generated|ram_block1a0_PORTAADDR_bus\ [1] $end
$var wire 1 r! \U1|altsyncram_component|auto_generated|ram_block1a0_PORTAADDR_bus\ [0] $end
$var wire 1 s! \U1|altsyncram_component|auto_generated|ram_block1a0_PORTADATAOUT_bus\ [19] $end
$var wire 1 t! \U1|altsyncram_component|auto_generated|ram_block1a0_PORTADATAOUT_bus\ [18] $end
$var wire 1 u! \U1|altsyncram_component|auto_generated|ram_block1a0_PORTADATAOUT_bus\ [17] $end
$var wire 1 v! \U1|altsyncram_component|auto_generated|ram_block1a0_PORTADATAOUT_bus\ [16] $end
$var wire 1 w! \U1|altsyncram_component|auto_generated|ram_block1a0_PORTADATAOUT_bus\ [15] $end
$var wire 1 x! \U1|altsyncram_component|auto_generated|ram_block1a0_PORTADATAOUT_bus\ [14] $end
$var wire 1 y! \U1|altsyncram_component|auto_generated|ram_block1a0_PORTADATAOUT_bus\ [13] $end
$var wire 1 z! \U1|altsyncram_component|auto_generated|ram_block1a0_PORTADATAOUT_bus\ [12] $end
$var wire 1 {! \U1|altsyncram_component|auto_generated|ram_block1a0_PORTADATAOUT_bus\ [11] $end
$var wire 1 |! \U1|altsyncram_component|auto_generated|ram_block1a0_PORTADATAOUT_bus\ [10] $end
$var wire 1 }! \U1|altsyncram_component|auto_generated|ram_block1a0_PORTADATAOUT_bus\ [9] $end
$var wire 1 ~! \U1|altsyncram_component|auto_generated|ram_block1a0_PORTADATAOUT_bus\ [8] $end
$var wire 1 !" \U1|altsyncram_component|auto_generated|ram_block1a0_PORTADATAOUT_bus\ [7] $end
$var wire 1 "" \U1|altsyncram_component|auto_generated|ram_block1a0_PORTADATAOUT_bus\ [6] $end
$var wire 1 #" \U1|altsyncram_component|auto_generated|ram_block1a0_PORTADATAOUT_bus\ [5] $end
$var wire 1 $" \U1|altsyncram_component|auto_generated|ram_block1a0_PORTADATAOUT_bus\ [4] $end
$var wire 1 %" \U1|altsyncram_component|auto_generated|ram_block1a0_PORTADATAOUT_bus\ [3] $end
$var wire 1 &" \U1|altsyncram_component|auto_generated|ram_block1a0_PORTADATAOUT_bus\ [2] $end
$var wire 1 '" \U1|altsyncram_component|auto_generated|ram_block1a0_PORTADATAOUT_bus\ [1] $end
$var wire 1 (" \U1|altsyncram_component|auto_generated|ram_block1a0_PORTADATAOUT_bus\ [0] $end
$var wire 1 )" \U1|altsyncram_component|auto_generated|ram_block1a12_PORTADATAIN_bus\ [19] $end
$var wire 1 *" \U1|altsyncram_component|auto_generated|ram_block1a12_PORTADATAIN_bus\ [18] $end
$var wire 1 +" \U1|altsyncram_component|auto_generated|ram_block1a12_PORTADATAIN_bus\ [17] $end
$var wire 1 ," \U1|altsyncram_component|auto_generated|ram_block1a12_PORTADATAIN_bus\ [16] $end
$var wire 1 -" \U1|altsyncram_component|auto_generated|ram_block1a12_PORTADATAIN_bus\ [15] $end
$var wire 1 ." \U1|altsyncram_component|auto_generated|ram_block1a12_PORTADATAIN_bus\ [14] $end
$var wire 1 /" \U1|altsyncram_component|auto_generated|ram_block1a12_PORTADATAIN_bus\ [13] $end
$var wire 1 0" \U1|altsyncram_component|auto_generated|ram_block1a12_PORTADATAIN_bus\ [12] $end
$var wire 1 1" \U1|altsyncram_component|auto_generated|ram_block1a12_PORTADATAIN_bus\ [11] $end
$var wire 1 2" \U1|altsyncram_component|auto_generated|ram_block1a12_PORTADATAIN_bus\ [10] $end
$var wire 1 3" \U1|altsyncram_component|auto_generated|ram_block1a12_PORTADATAIN_bus\ [9] $end
$var wire 1 4" \U1|altsyncram_component|auto_generated|ram_block1a12_PORTADATAIN_bus\ [8] $end
$var wire 1 5" \U1|altsyncram_component|auto_generated|ram_block1a12_PORTADATAIN_bus\ [7] $end
$var wire 1 6" \U1|altsyncram_component|auto_generated|ram_block1a12_PORTADATAIN_bus\ [6] $end
$var wire 1 7" \U1|altsyncram_component|auto_generated|ram_block1a12_PORTADATAIN_bus\ [5] $end
$var wire 1 8" \U1|altsyncram_component|auto_generated|ram_block1a12_PORTADATAIN_bus\ [4] $end
$var wire 1 9" \U1|altsyncram_component|auto_generated|ram_block1a12_PORTADATAIN_bus\ [3] $end
$var wire 1 :" \U1|altsyncram_component|auto_generated|ram_block1a12_PORTADATAIN_bus\ [2] $end
$var wire 1 ;" \U1|altsyncram_component|auto_generated|ram_block1a12_PORTADATAIN_bus\ [1] $end
$var wire 1 <" \U1|altsyncram_component|auto_generated|ram_block1a12_PORTADATAIN_bus\ [0] $end
$var wire 1 =" \U1|altsyncram_component|auto_generated|ram_block1a12_PORTAADDR_bus\ [4] $end
$var wire 1 >" \U1|altsyncram_component|auto_generated|ram_block1a12_PORTAADDR_bus\ [3] $end
$var wire 1 ?" \U1|altsyncram_component|auto_generated|ram_block1a12_PORTAADDR_bus\ [2] $end
$var wire 1 @" \U1|altsyncram_component|auto_generated|ram_block1a12_PORTAADDR_bus\ [1] $end
$var wire 1 A" \U1|altsyncram_component|auto_generated|ram_block1a12_PORTAADDR_bus\ [0] $end
$var wire 1 B" \U1|altsyncram_component|auto_generated|ram_block1a12_PORTADATAOUT_bus\ [19] $end
$var wire 1 C" \U1|altsyncram_component|auto_generated|ram_block1a12_PORTADATAOUT_bus\ [18] $end
$var wire 1 D" \U1|altsyncram_component|auto_generated|ram_block1a12_PORTADATAOUT_bus\ [17] $end
$var wire 1 E" \U1|altsyncram_component|auto_generated|ram_block1a12_PORTADATAOUT_bus\ [16] $end
$var wire 1 F" \U1|altsyncram_component|auto_generated|ram_block1a12_PORTADATAOUT_bus\ [15] $end
$var wire 1 G" \U1|altsyncram_component|auto_generated|ram_block1a12_PORTADATAOUT_bus\ [14] $end
$var wire 1 H" \U1|altsyncram_component|auto_generated|ram_block1a12_PORTADATAOUT_bus\ [13] $end
$var wire 1 I" \U1|altsyncram_component|auto_generated|ram_block1a12_PORTADATAOUT_bus\ [12] $end
$var wire 1 J" \U1|altsyncram_component|auto_generated|ram_block1a12_PORTADATAOUT_bus\ [11] $end
$var wire 1 K" \U1|altsyncram_component|auto_generated|ram_block1a12_PORTADATAOUT_bus\ [10] $end
$var wire 1 L" \U1|altsyncram_component|auto_generated|ram_block1a12_PORTADATAOUT_bus\ [9] $end
$var wire 1 M" \U1|altsyncram_component|auto_generated|ram_block1a12_PORTADATAOUT_bus\ [8] $end
$var wire 1 N" \U1|altsyncram_component|auto_generated|ram_block1a12_PORTADATAOUT_bus\ [7] $end
$var wire 1 O" \U1|altsyncram_component|auto_generated|ram_block1a12_PORTADATAOUT_bus\ [6] $end
$var wire 1 P" \U1|altsyncram_component|auto_generated|ram_block1a12_PORTADATAOUT_bus\ [5] $end
$var wire 1 Q" \U1|altsyncram_component|auto_generated|ram_block1a12_PORTADATAOUT_bus\ [4] $end
$var wire 1 R" \U1|altsyncram_component|auto_generated|ram_block1a12_PORTADATAOUT_bus\ [3] $end
$var wire 1 S" \U1|altsyncram_component|auto_generated|ram_block1a12_PORTADATAOUT_bus\ [2] $end
$var wire 1 T" \U1|altsyncram_component|auto_generated|ram_block1a12_PORTADATAOUT_bus\ [1] $end
$var wire 1 U" \U1|altsyncram_component|auto_generated|ram_block1a12_PORTADATAOUT_bus\ [0] $end
$var wire 1 V" \~QUARTUS_CREATED_GND~I_combout\ $end
$var wire 1 W" \wren~input_o\ $end
$var wire 1 X" \clock~input_o\ $end
$var wire 1 Y" \clock~inputCLKENA0_outclk\ $end
$var wire 1 Z" \data[0]~input_o\ $end
$var wire 1 [" \address[0]~input_o\ $end
$var wire 1 \" \address[1]~input_o\ $end
$var wire 1 ]" \address[2]~input_o\ $end
$var wire 1 ^" \address[3]~input_o\ $end
$var wire 1 _" \address[4]~input_o\ $end
$var wire 1 `" \data[1]~input_o\ $end
$var wire 1 a" \data[2]~input_o\ $end
$var wire 1 b" \data[3]~input_o\ $end
$var wire 1 c" \data[4]~input_o\ $end
$var wire 1 d" \data[5]~input_o\ $end
$var wire 1 e" \data[6]~input_o\ $end
$var wire 1 f" \data[7]~input_o\ $end
$var wire 1 g" \data[8]~input_o\ $end
$var wire 1 h" \data[9]~input_o\ $end
$var wire 1 i" \data[10]~input_o\ $end
$var wire 1 j" \data[11]~input_o\ $end
$var wire 1 k" \data[12]~input_o\ $end
$var wire 1 l" \data[13]~input_o\ $end
$var wire 1 m" \data[14]~input_o\ $end
$var wire 1 n" \data[15]~input_o\ $end
$var wire 1 o" \data[16]~input_o\ $end
$var wire 1 p" \data[17]~input_o\ $end
$var wire 1 q" \data[18]~input_o\ $end
$var wire 1 r" \data[19]~input_o\ $end
$var wire 1 s" \data[20]~input_o\ $end
$var wire 1 t" \data[21]~input_o\ $end
$var wire 1 u" \data[22]~input_o\ $end
$var wire 1 v" \data[23]~input_o\ $end
$var wire 1 w" \data[24]~input_o\ $end
$var wire 1 x" \data[25]~input_o\ $end
$var wire 1 y" \data[26]~input_o\ $end
$var wire 1 z" \data[27]~input_o\ $end
$var wire 1 {" \data[28]~input_o\ $end
$var wire 1 |" \data[29]~input_o\ $end
$var wire 1 }" \data[30]~input_o\ $end
$var wire 1 ~" \data[31]~input_o\ $end
$var wire 1 !# \U1|altsyncram_component|auto_generated|q_a\ [31] $end
$var wire 1 "# \U1|altsyncram_component|auto_generated|q_a\ [30] $end
$var wire 1 ## \U1|altsyncram_component|auto_generated|q_a\ [29] $end
$var wire 1 $# \U1|altsyncram_component|auto_generated|q_a\ [28] $end
$var wire 1 %# \U1|altsyncram_component|auto_generated|q_a\ [27] $end
$var wire 1 &# \U1|altsyncram_component|auto_generated|q_a\ [26] $end
$var wire 1 '# \U1|altsyncram_component|auto_generated|q_a\ [25] $end
$var wire 1 (# \U1|altsyncram_component|auto_generated|q_a\ [24] $end
$var wire 1 )# \U1|altsyncram_component|auto_generated|q_a\ [23] $end
$var wire 1 *# \U1|altsyncram_component|auto_generated|q_a\ [22] $end
$var wire 1 +# \U1|altsyncram_component|auto_generated|q_a\ [21] $end
$var wire 1 ,# \U1|altsyncram_component|auto_generated|q_a\ [20] $end
$var wire 1 -# \U1|altsyncram_component|auto_generated|q_a\ [19] $end
$var wire 1 .# \U1|altsyncram_component|auto_generated|q_a\ [18] $end
$var wire 1 /# \U1|altsyncram_component|auto_generated|q_a\ [17] $end
$var wire 1 0# \U1|altsyncram_component|auto_generated|q_a\ [16] $end
$var wire 1 1# \U1|altsyncram_component|auto_generated|q_a\ [15] $end
$var wire 1 2# \U1|altsyncram_component|auto_generated|q_a\ [14] $end
$var wire 1 3# \U1|altsyncram_component|auto_generated|q_a\ [13] $end
$var wire 1 4# \U1|altsyncram_component|auto_generated|q_a\ [12] $end
$var wire 1 5# \U1|altsyncram_component|auto_generated|q_a\ [11] $end
$var wire 1 6# \U1|altsyncram_component|auto_generated|q_a\ [10] $end
$var wire 1 7# \U1|altsyncram_component|auto_generated|q_a\ [9] $end
$var wire 1 8# \U1|altsyncram_component|auto_generated|q_a\ [8] $end
$var wire 1 9# \U1|altsyncram_component|auto_generated|q_a\ [7] $end
$var wire 1 :# \U1|altsyncram_component|auto_generated|q_a\ [6] $end
$var wire 1 ;# \U1|altsyncram_component|auto_generated|q_a\ [5] $end
$var wire 1 <# \U1|altsyncram_component|auto_generated|q_a\ [4] $end
$var wire 1 =# \U1|altsyncram_component|auto_generated|q_a\ [3] $end
$var wire 1 ># \U1|altsyncram_component|auto_generated|q_a\ [2] $end
$var wire 1 ?# \U1|altsyncram_component|auto_generated|q_a\ [1] $end
$var wire 1 @# \U1|altsyncram_component|auto_generated|q_a\ [0] $end
$upscope $end
$upscope $end
$enddefinitions $end
#0
$dumpvars
0&
1g
0h
1i
xj
1k
1l
1m
1n
1o
1p
0v
19!
xV"
1W"
0X"
0Y"
0Z"
0["
0\"
0]"
0^"
0_"
0`"
1a"
0b"
0c"
0d"
0e"
0f"
0g"
0h"
0i"
0j"
0k"
0l"
0m"
0n"
0o"
0p"
0q"
0r"
0s"
0t"
0u"
0v"
0w"
0x"
0y"
0z"
0{"
0|"
0}"
0~"
0!
0"
0#
0$
0%
0'
0(
0)
0*
0+
0,
0-
0.
0/
00
01
02
03
04
05
06
07
08
09
0:
0;
0<
0=
0>
0?
0@
0A
0B
0C
1D
0E
0F
0q
0r
0s
0t
0u
0w
0x
0y
0z
0{
0|
0}
0~
0!!
0"!
0#!
0$!
0%!
0&!
0'!
0(!
0)!
0*!
0+!
0,!
0-!
0.!
0/!
00!
01!
02!
03!
04!
05!
16!
07!
08!
0:!
0;!
0<!
0=!
0>!
0?!
0@!
0A!
0B!
0C!
0D!
0E!
0F!
0G!
0H!
0I!
0J!
0K!
0L!
0M!
0N!
0O!
0P!
0Q!
0R!
0S!
0T!
0U!
0V!
0W!
0X!
0Y!
0s!
0t!
0u!
0v!
0w!
0x!
0y!
0z!
0{!
0|!
0}!
0~!
0!"
0""
0#"
0$"
0%"
0&"
0'"
0("
0B"
0C"
0D"
0E"
0F"
0G"
0H"
0I"
0J"
0K"
0L"
0M"
0N"
0O"
0P"
0Q"
0R"
0S"
0T"
0U"
0!#
0"#
0##
0$#
0%#
0&#
0'#
0(#
0)#
0*#
0+#
0,#
0-#
0.#
0/#
00#
01#
02#
03#
04#
05#
06#
07#
08#
09#
0:#
0;#
0<#
0=#
0>#
0?#
0@#
0Z!
0[!
0\!
0]!
0^!
0_!
0`!
0a!
0b!
0c!
0d!
0e!
0f!
0g!
0h!
0i!
0j!
1k!
0l!
0m!
0n!
0o!
0p!
0q!
0r!
0)"
0*"
0+"
0,"
0-"
0."
0/"
00"
01"
02"
03"
04"
05"
06"
07"
08"
09"
0:"
0;"
0<"
0="
0>"
0?"
0@"
0A"
0G
0H
0I
0J
0K
0L
0M
0N
0O
0P
0Q
0R
0S
0T
0U
0V
0W
0X
0Y
0Z
0[
0\
0]
0^
0_
0`
0a
0b
0c
0d
0e
0f
$end
#10000
1&
1v
1X"
1Y"
#10001
1&"
1>#
1W!
1d
#20000
0&
1%
1F
0v
1u
18!
1Z"
1["
0X"
0Y"
1m!
1A"
1r!
#30000
1&
1v
1X"
1Y"
#30001
1("
1@#
1Y!
1f
#40000
0&
0%
0F
1$
1E
0v
0u
1t
08!
17!
1`"
0Z"
1\"
0["
0X"
0Y"
0m!
1l!
0A"
1@"
0r!
1q!
#50000
1&
1v
1X"
1Y"
#50001
1'"
0("
1?#
0@#
0Y!
1X!
0f
1e
#60000
0&
1%
1F
0v
1u
18!
1Z"
1["
0X"
0Y"
1m!
1A"
1r!
#70000
1&
1v
1X"
1Y"
#70001
1("
1@#
1Y!
1f
#80000
0&
0%
0F
0$
0E
1C
0D
0g
0v
0u
0t
08!
07!
06!
15!
09!
0W"
1b"
0a"
0`"
0Z"
0\"
0["
0X"
0Y"
0m!
0l!
0k!
1j!
0A"
0@"
0r!
0q!
#90000
1&
1v
1X"
1Y"
#90001
0'"
0("
0?#
0@#
0Y!
0X!
0f
0e
#100000
0&
1%
1F
0v
1u
18!
1Z"
1["
0X"
0Y"
1m!
1A"
1r!
#110000
1&
1v
1X"
1Y"
#110001
1("
1@#
1Y!
1f
#120000
0&
0%
0F
1$
1E
0v
0u
1t
08!
17!
1`"
0Z"
1\"
0["
0X"
0Y"
0m!
1l!
0A"
1@"
0r!
1q!
#130000
1&
1v
1X"
1Y"
#130001
1'"
0("
1?#
0@#
0Y!
1X!
0f
1e
#140000
0&
1%
1F
0v
1u
18!
1Z"
1["
0X"
0Y"
1m!
1A"
1r!
#150000
1&
1v
1X"
1Y"
#150001
1("
1@#
1Y!
1f
#160000
0&
0%
0F
0$
0E
1D
1"
0v
0u
0t
1r
08!
07!
16!
1a"
0`"
0Z"
1^"
0\"
0["
0X"
0Y"
0m!
0l!
1k!
0A"
0@"
1>"
0r!
0q!
1o!
#170000
1&
1v
1X"
1Y"
#170001
0&"
0'"
0("
0>#
0?#
0@#
0Y!
0X!
0W!
0f
0e
0d
#180000
0&
1%
1F
0v
1u
18!
1Z"
1["
0X"
0Y"
1m!
1A"
1r!
#190000
1&
1v
1X"
1Y"
#200000
0&
0%
0F
1$
1E
0v
0u
1t
08!
17!
1`"
0Z"
1\"
0["
0X"
0Y"
0m!
1l!
0A"
1@"
0r!
1q!
#210000
1&
1v
1X"
1Y"
#220000
0&
1%
1F
0v
1u
18!
1Z"
1["
0X"
0Y"
1m!
1A"
1r!
#230000
1&
1v
1X"
1Y"
#240000
0&
0%
0F
0$
0E
0D
0C
1#
1B
0v
0u
0t
1s
08!
07!
06!
05!
14!
1c"
0b"
0a"
0`"
0Z"
1]"
0\"
0["
0X"
0Y"
0m!
0l!
0k!
0j!
1i!
0A"
0@"
1?"
0r!
0q!
1p!
#250000
1&
1v
1X"
1Y"
#260000
0&
1%
1F
0v
1u
18!
1Z"
1["
0X"
0Y"
1m!
1A"
1r!
#270000
1&
1v
1X"
1Y"
#280000
0&
0%
0F
1$
1E
0v
0u
1t
08!
17!
1`"
0Z"
1\"
0["
0X"
0Y"
0m!
1l!
0A"
1@"
0r!
1q!
#290000
1&
1v
1X"
1Y"
#300000
0&
1%
1F
0v
1u
18!
1Z"
1["
0X"
0Y"
1m!
1A"
1r!
#310000
1&
1v
1X"
1Y"
#320000
0&
0%
0F
0$
0E
1D
0#
0"
1!
0v
0u
0t
0s
0r
1q
08!
07!
16!
1a"
0`"
0Z"
1_"
0^"
0]"
0\"
0["
0X"
0Y"
0m!
0l!
1k!
0A"
0@"
0?"
0>"
1="
0r!
0q!
0p!
0o!
1n!
#330000
1&
1v
1X"
1Y"
#340000
0&
1%
1F
0v
1u
18!
1Z"
1["
0X"
0Y"
1m!
1A"
1r!
#350000
1&
1v
1X"
1Y"
#360000
0&
0%
0F
1$
1E
0v
0u
1t
08!
17!
1`"
0Z"
1\"
0["
0X"
0Y"
0m!
1l!
0A"
1@"
0r!
1q!
#370000
1&
1v
1X"
1Y"
#380000
0&
1%
1F
0v
1u
18!
1Z"
1["
0X"
0Y"
1m!
1A"
1r!
#390000
1&
1v
1X"
1Y"
#400000
0&
0%
0F
0$
0E
0D
1#
1C
0v
0u
0t
1s
08!
07!
06!
15!
1b"
0a"
0`"
0Z"
1]"
0\"
0["
0X"
0Y"
0m!
0l!
0k!
1j!
0A"
0@"
1?"
0r!
0q!
1p!
#410000
1&
1v
1X"
1Y"
#420000
0&
1%
1F
0v
1u
18!
1Z"
1["
0X"
0Y"
1m!
1A"
1r!
#430000
1&
1v
1X"
1Y"
#440000
0&
0%
0F
1$
1E
0v
0u
1t
08!
17!
1`"
0Z"
1\"
0["
0X"
0Y"
0m!
1l!
0A"
1@"
0r!
1q!
#450000
1&
1v
1X"
1Y"
#460000
0&
1%
1F
0v
1u
18!
1Z"
1["
0X"
0Y"
1m!
1A"
1r!
#470000
1&
1v
1X"
1Y"
#480000
0&
0%
0F
0$
0E
1D
0#
1"
0v
0u
0t
0s
1r
08!
07!
16!
1a"
0`"
0Z"
1^"
0]"
0\"
0["
0X"
0Y"
0m!
0l!
1k!
0A"
0@"
0?"
1>"
0r!
0q!
0p!
1o!
#490000
1&
1v
1X"
1Y"
#500000
0&
1%
1F
0v
1u
18!
1Z"
1["
0X"
0Y"
1m!
1A"
1r!
#510000
1&
1v
1X"
1Y"
#520000
0&
0%
0F
1$
1E
0v
0u
1t
08!
17!
1`"
0Z"
1\"
0["
0X"
0Y"
0m!
1l!
0A"
1@"
0r!
1q!
#530000
1&
1v
1X"
1Y"
#540000
0&
1%
1F
0v
1u
18!
1Z"
1["
0X"
0Y"
1m!
1A"
1r!
#550000
1&
1v
1X"
1Y"
#560000
0&
0%
0F
0$
0E
0D
1#
0C
0B
1A
0v
0u
0t
1s
08!
07!
06!
05!
04!
13!
1d"
0c"
0b"
0a"
0`"
0Z"
1]"
0\"
0["
0X"
0Y"
0m!
0l!
0k!
0j!
0i!
1h!
0A"
0@"
1?"
0r!
0q!
1p!
#570000
1&
1v
1X"
1Y"
#580000
0&
1%
1F
0v
1u
18!
1Z"
1["
0X"
0Y"
1m!
1A"
1r!
#590000
1&
1v
1X"
1Y"
#600000
0&
0%
0F
1$
1E
0v
0u
1t
08!
17!
1`"
0Z"
1\"
0["
0X"
0Y"
0m!
1l!
0A"
1@"
0r!
1q!
#610000
1&
1v
1X"
1Y"
#620000
0&
1%
1F
0v
1u
18!
1Z"
1["
0X"
0Y"
1m!
1A"
1r!
#630000
1&
1v
1X"
1Y"
#640000
0&
0%
0F
0$
0E
1D
0#
0"
0!
0v
0u
0t
0s
0r
0q
08!
07!
16!
1a"
0`"
0Z"
0_"
0^"
0]"
0\"
0["
0X"
0Y"
0m!
0l!
1k!
0A"
0@"
0?"
0>"
0="
0r!
0q!
0p!
0o!
0n!
#650000
1&
1v
1X"
1Y"
#650001
1&"
1>#
1W!
1d
#660000
0&
1%
1F
0v
1u
18!
1Z"
1["
0X"
0Y"
1m!
1A"
1r!
#670000
1&
1v
1X"
1Y"
#670001
1("
1@#
1Y!
1f
#680000
0&
0%
0F
1$
1E
0v
0u
1t
08!
17!
1`"
0Z"
1\"
0["
0X"
0Y"
0m!
1l!
0A"
1@"
0r!
1q!
#690000
1&
1v
1X"
1Y"
#690001
1'"
0("
1?#
0@#
0Y!
1X!
0f
1e
#700000
0&
1%
1F
0v
1u
18!
1Z"
1["
0X"
0Y"
1m!
1A"
1r!
#710000
1&
1v
1X"
1Y"
#710001
1("
1@#
1Y!
1f
#720000
0&
0%
0F
0$
0E
0D
1#
1C
0v
0u
0t
1s
08!
07!
06!
15!
1b"
0a"
0`"
0Z"
1]"
0\"
0["
0X"
0Y"
0m!
0l!
0k!
1j!
0A"
0@"
1?"
0r!
0q!
1p!
#730000
1&
1v
1X"
1Y"
#730001
0&"
0'"
0("
0>#
0?#
0@#
0Y!
0X!
0W!
0f
0e
0d
