L1_INST_CACH/simulation/qsim/L1_INST_CACH.msim.vcd
$comment
	File created using the following command:
		vcd file L1_INST_CACH.msim.vcd -direction
$end
$date
	Thu Feb 01 16:32:13 2024
$end
$version
	ModelSim Version 2020.1
$end
$timescale
	1ps
$end

$scope module l1_inst_cach_vhd_vec_tst $end
$var wire 1 ! clk $end
$var wire 1 " datain [31] $end
$var wire 1 # datain [30] $end
$var wire 1 $ datain [29] $end
$var wire 1 % datain [28] $end
$var wire 1 & datain [27] $end
$var wire 1 ' datain [26] $end
$var wire 1 ( datain [25] $end
$var wire 1 ) datain [24] $end
$var wire 1 * datain [23] $end
$var wire 1 + datain [22] $end
$var wire 1 , datain [21] $end
$var wire 1 - datain [20] $end
$var wire 1 . datain [19] $end
$var wire 1 / datain [18] $end
$var wire 1 0 datain [17] $end
$var wire 1 1 datain [16] $end
$var wire 1 2 datain [15] $end
$var wire 1 3 datain [14] $end
$var wire 1 4 datain [13] $end
$var wire 1 5 datain [12] $end
$var wire 1 6 datain [11] $end
$var wire 1 7 datain [10] $end
$var wire 1 8 datain [9] $end
$var wire 1 9 datain [8] $end
$var wire 1 : datain [7] $end
$var wire 1 ; datain [6] $end
$var wire 1 < datain [5] $end
$var wire 1 = datain [4] $end
$var wire 1 > datain [3] $end
$var wire 1 ? datain [2] $end
$var wire 1 @ datain [1] $end
$var wire 1 A datain [0] $end
$var wire 1 B inst [31] $end
$var wire 1 C inst [30] $end
$var wire 1 D inst [29] $end
$var wire 1 E inst [28] $end
$var wire 1 F inst [27] $end
$var wire 1 G inst [26] $end
$var wire 1 H inst [25] $end
$var wire 1 I inst [24] $end
$var wire 1 J inst [23] $end
$var wire 1 K inst [22] $end
$var wire 1 L inst [21] $end
$var wire 1 M inst [20] $end
$var wire 1 N inst [19] $end
$var wire 1 O inst [18] $end
$var wire 1 P inst [17] $end
$var wire 1 Q inst [16] $end
$var wire 1 R inst [15] $end
$var wire 1 S inst [14] $end
$var wire 1 T inst [13] $end
$var wire 1 U inst [12] $end
$var wire 1 V inst [11] $end
$var wire 1 W inst [10] $end
$var wire 1 X inst [9] $end
$var wire 1 Y inst [8] $end
$var wire 1 Z inst [7] $end
$var wire 1 [ inst [6] $end
$var wire 1 \ inst [5] $end
$var wire 1 ] inst [4] $end
$var wire 1 ^ inst [3] $end
$var wire 1 _ inst [2] $end
$var wire 1 ` inst [1] $end
$var wire 1 a inst [0] $end
$var wire 1 b pc [31] $end
$var wire 1 c pc [30] $end
$var wire 1 d pc [29] $end
$var wire 1 e pc [28] $end
$var wire 1 f pc [27] $end
$var wire 1 g pc [26] $end
$var wire 1 h pc [25] $end
$var wire 1 i pc [24] $end
$var wire 1 j pc [23] $end
$var wire 1 k pc [22] $end
$var wire 1 l pc [21] $end
$var wire 1 m pc [20] $end
$var wire 1 n pc [19] $end
$var wire 1 o pc [18] $end
$var wire 1 p pc [17] $end
$var wire 1 q pc [16] $end
$var wire 1 r pc [15] $end
$var wire 1 s pc [14] $end
$var wire 1 t pc [13] $end
$var wire 1 u pc [12] $end
$var wire 1 v pc [11] $end
$var wire 1 w pc [10] $end
$var wire 1 x pc [9] $end
$var wire 1 y pc [8] $end
$var wire 1 z pc [7] $end
$var wire 1 { pc [6] $end
$var wire 1 | pc [5] $end
$var wire 1 } pc [4] $end
$var wire 1 ~ pc [3] $end
$var wire 1 !! pc [2] $end
$var wire 1 "! pc [1] $end
$var wire 1 #! pc [0] $end

$scope module i1 $end
$var wire 1 $! gnd $end
$var wire 1 %! vcc $end
$var wire 1 &! unknown $end
$var wire 1 '! devoe $end
$var wire 1 (! devclrn $end
$var wire 1 )! devpor $end
$var wire 1 *! ww_devoe $end
$var wire 1 +! ww_devclrn $end
$var wire 1 ,! ww_devpor $end
$var wire 1 -! ww_pc [31] $end
$var wire 1 .! ww_pc [30] $end
$var wire 1 /! ww_pc [29] $end
$var wire 1 0! ww_pc [28] $end
$var wire 1 1! ww_pc [27] $end
$var wire 1 2! ww_pc [26] $end
$var wire 1 3! ww_pc [25] $end
$var wire 1 4! ww_pc [24] $end
$var wire 1 5! ww_pc [23] $end
$var wire 1 6! ww_pc [22] $end
$var wire 1 7! ww_pc [21] $end
$var wire 1 8! ww_pc [20] $end
$var wire 1 9! ww_pc [19] $end
$var wire 1 :! ww_pc [18] $end
$var wire 1 ;! ww_pc [17] $end
$var wire 1 <! ww_pc [16] $end
$var wire 1 =! ww_pc [15] $end
$var wire 1 >! ww_pc [14] $end
$var wire 1 ?! ww_pc [13] $end
$var wire 1 @! ww_pc [12] $end
$var wire 1 A! ww_pc [11] $end
$var wire 1 B! ww_pc [10] $end
$var wire 1 C! ww_pc [9] $end
$var wire 1 D! ww_pc [8] $end
$var wire 1 E! ww_pc [7] $end
$var wire 1 F! ww_pc [6] $end
$var wire 1 G! ww_pc [5] $end
$var wire 1 H! ww_pc [4] $end
$var wire 1 I! ww_pc [3] $end
$var wire 1 J! ww_pc [2] $end
$var wire 1 K! ww_pc [1] $end
$var wire 1 L! ww_pc [0] $end
$var wire 1 M! ww_datain [31] $end
$var wire 1 N! ww_datain [30] $end
$var wire 1 O! ww_datain [29] $end
$var wire 1 P! ww_datain [28] $end
$var wire 1 Q! ww_datain [27] $end
$var wire 1 R! ww_datain [26] $end
$var wire 1 S! ww_datain [25] $end
$var wire 1 T! ww_datain [24] $end
$var wire 1 U! ww_datain [23] $end
$var wire 1 V! ww_datain [22] $end
$var wire 1 W! ww_datain [21] $end
$var wire 1 X! ww_datain [20] $end
$var wire 1 Y! ww_datain [19] $end
$var wire 1 Z! ww_datain [18] $end
$var wire 1 [! ww_datain [17] $end
$var wire 1 \! ww_datain [16] $end
$var wire 1 ]! ww_datain [15] $end
$var wire 1 ^! ww_datain [14] $end
$var wire 1 _! ww_datain [13] $end
$var wire 1 `! ww_datain [12] $end
$var wire 1 a! ww_datain [11] $end
$var wire 1 b! ww_datain [10] $end
$var wire 1 c! ww_datain [9] $end
$var wire 1 d! ww_datain [8] $end
$var wire 1 e! ww_datain [7] $end
$var wire 1 f! ww_datain [6] $end
$var wire 1 g! ww_datain [5] $end
$var wire 1 h! ww_datain [4] $end
$var wire 1 i! ww_datain [3] $end
$var wire 1 j! ww_datain [2] $end
$var wire 1 k! ww_datain [1] $end
$var wire 1 l! ww_datain [0] $end
$var wire 1 m! ww_clk $end
$var wire 1 n! ww_inst [31] $end
$var wire 1 o! ww_inst [30] $end
$var wire 1 p! ww_inst [29] $end
$var wire 1 q! ww_inst [28] $end
$var wire 1 r! ww_inst [27] $end
$var wire 1 s! ww_inst [26] $end
$var wire 1 t! ww_inst [25] $end
$var wire 1 u! ww_inst [24] $end
$var wire 1 v! ww_inst [23] $end
$var wire 1 w! ww_inst [22] $end
$var wire 1 x! ww_inst [21] $end
$var wire 1 y! ww_inst [20] $end
$var wire 1 z! ww_inst [19] $end
$var wire 1 {! ww_inst [18] $end
$var wire 1 |! ww_inst [17] $end
$var wire 1 }! ww_inst [16] $end
$var wire 1 ~! ww_inst [15] $end
$var wire 1 !" ww_inst [14] $end
$var wire 1 "" ww_inst [13] $end
$var wire 1 #" ww_inst [12] $end
$var wire 1 $" ww_inst [11] $end
$var wire 1 %" ww_inst [10] $end
$var wire 1 &" ww_inst [9] $end
$var wire 1 '" ww_inst [8] $end
$var wire 1 (" ww_inst [7] $end
$var wire 1 )" ww_inst [6] $end
$var wire 1 *" ww_inst [5] $end
$var wire 1 +" ww_inst [4] $end
$var wire 1 ," ww_inst [3] $end
$var wire 1 -" ww_inst [2] $end
$var wire 1 ." ww_inst [1] $end
$var wire 1 /" ww_inst [0] $end
$var wire 1 0" \pc[0]~input_o\ $end
$var wire 1 1" \pc[1]~input_o\ $end
$var wire 1 2" \pc[2]~input_o\ $end
$var wire 1 3" \pc[3]~input_o\ $end
$var wire 1 4" \pc[4]~input_o\ $end
$var wire 1 5" \pc[5]~input_o\ $end
$var wire 1 6" \pc[6]~input_o\ $end
$var wire 1 7" \pc[7]~input_o\ $end
$var wire 1 8" \pc[8]~input_o\ $end
$var wire 1 9" \pc[9]~input_o\ $end
$var wire 1 :" \pc[10]~input_o\ $end
$var wire 1 ;" \pc[11]~input_o\ $end
$var wire 1 <" \pc[12]~input_o\ $end
$var wire 1 =" \pc[13]~input_o\ $end
$var wire 1 >" \pc[14]~input_o\ $end
$var wire 1 ?" \pc[15]~input_o\ $end
$var wire 1 @" \pc[16]~input_o\ $end
$var wire 1 A" \pc[17]~input_o\ $end
$var wire 1 B" \pc[18]~input_o\ $end
$var wire 1 C" \pc[19]~input_o\ $end
$var wire 1 D" \pc[20]~input_o\ $end
$var wire 1 E" \pc[21]~input_o\ $end
$var wire 1 F" \pc[22]~input_o\ $end
$var wire 1 G" \pc[23]~input_o\ $end
$var wire 1 H" \pc[24]~input_o\ $end
$var wire 1 I" \pc[25]~input_o\ $end
$var wire 1 J" \pc[26]~input_o\ $end
$var wire 1 K" \pc[27]~input_o\ $end
$var wire 1 L" \pc[28]~input_o\ $end
$var wire 1 M" \pc[29]~input_o\ $end
$var wire 1 N" \pc[30]~input_o\ $end
$var wire 1 O" \pc[31]~input_o\ $end
$var wire 1 P" \datain[0]~input_o\ $end
$var wire 1 Q" \datain[1]~input_o\ $end
$var wire 1 R" \datain[2]~input_o\ $end
$var wire 1 S" \datain[3]~input_o\ $end
$var wire 1 T" \datain[4]~input_o\ $end
$var wire 1 U" \datain[5]~input_o\ $end
$var wire 1 V" \datain[6]~input_o\ $end
$var wire 1 W" \datain[7]~input_o\ $end
$var wire 1 X" \datain[8]~input_o\ $end
$var wire 1 Y" \datain[9]~input_o\ $end
$var wire 1 Z" \datain[10]~input_o\ $end
$var wire 1 [" \datain[11]~input_o\ $end
$var wire 1 \" \datain[12]~input_o\ $end
$var wire 1 ]" \datain[13]~input_o\ $end
$var wire 1 ^" \datain[14]~input_o\ $end
$var wire 1 _" \datain[15]~input_o\ $end
$var wire 1 `" \datain[16]~input_o\ $end
$var wire 1 a" \datain[17]~input_o\ $end
$var wire 1 b" \datain[18]~input_o\ $end
$var wire 1 c" \datain[19]~input_o\ $end
$var wire 1 d" \datain[20]~input_o\ $end
$var wire 1 e" \datain[21]~input_o\ $end
$var wire 1 f" \datain[22]~input_o\ $end
$var wire 1 g" \datain[23]~input_o\ $end
$var wire 1 h" \datain[24]~input_o\ $end
$var wire 1 i" \datain[25]~input_o\ $end
$var wire 1 j" \datain[26]~input_o\ $end
$var wire 1 k" \datain[27]~input_o\ $end
$var wire 1 l" \datain[28]~input_o\ $end
$var wire 1 m" \datain[29]~input_o\ $end
$var wire 1 n" \datain[30]~input_o\ $end
$var wire 1 o" \datain[31]~input_o\ $end
$var wire 1 p" \clk~input_o\ $end
$var wire 1 q" \~QUARTUS_CREATED_GND~I_combout\ $end
$upscope $end
$upscope $end
$enddefinitions $end
#0
$dumpvars
0!
0$!
1%!
x&!
1'!
1(!
1)!
1*!
1+!
1,!
0m!
00"
01"
02"
03"
04"
05"
06"
07"
08"
09"
0:"
0;"
0<"
0="
0>"
0?"
0@"
0A"
0B"
0C"
0D"
0E"
0F"
0G"
0H"
0I"
0J"
0K"
0L"
0M"
0N"
0O"
0P"
0Q"
1R"
0S"
0T"
1U"
1V"
0W"
0X"
0Y"
0Z"
0["
0\"
0]"
0^"
0_"
0`"
0a"
0b"
0c"
0d"
0e"
0f"
0g"
0h"
0i"
0j"
0k"
0l"
0m"
0n"
0o"
0p"
xq"
0"
0#
0$
0%
0&
0'
0(
0)
0*
0+
0,
0-
0.
0/
00
01
02
03
04
05
06
07
08
09
0:
1;
1<
0=
0>
1?
0@
0A
0b
0c
0d
0e
0f
0g
0h
0i
0j
0k
0l
0m
0n
0o
0p
0q
0r
0s
0t
0u
0v
0w
0x
0y
0z
0{
0|
0}
0~
0!!
0"!
0#!
0-!
0.!
0/!
00!
01!
02!
03!
04!
05!
06!
07!
08!
09!
0:!
0;!
0<!
0=!
0>!
0?!
0@!
0A!
0B!
0C!
0D!
0E!
0F!
0G!
0H!
0I!
0J!
0K!
0L!
0M!
0N!
0O!
0P!
0Q!
0R!
0S!
0T!
0U!
0V!
0W!
0X!
0Y!
0Z!
0[!
0\!
0]!
0^!
0_!
0`!
0a!
0b!
0c!
0d!
0e!
1f!
1g!
0h!
0i!
1j!
0k!
0l!
0n!
0o!
0p!
0q!
0r!
0s!
0t!
0u!
0v!
0w!
0x!
0y!
0z!
0{!
0|!
0}!
0~!
0!"
0""
0#"
0$"
0%"
0&"
0'"
0("
0)"
0*"
0+"
0,"
0-"
0."
0/"
0B
0C
0D
0E
0F
0G
0H
0I
0J
0K
0L
0M
0N
0O
0P
0Q
0R
0S
0T
0U
0V
0W
0X
0Y
0Z
0[
0\
0]
0^
0_
0`
0a
$end
#5000
1!
1m!
1p"
#10000
0!
1#!
1A
0m!
1L!
1l!
1P"
10"
0p"
#15000
1!
1m!
1p"
#20000
0!
0#!
0A
1"!
1@
0m!
0L!
1K!
0l!
1k!
1Q"
0P"
11"
00"
0p"
#25000
1!
1m!
1p"
#30000
0!
1#!
1A
0m!
1L!
1l!
1P"
10"
0p"
#35000
1!
1m!
1p"
#40000
0!
0#!
0A
0"!
0@
1!!
1>
0?
0m!
0L!
0K!
1J!
0l!
0k!
0j!
1i!
1S"
0R"
0Q"
0P"
12"
01"
00"
0p"
#45000
1!
1m!
1p"
#50000
0!
1#!
1A
0m!
1L!
1l!
1P"
10"
0p"
#55000
1!
1m!
1p"
#60000
0!
0#!
0A
1"!
1@
0m!
0L!
1K!
0l!
1k!
1Q"
0P"
11"
00"
0p"
#65000
1!
1m!
1p"
#70000
0!
1#!
1A
0m!
1L!
1l!
1P"
10"
0p"
#75000
1!
1m!
1p"
#80000
0!
0#!
0A
0"!
0@
0!!
1?
1~
0m!
0L!
0K!
0J!
1I!
0l!
0k!
1j!
1R"
0Q"
0P"
13"
02"
01"
00"
0p"
#85000
1!
1m!
1p"
#90000
0!
1#!
1A
0m!
1L!
1l!
1P"
10"
0p"
#95000
1!
1m!
1p"
#100000
0!
0#!
0A
1"!
1@
0m!
0L!
1K!
0l!
1k!
1Q"
0P"
11"
00"
0p"
#105000
1!
1m!
1p"
#110000
0!
1#!
1A
0m!
1L!
1l!
1P"
10"
0p"
#115000
1!
1m!
1p"
#120000
0!
0#!
0A
0"!
0@
1!!
0?
0>
1=
0m!
0L!
0K!
1J!
0l!
0k!
0j!
0i!
1h!
1T"
0S"
0R"
0Q"
0P"
12"
01"
00"
0p"
#125000
1!
1m!
1p"
#130000
0!
1#!
1A
0m!
1L!
1l!
1P"
10"
0p"
#135000
1!
1m!
1p"
#140000
0!
0#!
0A
1"!
1@
0m!
0L!
1K!
0l!
1k!
1Q"
0P"
11"
00"
0p"
#145000
1!
1m!
1p"
#150000
0!
1#!
1A
0m!
1L!
1l!
1P"
10"
0p"
#155000
1!
1m!
1p"
#160000
0!
0#!
0A
0"!
0@
0!!
1?
0~
1}
0m!
0L!
0K!
0J!
0I!
1H!
0l!
0k!
1j!
1R"
0Q"
0P"
14"
03"
02"
01"
00"
0p"
#165000
1!
1m!
1p"
#170000
0!
1#!
1A
0m!
1L!
1l!
1P"
10"
0p"
#175000
1!
1m!
1p"
#180000
0!
0#!
0A
1"!
1@
0m!
0L!
1K!
0l!
1k!
1Q"
0P"
11"
00"
0p"
#185000
1!
1m!
1p"
#190000
0!
1#!
1A
0m!
1L!
1l!
1P"
10"
0p"
#195000
1!
1m!
1p"
#200000
0!
0#!
0A
0"!
0@
1!!
0?
1>
0m!
0L!
0K!
1J!
0l!
0k!
0j!
1i!
1S"
0R"
0Q"
0P"
12"
01"
00"
0p"
#205000
1!
1m!
1p"
#210000
0!
1#!
1A
0m!
1L!
1l!
1P"
10"
0p"
#215000
1!
1m!
1p"
#220000
0!
0#!
0A
1"!
1@
0m!
0L!
1K!
0l!
1k!
1Q"
0P"
11"
00"
0p"
#225000
1!
1m!
1p"
#230000
0!
1#!
1A
0m!
1L!
1l!
1P"
10"
0p"
#235000
1!
1m!
1p"
#240000
0!
0#!
0A
0"!
0@
0!!
1?
1~
0m!
0L!
0K!
0J!
1I!
0l!
0k!
1j!
1R"
0Q"
0P"
13"
02"
01"
00"
0p"
#245000
1!
1m!
1p"
#250000
0!
1#!
1A
0m!
1L!
1l!
1P"
10"
0p"
#255000
1!
1m!
1p"
#260000
0!
0#!
0A
1"!
1@
0m!
0L!
1K!
0l!
1k!
1Q"
0P"
11"
00"
0p"
#265000
1!
1m!
1p"
#270000
0!
1#!
1A
0m!
1L!
1l!
1P"
10"
0p"
#275000
1!
1m!
1p"
#280000
0!
0#!
0A
0"!
0@
1!!
0?
0>
0=
1:
0;
0<
0m!
0L!
0K!
1J!
0l!
0k!
0j!
0i!
0h!
0g!
0f!
1e!
1W"
0V"
0U"
0T"
0S"
0R"
0Q"
0P"
12"
01"
00"
0p"
#285000
1!
1m!
1p"
#290000
0!
1#!
1A
0m!
1L!
1l!
1P"
10"
0p"
#295000
1!
1m!
1p"
#300000
0!
0#!
0A
1"!
1@
0m!
0L!
1K!
0l!
1k!
1Q"
0P"
11"
00"
0p"
#305000
1!
1m!
1p"
#310000
0!
1#!
1A
0m!
1L!
1l!
1P"
10"
0p"
#315000
1!
1m!
1p"
#320000
0!
0#!
0A
0"!
0@
0!!
1?
0~
0}
0m!
0L!
0K!
0J!
0I!
0H!
0l!
0k!
1j!
1R"
0Q"
0P"
04"
03"
02"
01"
00"
0p"
#325000
1!
1m!
1p"
#330000
0!
1#!
1A
0m!
1L!
1l!
1P"
10"
0p"
#335000
1!
1m!
1p"
#340000
0!
0#!
0A
1"!
1@
0m!
0L!
1K!
0l!
1k!
1Q"
0P"
11"
00"
0p"
#345000
1!
1m!
1p"
#350000
0!
1#!
1A
0m!
1L!
1l!
1P"
10"
0p"
#355000
1!
1m!
1p"
#360000
0!
0#!
0A
0"!
0@
1!!
0?
1>
0m!
0L!
0K!
1J!
0l!
0k!
0j!
1i!
1S"
0R"
0Q"
0P"
12"
01"
00"
0p"
#365000
1!
1m!
1p"
#370000
0!
1#!
1A
0m!
1L!
1l!
1P"
10"
0p"
#375000
1!
1m!
1p"
#380000
0!
0#!
0A
1"!
1@
0m!
0L!
1K!
0l!
1k!
1Q"
0P"
11"
00"
0p"
#385000
1!
1m!
1p"
#390000
0!
1#!
1A
0m!
1L!
1l!
1P"
10"
0p"
#395000
1!
1m!
1p"
#400000
0!
0#!
0A
0"!
0@
0!!
1?
1~
0m!
0L!
0K!
0J!
1I!
0l!
0k!
1j!
1R"
0Q"
0P"
13"
02"
01"
00"
0p"
#405000
1!
1m!
1p"
#410000
0!
1#!
1A
0m!
1L!
1l!
1P"
10"
0p"
#415000
1!
1m!
1p"
#420000
0!
0#!
0A
1"!
1@
0m!
0L!
1K!
0l!
1k!
1Q"
0P"
11"
00"
0p"
#425000
1!
1m!
1p"
#430000
0!
1#!
1A
0m!
1L!
1l!
1P"
10"
0p"
#435000
1!
1m!
1p"
#440000
0!
0#!
0A
0"!
0@
1!!
0?
0>
1=
0m!
0L!
0K!
1J!
0l!
0k!
0j!
0i!
1h!
1T"
0S"
0R"
0Q"
0P"
12"
01"
00"
0p"
#445000
1!
1m!
1p"
#450000
0!
1#!
1A
0m!
1L!
1l!
1P"
10"
0p"
#455000
1!
1m!
1p"
#460000
0!
0#!
0A
1"!
1@
0m!
0L!
1K!
0l!
1k!
1Q"
0P"
11"
00"
0p"
#465000
1!
1m!
1p"
#470000
0!
1#!
1A
0m!
1L!
1l!
1P"
10"
0p"
#475000
1!
1m!
1p"
#480000
0!
0#!
0A
0"!
0@
0!!
1?
0~
1}
0m!
0L!
0K!
0J!
0I!
1H!
0l!
0k!
1j!
1R"
0Q"
0P"
14"
03"
02"
01"
00"
0p"
#485000
1!
1m!
1p"
#490000
0!
1#!
1A
0m!
1L!
1l!
1P"
10"
0p"
#495000
1!
1m!
1p"
#500000
0!
0#!
0A
1"!
1@
0m!
0L!
1K!
0l!
1k!
1Q"
0P"
11"
00"
0p"
#505000
1!
1m!
1p"
#510000
0!
1#!
1A
0m!
1L!
1l!
1P"
10"
0p"
#515000
1!
1m!
1p"
#520000
0!
0#!
0A
0"!
0@
1!!
0?
1>
0m!
0L!
0K!
1J!
0l!
0k!
0j!
1i!
1S"
0R"
0Q"
0P"
12"
01"
00"
0p"
#525000
1!
1m!
1p"
#530000
0!
1#!
1A
0m!
1L!
1l!
1P"
10"
0p"
#535000
1!
1m!
1p"
#540000
0!
0#!
0A
1"!
1@
0m!
0L!
1K!
0l!
1k!
1Q"
0P"
11"
00"
0p"
#545000
1!
1m!
1p"
#550000
0!
1#!
1A
0m!
1L!
1l!
1P"
10"
0p"
#555000
1!
1m!
1p"
#560000
0!
0#!
0A
0"!
0@
0!!
1?
1~
0m!
0L!
0K!
0J!
1I!
0l!
0k!
1j!
1R"
0Q"
0P"
13"
02"
01"
00"
0p"
#565000
1!
1m!
1p"
#570000
0!
1#!
1A
0m!
1L!
1l!
1P"
10"
0p"
#575000
1!
1m!
1p"
#580000
0!
0#!
0A
1"!
1@
0m!
0L!
1K!
0l!
1k!
1Q"
0P"
11"
00"
0p"
#585000
1!
1m!
1p"
#590000
0!
1#!
1A
0m!
1L!
1l!
1P"
10"
0p"
#595000
1!
1m!
1p"
#600000
0!
0#!
0A
0"!
0@
1!!
0?
0>
0=
1<
0m!
0L!
0K!
1J!
0l!
0k!
0j!
0i!
0h!
1g!
1U"
0T"
0S"
0R"
0Q"
0P"
12"
01"
00"
0p"
#605000
1!
1m!
1p"
#610000
0!
1#!
1A
0m!
1L!
1l!
1P"
10"
0p"
#615000
1!
1m!
1p"
#620000
0!
0#!
0A
1"!
1@
0m!
0L!
1K!
0l!
1k!
1Q"
0P"
11"
00"
0p"
#625000
1!
1m!
1p"
#630000
0!
1#!
1A
0m!
1L!
1l!
1P"
10"
0p"
#635000
1!
1m!
1p"
#640000
0!
0#!
0A
0"!
0@
0!!
1?
0~
0}
1{
0m!
0L!
0K!
0J!
0I!
0H!
1F!
0l!
0k!
1j!
1R"
0Q"
0P"
16"
04"
03"
02"
01"
00"
0p"
#645000
1!
1m!
1p"
#650000
0!
1#!
1A
0m!
1L!
1l!
1P"
10"
0p"
#655000
1!
1m!
1p"
#660000
0!
0#!
0A
1"!
1@
0m!
0L!
1K!
0l!
1k!
1Q"
0P"
11"
00"
0p"
#665000
1!
1m!
1p"
#670000
0!
1#!
1A
0m!
1L!
1l!
1P"
10"
0p"
#675000
1!
1m!
1p"
#680000
0!
0#!
0A
0"!
0@
1!!
0?
1>
0m!
0L!
0K!
1J!
0l!
0k!
0j!
1i!
1S"
0R"
0Q"
0P"
12"
01"
00"
0p"
#685000
1!
1m!
1p"
#690000
0!
1#!
1A
0m!
1L!
1l!
1P"
10"
0p"
#695000
1!
1m!
1p"
#700000
0!
0#!
0A
1"!
1@
0m!
0L!
1K!
0l!
1k!
1Q"
0P"
11"
00"
0p"
#705000
1!
1m!
1p"
#710000
0!
1#!
1A
0m!
1L!
1l!
1P"
10"
0p"
#715000
1!
1m!
1p"
#720000
0!
0#!
0A
0"!
0@
0!!
1?
1~
0m!
0L!
0K!
0J!
1I!
0l!
0k!
1j!
1R"
0Q"
0P"
13"
02"
01"
00"
0p"
#725000
1!
1m!
1p"
#730000
0!
1#!
1A
0m!
1L!
1l!
1P"
10"
0p"
#735000
1!
1m!
1p"
#740000
0!
0#!
0A
1"!
1@
0m!
0L!
1K!
0l!
1k!
1Q"
0P"
11"
00"
0p"
#745000
1!
1m!
1p"
#750000
0!
1#!
1A
0m!
1L!
1l!
1P"
10"
0p"
#755000
1!
1m!
1p"
#760000
0!
0#!
0A
0"!
0@
1!!
0?
0>
1=
0m!
0L!
0K!
1J!
0l!
0k!
0j!
0i!
1h!
1T"
0S"
0R"
0Q"
0P"
12"
01"
00"
0p"
#765000
1!
1m!
1p"
#770000
0!
1#!
1A
0m!
1L!
1l!
1P"
10"
0p"
#775000
1!
1m!
1p"
#780000
0!
0#!
0A
1"!
1@
0m!
0L!
1K!
0l!
1k!
1Q"
0P"
11"
00"
0p"
#785000
1!
1m!
1p"
#790000
0!
1#!
1A
0m!
1L!
1l!
1P"
10"
0p"
#795000
1!
1m!
1p"
#800000
0!
0#!
0A
0"!
0@
0!!
1?
0~
1}
0m!
0L!
0K!
0J!
0I!
1H!
0l!
0k!
1j!
1R"
0Q"
0P"
14"
03"
02"
01"
00"
0p"
#805000
1!
1m!
1p"
#810000
0!
1#!
1A
0m!
1L!
1l!
1P"
10"
0p"
#815000
1!
1m!
1p"
#820000
0!
0#!
0A
1"!
1@
0m!
0L!
1K!
0l!
1k!
1Q"
0P"
11"
00"
0p"
#825000
1!
1m!
1p"
#830000
0!
1#!
1A
0m!
1L!
1l!
1P"
10"
0p"
#835000
1!
1m!
1p"
#840000
0!
0#!
0A
0"!
0@
1!!
0?
1>
0m!
0L!
0K!
1J!
0l!
0k!
0j!
1i!
1S"
0R"
0Q"
0P"
12"
01"
00"
0p"
#845000
1!
1m!
1p"
#850000
0!
1#!
1A
0m!
1L!
1l!
1P"
10"
0p"
#855000
1!
1m!
1p"
#860000
0!
0#!
0A
1"!
1@
0m!
0L!
1K!
0l!
1k!
1Q"
0P"
11"
00"
0p"
#865000
1!
1m!
1p"
#870000
0!
1#!
1A
0m!
1L!
1l!
1P"
10"
0p"
#875000
1!
1m!
1p"
#880000
0!
0#!
0A
0"!
0@
0!!
1?
1~
0m!
0L!
0K!
0J!
1I!
0l!
0k!
1j!
1R"
0Q"
0P"
13"
02"
01"
00"
0p"
#885000
1!
1m!
1p"
#890000
0!
1#!
1A
0m!
1L!
1l!
1P"
10"
0p"
#895000
1!
1m!
1p"
#900000
0!
0#!
0A
1"!
1@
0m!
0L!
1K!
0l!
1k!
1Q"
0P"
11"
00"
0p"
#905000
1!
1m!
1p"
#910000
0!
1#!
1A
0m!
1L!
1l!
1P"
10"
0p"
#915000
1!
1m!
1p"
#920000
0!
0#!
0A
0"!
0@
1!!
0?
0>
0=
0<
1;
0m!
0L!
0K!
1J!
0l!
0k!
0j!
0i!
0h!
0g!
1f!
1V"
0U"
0T"
0S"
0R"
0Q"
0P"
12"
01"
00"
0p"
#925000
1!
1m!
1p"
#930000
0!
1#!
1A
0m!
1L!
1l!
1P"
10"
0p"
#935000
1!
1m!
1p"
#940000
0!
0#!
0A
1"!
1@
0m!
0L!
1K!
0l!
1k!
1Q"
0P"
11"
00"
0p"
#945000
1!
1m!
1p"
#950000
0!
1#!
1A
0m!
1L!
1l!
1P"
10"
0p"
#955000
1!
1m!
1p"
#960000
0!
0#!
0A
0"!
0@
0!!
1?
0~
0}
1|
0m!
0L!
0K!
0J!
0I!
0H!
1G!
0l!
0k!
1j!
1R"
0Q"
0P"
15"
04"
03"
02"
01"
00"
0p"
#965000
1!
1m!
1p"
#970000
0!
1#!
1A
0m!
1L!
1l!
1P"
10"
0p"
#975000
1!
1m!
1p"
#980000
0!
0#!
0A
1"!
1@
0m!
0L!
1K!
0l!
1k!
1Q"
0P"
11"
00"
0p"
#985000
1!
1m!
1p"
#990000
0!
1#!
1A
0m!
1L!
1l!
1P"
10"
0p"
#995000
1!
1m!
1p"
