MUX31/simulation/qsim/MUX31.msim.vcd
$comment
	File created using the following command:
		vcd file MUX31.msim.vcd -direction
$end
$date
	Thu Nov 16 19:49:46 2023
$end
$version
	ModelSim Version 2020.1
$end
$timescale
	1ps
$end

$scope module mux31_vhd_vec_tst $end
$var wire 1 ! A [31] $end
$var wire 1 " A [30] $end
$var wire 1 # A [29] $end
$var wire 1 $ A [28] $end
$var wire 1 % A [27] $end
$var wire 1 & A [26] $end
$var wire 1 ' A [25] $end
$var wire 1 ( A [24] $end
$var wire 1 ) A [23] $end
$var wire 1 * A [22] $end
$var wire 1 + A [21] $end
$var wire 1 , A [20] $end
$var wire 1 - A [19] $end
$var wire 1 . A [18] $end
$var wire 1 / A [17] $end
$var wire 1 0 A [16] $end
$var wire 1 1 A [15] $end
$var wire 1 2 A [14] $end
$var wire 1 3 A [13] $end
$var wire 1 4 A [12] $end
$var wire 1 5 A [11] $end
$var wire 1 6 A [10] $end
$var wire 1 7 A [9] $end
$var wire 1 8 A [8] $end
$var wire 1 9 A [7] $end
$var wire 1 : A [6] $end
$var wire 1 ; A [5] $end
$var wire 1 < A [4] $end
$var wire 1 = A [3] $end
$var wire 1 > A [2] $end
$var wire 1 ? A [1] $end
$var wire 1 @ A [0] $end
$var wire 1 A B [31] $end
$var wire 1 B B [30] $end
$var wire 1 C B [29] $end
$var wire 1 D B [28] $end
$var wire 1 E B [27] $end
$var wire 1 F B [26] $end
$var wire 1 G B [25] $end
$var wire 1 H B [24] $end
$var wire 1 I B [23] $end
$var wire 1 J B [22] $end
$var wire 1 K B [21] $end
$var wire 1 L B [20] $end
$var wire 1 M B [19] $end
$var wire 1 N B [18] $end
$var wire 1 O B [17] $end
$var wire 1 P B [16] $end
$var wire 1 Q B [15] $end
$var wire 1 R B [14] $end
$var wire 1 S B [13] $end
$var wire 1 T B [12] $end
$var wire 1 U B [11] $end
$var wire 1 V B [10] $end
$var wire 1 W B [9] $end
$var wire 1 X B [8] $end
$var wire 1 Y B [7] $end
$var wire 1 Z B [6] $end
$var wire 1 [ B [5] $end
$var wire 1 \ B [4] $end
$var wire 1 ] B [3] $end
$var wire 1 ^ B [2] $end
$var wire 1 _ B [1] $end
$var wire 1 ` B [0] $end
$var wire 1 a C [31] $end
$var wire 1 b C [30] $end
$var wire 1 c C [29] $end
$var wire 1 d C [28] $end
$var wire 1 e C [27] $end
$var wire 1 f C [26] $end
$var wire 1 g C [25] $end
$var wire 1 h C [24] $end
$var wire 1 i C [23] $end
$var wire 1 j C [22] $end
$var wire 1 k C [21] $end
$var wire 1 l C [20] $end
$var wire 1 m C [19] $end
$var wire 1 n C [18] $end
$var wire 1 o C [17] $end
$var wire 1 p C [16] $end
$var wire 1 q C [15] $end
$var wire 1 r C [14] $end
$var wire 1 s C [13] $end
$var wire 1 t C [12] $end
$var wire 1 u C [11] $end
$var wire 1 v C [10] $end
$var wire 1 w C [9] $end
$var wire 1 x C [8] $end
$var wire 1 y C [7] $end
$var wire 1 z C [6] $end
$var wire 1 { C [5] $end
$var wire 1 | C [4] $end
$var wire 1 } C [3] $end
$var wire 1 ~ C [2] $end
$var wire 1 !! C [1] $end
$var wire 1 "! C [0] $end
$var wire 1 #! s [31] $end
$var wire 1 $! s [30] $end
$var wire 1 %! s [29] $end
$var wire 1 &! s [28] $end
$var wire 1 '! s [27] $end
$var wire 1 (! s [26] $end
$var wire 1 )! s [25] $end
$var wire 1 *! s [24] $end
$var wire 1 +! s [23] $end
$var wire 1 ,! s [22] $end
$var wire 1 -! s [21] $end
$var wire 1 .! s [20] $end
$var wire 1 /! s [19] $end
$var wire 1 0! s [18] $end
$var wire 1 1! s [17] $end
$var wire 1 2! s [16] $end
$var wire 1 3! s [15] $end
$var wire 1 4! s [14] $end
$var wire 1 5! s [13] $end
$var wire 1 6! s [12] $end
$var wire 1 7! s [11] $end
$var wire 1 8! s [10] $end
$var wire 1 9! s [9] $end
$var wire 1 :! s [8] $end
$var wire 1 ;! s [7] $end
$var wire 1 <! s [6] $end
$var wire 1 =! s [5] $end
$var wire 1 >! s [4] $end
$var wire 1 ?! s [3] $end
$var wire 1 @! s [2] $end
$var wire 1 A! s [1] $end
$var wire 1 B! s [0] $end
$var wire 1 C! sel [1] $end
$var wire 1 D! sel [0] $end

$scope module i1 $end
$var wire 1 E! gnd $end
$var wire 1 F! vcc $end
$var wire 1 G! unknown $end
$var wire 1 H! devoe $end
$var wire 1 I! devclrn $end
$var wire 1 J! devpor $end
$var wire 1 K! ww_devoe $end
$var wire 1 L! ww_devclrn $end
$var wire 1 M! ww_devpor $end
$var wire 1 N! ww_A [31] $end
$var wire 1 O! ww_A [30] $end
$var wire 1 P! ww_A [29] $end
$var wire 1 Q! ww_A [28] $end
$var wire 1 R! ww_A [27] $end
$var wire 1 S! ww_A [26] $end
$var wire 1 T! ww_A [25] $end
$var wire 1 U! ww_A [24] $end
$var wire 1 V! ww_A [23] $end
$var wire 1 W! ww_A [22] $end
$var wire 1 X! ww_A [21] $end
$var wire 1 Y! ww_A [20] $end
$var wire 1 Z! ww_A [19] $end
$var wire 1 [! ww_A [18] $end
$var wire 1 \! ww_A [17] $end
$var wire 1 ]! ww_A [16] $end
$var wire 1 ^! ww_A [15] $end
$var wire 1 _! ww_A [14] $end
$var wire 1 `! ww_A [13] $end
$var wire 1 a! ww_A [12] $end
$var wire 1 b! ww_A [11] $end
$var wire 1 c! ww_A [10] $end
$var wire 1 d! ww_A [9] $end
$var wire 1 e! ww_A [8] $end
$var wire 1 f! ww_A [7] $end
$var wire 1 g! ww_A [6] $end
$var wire 1 h! ww_A [5] $end
$var wire 1 i! ww_A [4] $end
$var wire 1 j! ww_A [3] $end
$var wire 1 k! ww_A [2] $end
$var wire 1 l! ww_A [1] $end
$var wire 1 m! ww_A [0] $end
$var wire 1 n! ww_B [31] $end
$var wire 1 o! ww_B [30] $end
$var wire 1 p! ww_B [29] $end
$var wire 1 q! ww_B [28] $end
$var wire 1 r! ww_B [27] $end
$var wire 1 s! ww_B [26] $end
$var wire 1 t! ww_B [25] $end
$var wire 1 u! ww_B [24] $end
$var wire 1 v! ww_B [23] $end
$var wire 1 w! ww_B [22] $end
$var wire 1 x! ww_B [21] $end
$var wire 1 y! ww_B [20] $end
$var wire 1 z! ww_B [19] $end
$var wire 1 {! ww_B [18] $end
$var wire 1 |! ww_B [17] $end
$var wire 1 }! ww_B [16] $end
$var wire 1 ~! ww_B [15] $end
$var wire 1 !" ww_B [14] $end
$var wire 1 "" ww_B [13] $end
$var wire 1 #" ww_B [12] $end
$var wire 1 $" ww_B [11] $end
$var wire 1 %" ww_B [10] $end
$var wire 1 &" ww_B [9] $end
$var wire 1 '" ww_B [8] $end
$var wire 1 (" ww_B [7] $end
$var wire 1 )" ww_B [6] $end
$var wire 1 *" ww_B [5] $end
$var wire 1 +" ww_B [4] $end
$var wire 1 ," ww_B [3] $end
$var wire 1 -" ww_B [2] $end
$var wire 1 ." ww_B [1] $end
$var wire 1 /" ww_B [0] $end
$var wire 1 0" ww_C [31] $end
$var wire 1 1" ww_C [30] $end
$var wire 1 2" ww_C [29] $end
$var wire 1 3" ww_C [28] $end
$var wire 1 4" ww_C [27] $end
$var wire 1 5" ww_C [26] $end
$var wire 1 6" ww_C [25] $end
$var wire 1 7" ww_C [24] $end
$var wire 1 8" ww_C [23] $end
$var wire 1 9" ww_C [22] $end
$var wire 1 :" ww_C [21] $end
$var wire 1 ;" ww_C [20] $end
$var wire 1 <" ww_C [19] $end
$var wire 1 =" ww_C [18] $end
$var wire 1 >" ww_C [17] $end
$var wire 1 ?" ww_C [16] $end
$var wire 1 @" ww_C [15] $end
$var wire 1 A" ww_C [14] $end
$var wire 1 B" ww_C [13] $end
$var wire 1 C" ww_C [12] $end
$var wire 1 D" ww_C [11] $end
$var wire 1 E" ww_C [10] $end
$var wire 1 F" ww_C [9] $end
$var wire 1 G" ww_C [8] $end
$var wire 1 H" ww_C [7] $end
$var wire 1 I" ww_C [6] $end
$var wire 1 J" ww_C [5] $end
$var wire 1 K" ww_C [4] $end
$var wire 1 L" ww_C [3] $end
$var wire 1 M" ww_C [2] $end
$var wire 1 N" ww_C [1] $end
$var wire 1 O" ww_C [0] $end
$var wire 1 P" ww_sel [1] $end
$var wire 1 Q" ww_sel [0] $end
$var wire 1 R" ww_s [31] $end
$var wire 1 S" ww_s [30] $end
$var wire 1 T" ww_s [29] $end
$var wire 1 U" ww_s [28] $end
$var wire 1 V" ww_s [27] $end
$var wire 1 W" ww_s [26] $end
$var wire 1 X" ww_s [25] $end
$var wire 1 Y" ww_s [24] $end
$var wire 1 Z" ww_s [23] $end
$var wire 1 [" ww_s [22] $end
$var wire 1 \" ww_s [21] $end
$var wire 1 ]" ww_s [20] $end
$var wire 1 ^" ww_s [19] $end
$var wire 1 _" ww_s [18] $end
$var wire 1 `" ww_s [17] $end
$var wire 1 a" ww_s [16] $end
$var wire 1 b" ww_s [15] $end
$var wire 1 c" ww_s [14] $end
$var wire 1 d" ww_s [13] $end
$var wire 1 e" ww_s [12] $end
$var wire 1 f" ww_s [11] $end
$var wire 1 g" ww_s [10] $end
$var wire 1 h" ww_s [9] $end
$var wire 1 i" ww_s [8] $end
$var wire 1 j" ww_s [7] $end
$var wire 1 k" ww_s [6] $end
$var wire 1 l" ww_s [5] $end
$var wire 1 m" ww_s [4] $end
$var wire 1 n" ww_s [3] $end
$var wire 1 o" ww_s [2] $end
$var wire 1 p" ww_s [1] $end
$var wire 1 q" ww_s [0] $end
$var wire 1 r" \~QUARTUS_CREATED_GND~I_combout\ $end
$var wire 1 s" \sel[1]~input_o\ $end
$var wire 1 t" \B[0]~input_o\ $end
$var wire 1 u" \A[0]~input_o\ $end
$var wire 1 v" \sel[0]~input_o\ $end
$var wire 1 w" \C[0]~input_o\ $end
$var wire 1 x" \Mux31~0_combout\ $end
$var wire 1 y" \C[1]~input_o\ $end
$var wire 1 z" \B[1]~input_o\ $end
$var wire 1 {" \A[1]~input_o\ $end
$var wire 1 |" \Mux30~0_combout\ $end
$var wire 1 }" \A[2]~input_o\ $end
$var wire 1 ~" \B[2]~input_o\ $end
$var wire 1 !# \C[2]~input_o\ $end
$var wire 1 "# \Mux29~0_combout\ $end
$var wire 1 ## \A[3]~input_o\ $end
$var wire 1 $# \B[3]~input_o\ $end
$var wire 1 %# \C[3]~input_o\ $end
$var wire 1 &# \Mux28~0_combout\ $end
$var wire 1 '# \C[4]~input_o\ $end
$var wire 1 (# \B[4]~input_o\ $end
$var wire 1 )# \A[4]~input_o\ $end
$var wire 1 *# \Mux27~0_combout\ $end
$var wire 1 +# \C[5]~input_o\ $end
$var wire 1 ,# \A[5]~input_o\ $end
$var wire 1 -# \B[5]~input_o\ $end
$var wire 1 .# \Mux26~0_combout\ $end
$var wire 1 /# \B[6]~input_o\ $end
$var wire 1 0# \A[6]~input_o\ $end
$var wire 1 1# \C[6]~input_o\ $end
$var wire 1 2# \Mux25~0_combout\ $end
$var wire 1 3# \B[7]~input_o\ $end
$var wire 1 4# \A[7]~input_o\ $end
$var wire 1 5# \C[7]~input_o\ $end
$var wire 1 6# \Mux24~0_combout\ $end
$var wire 1 7# \C[8]~input_o\ $end
$var wire 1 8# \B[8]~input_o\ $end
$var wire 1 9# \A[8]~input_o\ $end
$var wire 1 :# \Mux23~0_combout\ $end
$var wire 1 ;# \B[9]~input_o\ $end
$var wire 1 <# \C[9]~input_o\ $end
$var wire 1 =# \A[9]~input_o\ $end
$var wire 1 ># \Mux22~0_combout\ $end
$var wire 1 ?# \B[10]~input_o\ $end
$var wire 1 @# \A[10]~input_o\ $end
$var wire 1 A# \C[10]~input_o\ $end
$var wire 1 B# \Mux21~0_combout\ $end
$var wire 1 C# \C[11]~input_o\ $end
$var wire 1 D# \A[11]~input_o\ $end
$var wire 1 E# \B[11]~input_o\ $end
$var wire 1 F# \Mux20~0_combout\ $end
$var wire 1 G# \A[12]~input_o\ $end
$var wire 1 H# \B[12]~input_o\ $end
$var wire 1 I# \C[12]~input_o\ $end
$var wire 1 J# \Mux19~0_combout\ $end
$var wire 1 K# \B[13]~input_o\ $end
$var wire 1 L# \C[13]~input_o\ $end
$var wire 1 M# \A[13]~input_o\ $end
$var wire 1 N# \Mux18~0_combout\ $end
$var wire 1 O# \B[14]~input_o\ $end
$var wire 1 P# \C[14]~input_o\ $end
$var wire 1 Q# \A[14]~input_o\ $end
$var wire 1 R# \Mux17~0_combout\ $end
$var wire 1 S# \B[15]~input_o\ $end
$var wire 1 T# \A[15]~input_o\ $end
$var wire 1 U# \C[15]~input_o\ $end
$var wire 1 V# \Mux16~0_combout\ $end
$var wire 1 W# \B[16]~input_o\ $end
$var wire 1 X# \C[16]~input_o\ $end
$var wire 1 Y# \A[16]~input_o\ $end
$var wire 1 Z# \Mux15~0_combout\ $end
$var wire 1 [# \C[17]~input_o\ $end
$var wire 1 \# \B[17]~input_o\ $end
$var wire 1 ]# \A[17]~input_o\ $end
$var wire 1 ^# \Mux14~0_combout\ $end
$var wire 1 _# \C[18]~input_o\ $end
$var wire 1 `# \B[18]~input_o\ $end
$var wire 1 a# \A[18]~input_o\ $end
$var wire 1 b# \Mux13~0_combout\ $end
$var wire 1 c# \C[19]~input_o\ $end
$var wire 1 d# \A[19]~input_o\ $end
$var wire 1 e# \B[19]~input_o\ $end
$var wire 1 f# \Mux12~0_combout\ $end
$var wire 1 g# \A[20]~input_o\ $end
$var wire 1 h# \B[20]~input_o\ $end
$var wire 1 i# \C[20]~input_o\ $end
$var wire 1 j# \Mux11~0_combout\ $end
$var wire 1 k# \B[21]~input_o\ $end
$var wire 1 l# \A[21]~input_o\ $end
$var wire 1 m# \C[21]~input_o\ $end
$var wire 1 n# \Mux10~0_combout\ $end
$var wire 1 o# \A[22]~input_o\ $end
$var wire 1 p# \B[22]~input_o\ $end
$var wire 1 q# \C[22]~input_o\ $end
$var wire 1 r# \Mux9~0_combout\ $end
$var wire 1 s# \C[23]~input_o\ $end
$var wire 1 t# \A[23]~input_o\ $end
$var wire 1 u# \B[23]~input_o\ $end
$var wire 1 v# \Mux8~0_combout\ $end
$var wire 1 w# \A[24]~input_o\ $end
$var wire 1 x# \B[24]~input_o\ $end
$var wire 1 y# \C[24]~input_o\ $end
$var wire 1 z# \Mux7~0_combout\ $end
$var wire 1 {# \C[25]~input_o\ $end
$var wire 1 |# \B[25]~input_o\ $end
$var wire 1 }# \A[25]~input_o\ $end
$var wire 1 ~# \Mux6~0_combout\ $end
$var wire 1 !$ \B[26]~input_o\ $end
$var wire 1 "$ \C[26]~input_o\ $end
$var wire 1 #$ \A[26]~input_o\ $end
$var wire 1 $$ \Mux5~0_combout\ $end
$var wire 1 %$ \A[27]~input_o\ $end
$var wire 1 &$ \B[27]~input_o\ $end
$var wire 1 '$ \C[27]~input_o\ $end
$var wire 1 ($ \Mux4~0_combout\ $end
$var wire 1 )$ \C[28]~input_o\ $end
$var wire 1 *$ \B[28]~input_o\ $end
$var wire 1 +$ \A[28]~input_o\ $end
$var wire 1 ,$ \Mux3~0_combout\ $end
$var wire 1 -$ \C[29]~input_o\ $end
$var wire 1 .$ \A[29]~input_o\ $end
$var wire 1 /$ \B[29]~input_o\ $end
$var wire 1 0$ \Mux2~0_combout\ $end
$var wire 1 1$ \A[30]~input_o\ $end
$var wire 1 2$ \C[30]~input_o\ $end
$var wire 1 3$ \B[30]~input_o\ $end
$var wire 1 4$ \Mux1~0_combout\ $end
$var wire 1 5$ \A[31]~input_o\ $end
$var wire 1 6$ \B[31]~input_o\ $end
$var wire 1 7$ \C[31]~input_o\ $end
$var wire 1 8$ \Mux0~0_combout\ $end
$var wire 1 9$ \ALT_INV_A[10]~input_o\ $end
$var wire 1 :$ \ALT_INV_C[10]~input_o\ $end
$var wire 1 ;$ \ALT_INV_B[9]~input_o\ $end
$var wire 1 <$ \ALT_INV_A[9]~input_o\ $end
$var wire 1 =$ \ALT_INV_C[9]~input_o\ $end
$var wire 1 >$ \ALT_INV_B[8]~input_o\ $end
$var wire 1 ?$ \ALT_INV_A[8]~input_o\ $end
$var wire 1 @$ \ALT_INV_C[8]~input_o\ $end
$var wire 1 A$ \ALT_INV_B[7]~input_o\ $end
$var wire 1 B$ \ALT_INV_A[7]~input_o\ $end
$var wire 1 C$ \ALT_INV_C[7]~input_o\ $end
$var wire 1 D$ \ALT_INV_B[6]~input_o\ $end
$var wire 1 E$ \ALT_INV_A[6]~input_o\ $end
$var wire 1 F$ \ALT_INV_C[6]~input_o\ $end
$var wire 1 G$ \ALT_INV_B[5]~input_o\ $end
$var wire 1 H$ \ALT_INV_A[5]~input_o\ $end
$var wire 1 I$ \ALT_INV_C[5]~input_o\ $end
$var wire 1 J$ \ALT_INV_B[4]~input_o\ $end
$var wire 1 K$ \ALT_INV_A[4]~input_o\ $end
$var wire 1 L$ \ALT_INV_C[4]~input_o\ $end
$var wire 1 M$ \ALT_INV_B[3]~input_o\ $end
$var wire 1 N$ \ALT_INV_A[3]~input_o\ $end
$var wire 1 O$ \ALT_INV_C[3]~input_o\ $end
$var wire 1 P$ \ALT_INV_B[2]~input_o\ $end
$var wire 1 Q$ \ALT_INV_A[2]~input_o\ $end
$var wire 1 R$ \ALT_INV_C[2]~input_o\ $end
$var wire 1 S$ \ALT_INV_B[1]~input_o\ $end
$var wire 1 T$ \ALT_INV_A[1]~input_o\ $end
$var wire 1 U$ \ALT_INV_C[1]~input_o\ $end
$var wire 1 V$ \ALT_INV_B[0]~input_o\ $end
$var wire 1 W$ \ALT_INV_sel[0]~input_o\ $end
$var wire 1 X$ \ALT_INV_A[0]~input_o\ $end
$var wire 1 Y$ \ALT_INV_sel[1]~input_o\ $end
$var wire 1 Z$ \ALT_INV_C[0]~input_o\ $end
$var wire 1 [$ \ALT_INV_C[31]~input_o\ $end
$var wire 1 \$ \ALT_INV_B[31]~input_o\ $end
$var wire 1 ]$ \ALT_INV_A[31]~input_o\ $end
$var wire 1 ^$ \ALT_INV_B[30]~input_o\ $end
$var wire 1 _$ \ALT_INV_A[30]~input_o\ $end
$var wire 1 `$ \ALT_INV_C[30]~input_o\ $end
$var wire 1 a$ \ALT_INV_B[29]~input_o\ $end
$var wire 1 b$ \ALT_INV_A[29]~input_o\ $end
$var wire 1 c$ \ALT_INV_C[29]~input_o\ $end
$var wire 1 d$ \ALT_INV_B[28]~input_o\ $end
$var wire 1 e$ \ALT_INV_A[28]~input_o\ $end
$var wire 1 f$ \ALT_INV_C[28]~input_o\ $end
$var wire 1 g$ \ALT_INV_B[27]~input_o\ $end
$var wire 1 h$ \ALT_INV_A[27]~input_o\ $end
$var wire 1 i$ \ALT_INV_C[27]~input_o\ $end
$var wire 1 j$ \ALT_INV_B[26]~input_o\ $end
$var wire 1 k$ \ALT_INV_A[26]~input_o\ $end
$var wire 1 l$ \ALT_INV_C[26]~input_o\ $end
$var wire 1 m$ \ALT_INV_B[25]~input_o\ $end
$var wire 1 n$ \ALT_INV_A[25]~input_o\ $end
$var wire 1 o$ \ALT_INV_C[25]~input_o\ $end
$var wire 1 p$ \ALT_INV_B[24]~input_o\ $end
$var wire 1 q$ \ALT_INV_A[24]~input_o\ $end
$var wire 1 r$ \ALT_INV_C[24]~input_o\ $end
$var wire 1 s$ \ALT_INV_B[23]~input_o\ $end
$var wire 1 t$ \ALT_INV_A[23]~input_o\ $end
$var wire 1 u$ \ALT_INV_C[23]~input_o\ $end
$var wire 1 v$ \ALT_INV_B[22]~input_o\ $end
$var wire 1 w$ \ALT_INV_A[22]~input_o\ $end
$var wire 1 x$ \ALT_INV_C[22]~input_o\ $end
$var wire 1 y$ \ALT_INV_B[21]~input_o\ $end
$var wire 1 z$ \ALT_INV_A[21]~input_o\ $end
$var wire 1 {$ \ALT_INV_C[21]~input_o\ $end
$var wire 1 |$ \ALT_INV_B[20]~input_o\ $end
$var wire 1 }$ \ALT_INV_A[20]~input_o\ $end
$var wire 1 ~$ \ALT_INV_C[20]~input_o\ $end
$var wire 1 !% \ALT_INV_B[19]~input_o\ $end
$var wire 1 "% \ALT_INV_A[19]~input_o\ $end
$var wire 1 #% \ALT_INV_C[19]~input_o\ $end
$var wire 1 $% \ALT_INV_B[18]~input_o\ $end
$var wire 1 %% \ALT_INV_A[18]~input_o\ $end
$var wire 1 &% \ALT_INV_C[18]~input_o\ $end
$var wire 1 '% \ALT_INV_B[17]~input_o\ $end
$var wire 1 (% \ALT_INV_A[17]~input_o\ $end
$var wire 1 )% \ALT_INV_C[17]~input_o\ $end
$var wire 1 *% \ALT_INV_B[16]~input_o\ $end
$var wire 1 +% \ALT_INV_A[16]~input_o\ $end
$var wire 1 ,% \ALT_INV_C[16]~input_o\ $end
$var wire 1 -% \ALT_INV_B[15]~input_o\ $end
$var wire 1 .% \ALT_INV_A[15]~input_o\ $end
$var wire 1 /% \ALT_INV_C[15]~input_o\ $end
$var wire 1 0% \ALT_INV_B[14]~input_o\ $end
$var wire 1 1% \ALT_INV_A[14]~input_o\ $end
$var wire 1 2% \ALT_INV_C[14]~input_o\ $end
$var wire 1 3% \ALT_INV_B[13]~input_o\ $end
$var wire 1 4% \ALT_INV_A[13]~input_o\ $end
$var wire 1 5% \ALT_INV_C[13]~input_o\ $end
$var wire 1 6% \ALT_INV_B[12]~input_o\ $end
$var wire 1 7% \ALT_INV_A[12]~input_o\ $end
$var wire 1 8% \ALT_INV_C[12]~input_o\ $end
$var wire 1 9% \ALT_INV_B[11]~input_o\ $end
$var wire 1 :% \ALT_INV_A[11]~input_o\ $end
$var wire 1 ;% \ALT_INV_C[11]~input_o\ $end
$var wire 1 <% \ALT_INV_B[10]~input_o\ $end
$upscope $end
$upscope $end
$enddefinitions $end
#0
$dumpvars
0E!
1F!
xG!
1H!
1I!
1J!
1K!
1L!
1M!
xr"
0s"
1t"
1u"
0v"
1w"
1x"
0y"
1z"
1{"
1|"
0}"
1~"
1!#
0"#
1##
1$#
0%#
1&#
1'#
1(#
1)#
1*#
0+#
1,#
1-#
1.#
1/#
00#
11#
02#
13#
14#
05#
16#
17#
18#
19#
1:#
1;#
0<#
1=#
1>#
1?#
0@#
1A#
0B#
0C#
1D#
1E#
1F#
1G#
1H#
1I#
1J#
1K#
0L#
1M#
1N#
1O#
1P#
0Q#
0R#
1S#
1T#
0U#
1V#
1W#
1X#
0Y#
0Z#
1[#
1\#
1]#
1^#
0_#
1`#
0a#
0b#
0c#
1d#
1e#
1f#
0g#
1h#
1i#
0j#
1k#
1l#
1m#
1n#
0o#
1p#
0q#
0r#
0s#
1t#
1u#
1v#
0w#
1x#
1y#
0z#
1{#
1|#
1}#
1~#
1!$
0"$
0#$
0$$
1%$
1&$
0'$
1($
1)$
1*$
0+$
0,$
1-$
1.$
1/$
10$
01$
02$
13$
04$
15$
16$
07$
18$
19$
0:$
0;$
0<$
1=$
0>$
0?$
0@$
0A$
0B$
1C$
0D$
1E$
0F$
0G$
0H$
1I$
0J$
0K$
0L$
0M$
0N$
1O$
0P$
1Q$
0R$
0S$
0T$
1U$
0V$
1W$
0X$
1Y$
0Z$
1[$
0\$
0]$
0^$
1_$
1`$
0a$
0b$
0c$
0d$
1e$
0f$
0g$
0h$
1i$
0j$
1k$
1l$
0m$
0n$
0o$
0p$
1q$
0r$
0s$
0t$
1u$
0v$
1w$
1x$
0y$
0z$
0{$
0|$
1}$
0~$
0!%
0"%
1#%
0$%
1%%
1&%
0'%
0(%
0)%
0*%
1+%
0,%
0-%
0.%
1/%
00%
11%
02%
03%
04%
15%
06%
07%
08%
09%
0:%
1;%
0<%
1#!
0$!
1%!
0&!
1'!
0(!
1)!
0*!
1+!
0,!
1-!
0.!
1/!
00!
11!
02!
13!
04!
15!
16!
17!
08!
19!
1:!
1;!
0<!
1=!
1>!
1?!
0@!
1A!
1B!
1!
0"
1#
0$
1%
0&
1'
0(
1)
0*
1+
0,
1-
0.
1/
00
11
02
13
14
15
06
17
18
19
0:
1;
1<
1=
0>
1?
1@
1A
1B
1C
1D
1E
1F
1G
1H
1I
1J
1K
1L
1M
1N
1O
1P
1Q
1R
1S
1T
1U
1V
1W
1X
1Y
1Z
1[
1\
1]
1^
1_
1`
0a
0b
1c
1d
0e
0f
1g
1h
0i
0j
1k
1l
0m
0n
1o
1p
0q
1r
0s
1t
0u
1v
0w
1x
0y
1z
0{
1|
0}
1~
0!!
1"!
0C!
0D!
1N!
0O!
1P!
0Q!
1R!
0S!
1T!
0U!
1V!
0W!
1X!
0Y!
1Z!
0[!
1\!
0]!
1^!
0_!
1`!
1a!
1b!
0c!
1d!
1e!
1f!
0g!
1h!
1i!
1j!
0k!
1l!
1m!
1n!
1o!
1p!
1q!
1r!
1s!
1t!
1u!
1v!
1w!
1x!
1y!
1z!
1{!
1|!
1}!
1~!
1!"
1""
1#"
1$"
1%"
1&"
1'"
1("
1)"
1*"
1+"
1,"
1-"
1."
1/"
00"
01"
12"
13"
04"
05"
16"
17"
08"
09"
1:"
1;"
0<"
0="
1>"
1?"
0@"
1A"
0B"
1C"
0D"
1E"
0F"
1G"
0H"
1I"
0J"
1K"
0L"
1M"
0N"
1O"
0P"
0Q"
1R"
0S"
1T"
0U"
1V"
0W"
1X"
0Y"
1Z"
0["
1\"
0]"
1^"
0_"
1`"
0a"
1b"
0c"
1d"
1e"
1f"
0g"
1h"
1i"
1j"
0k"
1l"
1m"
1n"
0o"
1p"
1q"
$end
#10000
1D!
1Q"
1v"
0W$
1"#
12#
1B#
1R#
1Z#
1b#
1j#
1r#
1z#
1$$
1,$
14$
1S"
1U"
1W"
1Y"
1["
1]"
1_"
1a"
1c"
1g"
1k"
1o"
1@!
1<!
18!
14!
12!
10!
1.!
1,!
1*!
1(!
1&!
1$!
#20000
0D!
1C!
0Q"
1P"
1s"
0v"
1W$
0Y$
0|"
0&#
0.#
06#
0>#
0F#
0N#
0V#
0b#
0f#
0r#
0v#
0$$
0($
04$
08$
0R"
0S"
0V"
0W"
0Z"
0["
0^"
0_"
0b"
0d"
0f"
0h"
0j"
0l"
0n"
0p"
0A!
0?!
0=!
0;!
09!
07!
05!
03!
00!
0/!
0,!
0+!
0(!
0'!
0$!
0#!
#30000
1D!
1Q"
1v"
0W$
1|"
1&#
1.#
16#
1>#
1F#
1N#
1V#
1b#
1f#
1r#
1v#
1$$
1($
14$
18$
1R"
1S"
1V"
1W"
1Z"
1["
1^"
1_"
1b"
1d"
1f"
1h"
1j"
1l"
1n"
1p"
1A!
1?!
1=!
1;!
19!
17!
15!
13!
10!
1/!
1,!
1+!
1(!
1'!
1$!
1#!
#40000
0D!
0C!
0Q"
0P"
0s"
0v"
1W$
1Y$
0"#
02#
0B#
0R#
0Z#
0b#
0j#
0r#
0z#
0$$
0,$
04$
0S"
0U"
0W"
0Y"
0["
0]"
0_"
0a"
0c"
0g"
0k"
0o"
0@!
0<!
08!
04!
02!
00!
0.!
0,!
0*!
0(!
0&!
0$!
#50000
1D!
1Q"
1v"
0W$
1"#
12#
1B#
1R#
1Z#
1b#
1j#
1r#
1z#
1$$
1,$
14$
1S"
1U"
1W"
1Y"
1["
1]"
1_"
1a"
1c"
1g"
1k"
1o"
1@!
1<!
18!
14!
12!
10!
1.!
1,!
1*!
1(!
1&!
1$!
#60000
0D!
1C!
0Q"
1P"
1s"
0v"
1W$
0Y$
0|"
0&#
0.#
06#
0>#
0F#
0N#
0V#
0b#
0f#
0r#
0v#
0$$
0($
04$
08$
0R"
0S"
0V"
0W"
0Z"
0["
0^"
0_"
0b"
0d"
0f"
0h"
0j"
0l"
0n"
0p"
0A!
0?!
0=!
0;!
09!
07!
05!
03!
00!
0/!
0,!
0+!
0(!
0'!
0$!
0#!
#70000
1D!
1Q"
1v"
0W$
1|"
1&#
1.#
16#
1>#
1F#
1N#
1V#
1b#
1f#
1r#
1v#
1$$
1($
14$
18$
1R"
1S"
1V"
1W"
1Z"
1["
1^"
1_"
1b"
1d"
1f"
1h"
1j"
1l"
1n"
1p"
1A!
1?!
1=!
1;!
19!
17!
15!
13!
10!
1/!
1,!
1+!
1(!
1'!
1$!
1#!
#80000
0D!
0C!
0Q"
0P"
0s"
0v"
1W$
1Y$
0"#
02#
0B#
0R#
0Z#
0b#
0j#
0r#
0z#
0$$
0,$
04$
0S"
0U"
0W"
0Y"
0["
0]"
0_"
0a"
0c"
0g"
0k"
0o"
0@!
0<!
08!
04!
02!
00!
0.!
0,!
0*!
0(!
0&!
0$!
#90000
1D!
1Q"
1v"
0W$
1"#
12#
1B#
1R#
1Z#
1b#
1j#
1r#
1z#
1$$
1,$
14$
1S"
1U"
1W"
1Y"
1["
1]"
1_"
1a"
1c"
1g"
1k"
1o"
1@!
1<!
18!
14!
12!
10!
1.!
1,!
1*!
1(!
1&!
1$!
#100000
0D!
1C!
0Q"
1P"
1s"
0v"
1W$
0Y$
0|"
0&#
0.#
06#
0>#
0F#
0N#
0V#
0b#
0f#
0r#
0v#
0$$
0($
04$
08$
0R"
0S"
0V"
0W"
0Z"
0["
0^"
0_"
0b"
0d"
0f"
0h"
0j"
0l"
0n"
0p"
0A!
0?!
0=!
0;!
09!
07!
05!
03!
00!
0/!
0,!
0+!
0(!
0'!
0$!
0#!
#110000
1D!
1Q"
1v"
0W$
1|"
1&#
1.#
16#
1>#
1F#
1N#
1V#
1b#
1f#
1r#
1v#
1$$
1($
14$
18$
1R"
1S"
1V"
1W"
1Z"
1["
1^"
1_"
1b"
1d"
1f"
1h"
1j"
1l"
1n"
1p"
1A!
1?!
1=!
1;!
19!
17!
15!
13!
10!
1/!
1,!
1+!
1(!
1'!
1$!
1#!
